\relax 
\providecommand\hyper@newdestlabel[2]{}
\citation{Altland}
\citation{Altland}
\@writefile{toc}{\contentsline {section}{\numberline {I}Structure For Effective Partition Function}{1}{section*.3}}
\newlabel{eq:timesliced_partitionFct}{{4}{1}{}{equation.1.4}{}}
\citation{Kamenev}
\citation{Kamenev}
\citation{Kamenev}
\newlabel{eq:pmAction}{{10}{2}{}{equation.1.10}{}}
\citation{Kamenev}
\citation{Kamenev}
\citation{Kamenev}
\newlabel{eq:Keldysh2site}{{14}{3}{}{equation.1.14}{}}
\newlabel{eq:InteractionKeldyshform}{{16}{3}{}{equation.1.16}{}}
\@writefile{tdo}{\contentsline {todo}{add calculation to appendix}{3}{section*.4}}
\@writefile{tdo}{\contentsline {todo}{given in the above appendix}{3}{section*.5}}
\newlabel{eq:selfEnergies}{{20}{3}{}{equation.1.20}{}}
\newlabel{eq:InverseChainPropagators}{{21}{3}{}{equation.1.21}{}}
\@writefile{tdo}{\contentsline {todo}{prove this relation without using F}{3}{section*.6}}
\newlabel{eq:Keldyshprop_causality}{{22}{3}{}{equation.1.22}{}}
\@writefile{tdo}{\contentsline {todo}{Understand what this convolution thing means in Fourier space}{3}{section*.7}}
\newlabel{eq:fullInversePropagator}{{23}{3}{}{equation.1.23}{}}
\@setckpt{sections/Eff_part}{
\setcounter{page}{4}
\setcounter{equation}{25}
\setcounter{enumi}{0}
\setcounter{enumii}{0}
\setcounter{enumiii}{0}
\setcounter{enumiv}{0}
\setcounter{footnote}{0}
\setcounter{mpfootnote}{0}
\setcounter{affil}{2}
\setcounter{collab}{0}
\setcounter{linecount}{0}
\setcounter{part}{0}
\setcounter{section}{1}
\setcounter{subsection}{0}
\setcounter{subsubsection}{0}
\setcounter{paragraph}{0}
\setcounter{subparagraph}{0}
\setcounter{figure}{0}
\setcounter{table}{0}
\setcounter{video}{0}
\setcounter{NAT@ctr}{0}
\setcounter{Item}{0}
\setcounter{Hfootnote}{0}
\setcounter{bookmark@seq@number}{3}
\setcounter{parentequation}{0}
\setcounter{@todonotes@numberoftodonotes}{4}
\setcounter{ContinuedFloat}{0}
\setcounter{section@level}{0}
}
