<?xml version="1.0" encoding="UTF-8" standalone="no"?>
<!-- Created with Inkscape (http://www.inkscape.org/) -->

<svg
   xmlns:dc="http://purl.org/dc/elements/1.1/"
   xmlns:cc="http://creativecommons.org/ns#"
   xmlns:rdf="http://www.w3.org/1999/02/22-rdf-syntax-ns#"
   xmlns:svg="http://www.w3.org/2000/svg"
   xmlns="http://www.w3.org/2000/svg"
   xmlns:sodipodi="http://sodipodi.sourceforge.net/DTD/sodipodi-0.dtd"
   xmlns:inkscape="http://www.inkscape.org/namespaces/inkscape"
   inkscape:version="0.91 r13725"
   version="1.1"
   id="svg2"
   viewBox="0 0 185.43002 49.839156"
   height="14.065717mm"
   width="52.332474mm"
   sodipodi:docname="2site.svg"
   inkscape:export-filename="/home/christian/repos/non_equilibrium/Report/Figures/2site.png"
   inkscape:export-xdpi="300"
   inkscape:export-ydpi="300">
  <sodipodi:namedview
     inkscape:window-maximized="1"
     inkscape:window-y="45"
     inkscape:window-x="0"
     inkscape:window-height="1670"
     inkscape:window-width="3200"
     showgrid="false"
     inkscape:current-layer="layer1"
     inkscape:document-units="px"
     inkscape:cy="71.77889"
     inkscape:cx="103.75998"
     inkscape:zoom="8.1273919"
     inkscape:pageshadow="2"
     inkscape:pageopacity="0.0"
     borderopacity="1.0"
     bordercolor="#666666"
     pagecolor="#ffffff"
     id="base"
     fit-margin-top="0"
     fit-margin-left="0"
     fit-margin-right="0"
     fit-margin-bottom="0" />
  <defs
     id="defs4">
    <marker
       inkscape:stockid="Arrow2Lend"
       orient="auto"
       refY="0"
       refX="0"
       id="Arrow2Lend"
       style="overflow:visible"
       inkscape:isstock="true">
      <path
         id="path4182"
         style="fill:#000000;fill-opacity:1;fill-rule:evenodd;stroke:#000000;stroke-width:0.625;stroke-linejoin:round;stroke-opacity:1"
         d="M 8.7185878,4.0337352 -2.2072895,0.01601326 8.7185884,-4.0017078 c -1.7454984,2.3720609 -1.7354408,5.6174519 -6e-7,8.035443 z"
         transform="matrix(-1.1,0,0,-1.1,-1.1,0)"
         inkscape:connector-curvature="0" />
    </marker>
    <marker
       inkscape:stockid="Arrow1Mend"
       orient="auto"
       refY="0"
       refX="0"
       id="marker4719"
       style="overflow:visible"
       inkscape:isstock="true">
      <path
         id="path4721"
         d="M 0,0 5,-5 -12.5,0 5,5 0,0 Z"
         style="fill:#000000;fill-opacity:1;fill-rule:evenodd;stroke:#000000;stroke-width:1pt;stroke-opacity:1"
         transform="matrix(-0.4,0,0,-0.4,-4,0)"
         inkscape:connector-curvature="0" />
    </marker>
    <marker
       inkscape:stockid="Arrow1Send"
       orient="auto"
       refY="0"
       refX="0"
       id="Arrow1Send"
       style="overflow:visible"
       inkscape:isstock="true">
      <path
         id="path4176"
         d="M 0,0 5,-5 -12.5,0 5,5 0,0 Z"
         style="fill:#000000;fill-opacity:1;fill-rule:evenodd;stroke:#000000;stroke-width:1pt;stroke-opacity:1"
         transform="matrix(-0.2,0,0,-0.2,-1.2,0)"
         inkscape:connector-curvature="0" />
    </marker>
    <marker
       inkscape:stockid="Arrow1Mend"
       orient="auto"
       refY="0"
       refX="0"
       id="Arrow1Mend"
       style="overflow:visible"
       inkscape:isstock="true">
      <path
         id="path4170"
         d="M 0,0 5,-5 -12.5,0 5,5 0,0 Z"
         style="fill:#000000;fill-opacity:1;fill-rule:evenodd;stroke:#000000;stroke-width:1pt;stroke-opacity:1"
         transform="matrix(-0.4,0,0,-0.4,-4,0)"
         inkscape:connector-curvature="0" />
    </marker>
    <marker
       inkscape:stockid="Arrow1Sstart"
       orient="auto"
       refY="0"
       refX="0"
       id="marker4501"
       style="overflow:visible"
       inkscape:isstock="true">
      <path
         id="path4503"
         d="M 0,0 5,-5 -12.5,0 5,5 0,0 Z"
         style="fill:#000000;fill-opacity:1;fill-rule:evenodd;stroke:#000000;stroke-width:1pt;stroke-opacity:1"
         transform="matrix(0.2,0,0,0.2,1.2,0)"
         inkscape:connector-curvature="0" />
    </marker>
    <marker
       inkscape:stockid="Arrow1Sstart"
       orient="auto"
       refY="0"
       refX="0"
       id="Arrow1Sstart"
       style="overflow:visible"
       inkscape:isstock="true">
      <path
         id="path4173"
         d="M 0,0 5,-5 -12.5,0 5,5 0,0 Z"
         style="fill:#000000;fill-opacity:1;fill-rule:evenodd;stroke:#000000;stroke-width:1pt;stroke-opacity:1"
         transform="matrix(0.2,0,0,0.2,1.2,0)"
         inkscape:connector-curvature="0" />
    </marker>
    <marker
       inkscape:stockid="Arrow1Mstart"
       orient="auto"
       refY="0"
       refX="0"
       id="Arrow1Mstart"
       style="overflow:visible"
       inkscape:isstock="true">
      <path
         id="path4167"
         d="M 0,0 5,-5 -12.5,0 5,5 0,0 Z"
         style="fill:#000000;fill-opacity:1;fill-rule:evenodd;stroke:#000000;stroke-width:1pt;stroke-opacity:1"
         transform="matrix(0.4,0,0,0.4,4,0)"
         inkscape:connector-curvature="0" />
    </marker>
    <marker
       inkscape:stockid="Arrow1Lend"
       orient="auto"
       refY="0"
       refX="0"
       id="Arrow1Lend"
       style="overflow:visible"
       inkscape:isstock="true">
      <path
         id="path4164"
         d="M 0,0 5,-5 -12.5,0 5,5 0,0 Z"
         style="fill:#000000;fill-opacity:1;fill-rule:evenodd;stroke:#000000;stroke-width:1pt;stroke-opacity:1"
         transform="matrix(-0.8,0,0,-0.8,-10,0)"
         inkscape:connector-curvature="0" />
    </marker>
    <marker
       inkscape:stockid="Arrow1Mstart"
       orient="auto"
       refY="0"
       refX="0"
       id="Arrow1Mstart-6"
       style="overflow:visible"
       inkscape:isstock="true">
      <path
         id="path4167-7"
         d="M 0,0 5,-5 -12.5,0 5,5 0,0 Z"
         style="fill:#000000;fill-opacity:1;fill-rule:evenodd;stroke:#000000;stroke-width:1pt;stroke-opacity:1"
         transform="matrix(0.4,0,0,0.4,4,0)"
         inkscape:connector-curvature="0" />
    </marker>
    <marker
       inkscape:stockid="Arrow1Mend"
       orient="auto"
       refY="0"
       refX="0"
       id="Arrow1Mend-5"
       style="overflow:visible"
       inkscape:isstock="true">
      <path
         id="path4170-3"
         d="M 0,0 5,-5 -12.5,0 5,5 0,0 Z"
         style="fill:#000000;fill-opacity:1;fill-rule:evenodd;stroke:#000000;stroke-width:1pt;stroke-opacity:1"
         transform="matrix(-0.4,0,0,-0.4,-4,0)"
         inkscape:connector-curvature="0" />
    </marker>
    <marker
       inkscape:stockid="Arrow1Mstart"
       orient="auto"
       refY="0"
       refX="0"
       id="Arrow1Mstart-3"
       style="overflow:visible"
       inkscape:isstock="true">
      <path
         id="path4167-6"
         d="M 0,0 5,-5 -12.5,0 5,5 0,0 Z"
         style="fill:#000000;fill-opacity:1;fill-rule:evenodd;stroke:#000000;stroke-width:1pt;stroke-opacity:1"
         transform="matrix(0.4,0,0,0.4,4,0)"
         inkscape:connector-curvature="0" />
    </marker>
    <marker
       inkscape:stockid="Arrow1Mend"
       orient="auto"
       refY="0"
       refX="0"
       id="Arrow1Mend-0"
       style="overflow:visible"
       inkscape:isstock="true">
      <path
         id="path4170-6"
         d="M 0,0 5,-5 -12.5,0 5,5 0,0 Z"
         style="fill:#000000;fill-opacity:1;fill-rule:evenodd;stroke:#000000;stroke-width:1pt;stroke-opacity:1"
         transform="matrix(-0.4,0,0,-0.4,-4,0)"
         inkscape:connector-curvature="0" />
    </marker>
    <marker
       inkscape:stockid="Arrow1Mstart"
       orient="auto"
       refY="0"
       refX="0"
       id="Arrow1Mstart-5"
       style="overflow:visible"
       inkscape:isstock="true">
      <path
         id="path4167-9"
         d="M 0,0 5,-5 -12.5,0 5,5 0,0 Z"
         style="fill:#000000;fill-opacity:1;fill-rule:evenodd;stroke:#000000;stroke-width:1pt;stroke-opacity:1"
         transform="matrix(0.4,0,0,0.4,4,0)"
         inkscape:connector-curvature="0" />
    </marker>
    <marker
       inkscape:stockid="Arrow1Mend"
       orient="auto"
       refY="0"
       refX="0"
       id="Arrow1Mend-2"
       style="overflow:visible"
       inkscape:isstock="true">
      <path
         id="path4170-2"
         d="M 0,0 5,-5 -12.5,0 5,5 0,0 Z"
         style="fill:#000000;fill-opacity:1;fill-rule:evenodd;stroke:#000000;stroke-width:1pt;stroke-opacity:1"
         transform="matrix(-0.4,0,0,-0.4,-4,0)"
         inkscape:connector-curvature="0" />
    </marker>
    <g
       id="g4988">
      <symbol
         style="overflow:visible"
         overflow="visible"
         id="glyph0-0">
        <path
           inkscape:connector-curvature="0"
           style="stroke:none"
           d=""
           id="path4991" />
      </symbol>
      <symbol
         style="overflow:visible"
         overflow="visible"
         id="glyph0-1">
        <path
           inkscape:connector-curvature="0"
           style="stroke:none"
           d="m 5.1875,-10.09375 0,10.09375 1.75,0 0,-14.1875 -1.15625,0 c -0.625,2.1875 -1.015625,2.484375 -3.734375,2.828125 l 0,1.265625 z m 0,0"
           id="path4994" />
      </symbol>
      <symbol
         style="overflow:visible"
         overflow="visible"
         id="glyph0-2">
        <path
           inkscape:connector-curvature="0"
           style="stroke:none"
           d="m 10.125,-1.734375 -7.46875,0 c 0.1875,-1.171875 0.828125,-1.90625 2.5625,-2.921875 l 2,-1.078125 c 1.984375,-1.078125 3,-2.546875 3,-4.28125 0,-1.1875 -0.484375,-2.28125 -1.3125,-3.046875 -0.84375,-0.75 -1.890625,-1.125 -3.21875,-1.125 -1.8125,0 -3.140625,0.640625 -3.921875,1.84375 -0.5,0.765625 -0.71875,1.640625 -0.765625,3.078125 l 1.765625,0 c 0.046875,-0.953125 0.171875,-1.53125 0.421875,-2 0.453125,-0.859375 1.375,-1.375 2.4375,-1.375 1.59375,0 2.796875,1.140625 2.796875,2.65625 0,1.125 -0.65625,2.078125 -1.921875,2.796875 L 4.65625,-6.140625 C 1.703125,-4.453125 0.84375,-3.125 0.6875,0 l 9.4375,0 z m 0,0"
           id="path4997" />
      </symbol>
      <symbol
         style="overflow:visible"
         overflow="visible"
         id="glyph0-3">
        <path
           inkscape:connector-curvature="0"
           style="stroke:none"
           d="m 4.421875,-6.5 0.21875,0 L 5.375,-6.515625 c 1.9375,0 2.9375,0.875 2.9375,2.578125 0,1.78125 -1.09375,2.84375 -2.9375,2.84375 -1.921875,0 -2.859375,-0.96875 -2.96875,-3.03125 l -1.765625,0 c 0.078125,1.140625 0.28125,1.890625 0.625,2.53125 0.71875,1.359375 2.109375,2.046875 4.046875,2.046875 2.921875,0 4.8125,-1.734375 4.8125,-4.40625 0,-1.8125 -0.703125,-2.8125 -2.40625,-3.390625 1.328125,-0.515625 1.984375,-1.515625 1.984375,-2.9375 0,-2.4375 -1.625,-3.90625 -4.328125,-3.90625 -2.859375,0 -4.375,1.5625 -4.4375,4.59375 l 1.765625,0 c 0.015625,-0.859375 0.09375,-1.34375 0.3125,-1.78125 0.40625,-0.78125 1.28125,-1.265625 2.390625,-1.265625 1.546875,0 2.5,0.921875 2.5,2.421875 0,1 -0.359375,1.59375 -1.140625,1.921875 C 6.28125,-8.09375 5.65625,-8.015625 4.421875,-8 Z m 0,0"
           id="path5000" />
      </symbol>
      <symbol
         style="overflow:visible"
         overflow="visible"
         id="glyph0-4">
        <path
           inkscape:connector-curvature="0"
           style="stroke:none"
           d="m 6.546875,-3.40625 0,3.40625 1.75,0 0,-3.40625 2.109375,0 0,-1.578125 -2.109375,0 0,-9.203125 -1.296875,0 -6.4375,8.921875 0,1.859375 z m 0,-1.578125 -4.453125,0 4.453125,-6.203125 z m 0,0"
           id="path5003" />
      </symbol>
      <symbol
         style="overflow:visible"
         overflow="visible"
         id="glyph0-5">
        <path
           inkscape:connector-curvature="0"
           style="stroke:none"
           d="m 9.515625,-14.1875 -7.3125,0 -1.0625,7.734375 1.625,0 c 0.8125,-0.984375 1.5,-1.328125 2.59375,-1.328125 1.90625,0 3.09375,1.296875 3.09375,3.40625 0,2.03125 -1.171875,3.28125 -3.09375,3.28125 -1.546875,0 -2.484375,-0.78125 -2.90625,-2.390625 l -1.75,0 c 0.234375,1.171875 0.4375,1.71875 0.859375,2.25 0.796875,1.078125 2.234375,1.6875 3.84375,1.6875 2.859375,0 4.859375,-2.078125 4.859375,-5.078125 0,-2.796875 -1.859375,-4.71875 -4.578125,-4.71875 -1,0 -1.8125,0.265625 -2.625,0.859375 l 0.5625,-3.953125 5.890625,0 z m 0,0"
           id="path5006" />
      </symbol>
      <symbol
         style="overflow:visible"
         overflow="visible"
         id="glyph0-6">
        <path
           inkscape:connector-curvature="0"
           style="stroke:none"
           d="m 3.65625,-6.640625 7.9375,0 0,-1.640625 -7.9375,0 0,-4.65625 8.25,0 0,-1.640625 -10.109375,0 0,14.578125 10.46875,0 0,-1.640625 -8.609375,0 z m 0,0"
           id="path5009" />
      </symbol>
      <symbol
         style="overflow:visible"
         overflow="visible"
         id="glyph0-7">
        <path
           inkscape:connector-curvature="0"
           style="stroke:none"
           d="m 5.5,-14.1875 c -1.3125,0 -2.515625,0.59375 -3.265625,1.5625 -0.921875,1.25 -1.375,3.140625 -1.375,5.765625 0,4.78125 1.59375,7.3125 4.640625,7.3125 3,0 4.640625,-2.53125 4.640625,-7.1875 0,-2.765625 -0.4375,-4.609375 -1.375,-5.890625 -0.75,-1 -1.921875,-1.5625 -3.265625,-1.5625 z m 0,1.5625 c 1.90625,0 2.84375,1.921875 2.84375,5.71875 C 8.34375,-2.875 7.421875,-1 5.453125,-1 3.59375,-1 2.65625,-2.953125 2.65625,-6.84375 c 0,-3.875 0.9375,-5.78125 2.84375,-5.78125 z m 0,0"
           id="path5012" />
      </symbol>
      <symbol
         style="overflow:visible"
         overflow="visible"
         id="glyph0-8">
        <path
           inkscape:connector-curvature="0"
           style="stroke:none"
           d="m 3.8125,-2.078125 -2.078125,0 0,2.078125 2.078125,0 z m 0,0"
           id="path5015" />
      </symbol>
      <symbol
         style="overflow:visible"
         overflow="visible"
         id="glyph0-9">
        <path
           inkscape:connector-curvature="0"
           style="stroke:none"
           d="m 6.65625,-14.578125 0,10.265625 c 0,1.15625 -0.109375,1.8125 -0.453125,2.3125 -0.359375,0.5625 -1.046875,0.90625 -1.78125,0.90625 -1.40625,0 -2.1875,-0.953125 -2.1875,-2.640625 l 0,-0.953125 -1.890625,0 0,1.28125 c 0,2.359375 1.5625,3.859375 4.0625,3.859375 2.53125,0 4.109375,-1.578125 4.109375,-4.09375 l 0,-10.9375 z m 0,0"
           id="path5018" />
      </symbol>
      <symbol
         style="overflow:visible"
         overflow="visible"
         id="glyph1-0">
        <path
           inkscape:connector-curvature="0"
           style="stroke:none"
           d="m 1.25,0 0,-16 7.5,0 0,16 z m 1.25,-1.25 5,0 0,-13.5 -5,0 z m 0,0"
           id="path5021" />
      </symbol>
      <symbol
         style="overflow:visible"
         overflow="visible"
         id="glyph1-1">
        <path
           inkscape:connector-curvature="0"
           style="stroke:none"
           d="m 5.25,3.984375 -3.890625,0 0,-18.296875 3.890625,0 0,1.453125 -2.140625,0 0,15.375 2.140625,0 z m 0,0"
           id="path5024" />
      </symbol>
      <symbol
         style="overflow:visible"
         overflow="visible"
         id="glyph1-2">
        <path
           inkscape:connector-curvature="0"
           style="stroke:none"
           d="m 11.015625,-10.859375 -0.359375,1.671875 -3.453125,0 c -0.554687,0 -1.027344,0.0625 -1.421875,0.1875 -0.398438,0.125 -0.734375,0.320312 -1.015625,0.578125 -0.28125,0.25 -0.523437,0.570313 -0.71875,0.953125 -0.1875,0.375 -0.351563,0.820312 -0.484375,1.328125 l 5.28125,0 -0.28125,1.375 -5.296875,0 C 3.210938,-4.429688 3.1875,-4.09375 3.1875,-3.75 c 0,0.429688 0.054688,0.777344 0.171875,1.046875 0.113281,0.261719 0.273437,0.46875 0.484375,0.625 0.207031,0.148437 0.460938,0.246094 0.765625,0.296875 0.300781,0.054688 0.644531,0.078125 1.03125,0.078125 l 3.421875,0 -0.34375,1.65625 -4.03125,0 c -1.09375,0 -1.90625,-0.285156 -2.4375,-0.859375 -0.53125,-0.582031 -0.796875,-1.410156 -0.796875,-2.484375 0,-0.34375 0.019531,-0.679687 0.0625,-1.015625 C 1.554688,-4.75 1.613281,-5.085938 1.6875,-5.421875 1.84375,-6.128906 2.050781,-6.8125 2.3125,-7.46875 2.582031,-8.125 2.929688,-8.703125 3.359375,-9.203125 c 0.425781,-0.5 0.9375,-0.898437 1.53125,-1.203125 0.601563,-0.300781 1.3125,-0.453125 2.125,-0.453125 z m 0,0"
           id="path5027" />
      </symbol>
      <symbol
         style="overflow:visible"
         overflow="visible"
         id="glyph1-3">
        <path
           inkscape:connector-curvature="0"
           style="stroke:none"
           d="m 4.203125,3.984375 -3.875,0 0,-1.46875 2.109375,0 0,-15.375 -2.109375,0 0,-1.453125 3.875,0 z m 0,0"
           id="path5030" />
      </symbol>
      <symbol
         style="overflow:visible"
         overflow="visible"
         id="glyph1-4">
        <path
           inkscape:connector-curvature="0"
           style="stroke:none"
           d="m 5.9375,4.203125 -1.265625,0 C 4.148438,3.535156 3.675781,2.832031 3.25,2.09375 2.832031,1.351562 2.46875,0.585938 2.15625,-0.203125 1.851562,-0.992188 1.617188,-1.804688 1.453125,-2.640625 c -0.167969,-0.832031 -0.25,-1.675781 -0.25,-2.53125 0,-0.863281 0.082031,-1.710937 0.25,-2.546875 0.164063,-0.832031 0.398437,-1.640625 0.703125,-2.421875 0.3125,-0.789063 0.679688,-1.554687 1.109375,-2.296875 0.425781,-0.738281 0.894531,-1.445312 1.40625,-2.125 l 1.265625,0 c -0.460938,0.761719 -0.871094,1.507812 -1.234375,2.234375 -0.367187,0.730469 -0.671875,1.476563 -0.921875,2.234375 -0.25,0.761719 -0.445312,1.542969 -0.578125,2.34375 -0.125,0.804688 -0.1875,1.652344 -0.1875,2.546875 0,0.835937 0.066406,1.664063 0.203125,2.484375 0.144531,0.824219 0.34375,1.632812 0.59375,2.421875 0.257812,0.789063 0.566406,1.5625 0.921875,2.3125 0.363281,0.75 0.765625,1.476563 1.203125,2.1875 z m 0,0"
           id="path5033" />
      </symbol>
      <symbol
         style="overflow:visible"
         overflow="visible"
         id="glyph1-5">
        <path
           inkscape:connector-curvature="0"
           style="stroke:none"
           d="m 5.453125,-5.171875 c 0,0.855469 -0.085937,1.699219 -0.25,2.53125 -0.167969,0.835937 -0.40625,1.648437 -0.71875,2.4375 -0.304687,0.78125 -0.667969,1.539063 -1.09375,2.28125 -0.429687,0.738281 -0.898437,1.445313 -1.40625,2.125 l -1.265625,0 C 1.175781,3.460938 1.585938,2.722656 1.953125,1.984375 2.316406,1.242188 2.625,0.492188 2.875,-0.265625 c 0.25,-0.757813 0.4375,-1.539063 0.5625,-2.34375 0.132812,-0.8125 0.203125,-1.660156 0.203125,-2.546875 0,-0.832031 -0.074219,-1.660156 -0.21875,-2.484375 -0.136719,-0.820313 -0.328125,-1.625 -0.578125,-2.40625 -0.25,-0.789063 -0.558594,-1.5625 -0.921875,-2.3125 C 1.554688,-13.117188 1.15625,-13.851562 0.71875,-14.5625 l 1.265625,0 c 0.519531,0.667969 0.992187,1.371094 1.421875,2.109375 0.425781,0.742187 0.789062,1.511719 1.09375,2.3125 0.3125,0.792969 0.546875,1.605469 0.703125,2.4375 0.164063,0.835937 0.25,1.679687 0.25,2.53125 z m 0,0"
           id="path5036" />
      </symbol>
    </g>
    <clipPath
       id="clip1">
      <path
         inkscape:connector-curvature="0"
         d="m 47,32 263,0 0,162 -263,0 z m 0,0"
         id="path5039" />
    </clipPath>
    <g
       id="g5627">
      <symbol
         style="overflow:visible"
         overflow="visible"
         id="glyph0-0-4">
        <path
           inkscape:connector-curvature="0"
           style="stroke:none"
           d=""
           id="path5630" />
      </symbol>
      <symbol
         style="overflow:visible"
         overflow="visible"
         id="glyph0-1-8">
        <path
           inkscape:connector-curvature="0"
           style="stroke:none"
           d="m 5.1875,-10.09375 0,10.09375 1.75,0 0,-14.1875 -1.15625,0 c -0.625,2.1875 -1.015625,2.484375 -3.734375,2.828125 l 0,1.265625 z m 0,0"
           id="path5633" />
      </symbol>
      <symbol
         style="overflow:visible"
         overflow="visible"
         id="glyph0-2-1">
        <path
           inkscape:connector-curvature="0"
           style="stroke:none"
           d="m 10.125,-1.734375 -7.46875,0 c 0.1875,-1.171875 0.828125,-1.90625 2.5625,-2.921875 l 2,-1.078125 c 1.984375,-1.078125 3,-2.546875 3,-4.28125 0,-1.1875 -0.484375,-2.28125 -1.3125,-3.046875 -0.84375,-0.75 -1.890625,-1.125 -3.21875,-1.125 -1.8125,0 -3.140625,0.640625 -3.921875,1.84375 -0.5,0.765625 -0.71875,1.640625 -0.765625,3.078125 l 1.765625,0 c 0.046875,-0.953125 0.171875,-1.53125 0.421875,-2 0.453125,-0.859375 1.375,-1.375 2.4375,-1.375 1.59375,0 2.796875,1.140625 2.796875,2.65625 0,1.125 -0.65625,2.078125 -1.921875,2.796875 L 4.65625,-6.140625 C 1.703125,-4.453125 0.84375,-3.125 0.6875,0 l 9.4375,0 z m 0,0"
           id="path5636" />
      </symbol>
      <symbol
         style="overflow:visible"
         overflow="visible"
         id="glyph0-3-2">
        <path
           inkscape:connector-curvature="0"
           style="stroke:none"
           d="m 4.421875,-6.5 0.21875,0 L 5.375,-6.515625 c 1.9375,0 2.9375,0.875 2.9375,2.578125 0,1.78125 -1.09375,2.84375 -2.9375,2.84375 -1.921875,0 -2.859375,-0.96875 -2.96875,-3.03125 l -1.765625,0 c 0.078125,1.140625 0.28125,1.890625 0.625,2.53125 0.71875,1.359375 2.109375,2.046875 4.046875,2.046875 2.921875,0 4.8125,-1.734375 4.8125,-4.40625 0,-1.8125 -0.703125,-2.8125 -2.40625,-3.390625 1.328125,-0.515625 1.984375,-1.515625 1.984375,-2.9375 0,-2.4375 -1.625,-3.90625 -4.328125,-3.90625 -2.859375,0 -4.375,1.5625 -4.4375,4.59375 l 1.765625,0 c 0.015625,-0.859375 0.09375,-1.34375 0.3125,-1.78125 0.40625,-0.78125 1.28125,-1.265625 2.390625,-1.265625 1.546875,0 2.5,0.921875 2.5,2.421875 0,1 -0.359375,1.59375 -1.140625,1.921875 C 6.28125,-8.09375 5.65625,-8.015625 4.421875,-8 Z m 0,0"
           id="path5639" />
      </symbol>
      <symbol
         style="overflow:visible"
         overflow="visible"
         id="glyph0-4-8">
        <path
           inkscape:connector-curvature="0"
           style="stroke:none"
           d="m 6.546875,-3.40625 0,3.40625 1.75,0 0,-3.40625 2.109375,0 0,-1.578125 -2.109375,0 0,-9.203125 -1.296875,0 -6.4375,8.921875 0,1.859375 z m 0,-1.578125 -4.453125,0 4.453125,-6.203125 z m 0,0"
           id="path5642" />
      </symbol>
      <symbol
         style="overflow:visible"
         overflow="visible"
         id="glyph0-5-9">
        <path
           inkscape:connector-curvature="0"
           style="stroke:none"
           d="m 9.515625,-14.1875 -7.3125,0 -1.0625,7.734375 1.625,0 c 0.8125,-0.984375 1.5,-1.328125 2.59375,-1.328125 1.90625,0 3.09375,1.296875 3.09375,3.40625 0,2.03125 -1.171875,3.28125 -3.09375,3.28125 -1.546875,0 -2.484375,-0.78125 -2.90625,-2.390625 l -1.75,0 c 0.234375,1.171875 0.4375,1.71875 0.859375,2.25 0.796875,1.078125 2.234375,1.6875 3.84375,1.6875 2.859375,0 4.859375,-2.078125 4.859375,-5.078125 0,-2.796875 -1.859375,-4.71875 -4.578125,-4.71875 -1,0 -1.8125,0.265625 -2.625,0.859375 l 0.5625,-3.953125 5.890625,0 z m 0,0"
           id="path5645" />
      </symbol>
      <symbol
         style="overflow:visible"
         overflow="visible"
         id="glyph0-6-3">
        <path
           inkscape:connector-curvature="0"
           style="stroke:none"
           d="m 3.65625,-6.640625 7.9375,0 0,-1.640625 -7.9375,0 0,-4.65625 8.25,0 0,-1.640625 -10.109375,0 0,14.578125 10.46875,0 0,-1.640625 -8.609375,0 z m 0,0"
           id="path5648" />
      </symbol>
      <symbol
         style="overflow:visible"
         overflow="visible"
         id="glyph0-7-6">
        <path
           inkscape:connector-curvature="0"
           style="stroke:none"
           d="m 5.5,-14.1875 c -1.3125,0 -2.515625,0.59375 -3.265625,1.5625 -0.921875,1.25 -1.375,3.140625 -1.375,5.765625 0,4.78125 1.59375,7.3125 4.640625,7.3125 3,0 4.640625,-2.53125 4.640625,-7.1875 0,-2.765625 -0.4375,-4.609375 -1.375,-5.890625 -0.75,-1 -1.921875,-1.5625 -3.265625,-1.5625 z m 0,1.5625 c 1.90625,0 2.84375,1.921875 2.84375,5.71875 C 8.34375,-2.875 7.421875,-1 5.453125,-1 3.59375,-1 2.65625,-2.953125 2.65625,-6.84375 c 0,-3.875 0.9375,-5.78125 2.84375,-5.78125 z m 0,0"
           id="path5651" />
      </symbol>
      <symbol
         style="overflow:visible"
         overflow="visible"
         id="glyph0-8-8">
        <path
           inkscape:connector-curvature="0"
           style="stroke:none"
           d="m 3.8125,-2.078125 -2.078125,0 0,2.078125 2.078125,0 z m 0,0"
           id="path5654" />
      </symbol>
      <symbol
         style="overflow:visible"
         overflow="visible"
         id="glyph0-9-0">
        <path
           inkscape:connector-curvature="0"
           style="stroke:none"
           d="m 6.65625,-14.578125 0,10.265625 c 0,1.15625 -0.109375,1.8125 -0.453125,2.3125 -0.359375,0.5625 -1.046875,0.90625 -1.78125,0.90625 -1.40625,0 -2.1875,-0.953125 -2.1875,-2.640625 l 0,-0.953125 -1.890625,0 0,1.28125 c 0,2.359375 1.5625,3.859375 4.0625,3.859375 2.53125,0 4.109375,-1.578125 4.109375,-4.09375 l 0,-10.9375 z m 0,0"
           id="path5657" />
      </symbol>
      <symbol
         style="overflow:visible"
         overflow="visible"
         id="glyph1-0-2">
        <path
           inkscape:connector-curvature="0"
           style="stroke:none"
           d="m 1.25,0 0,-16 7.5,0 0,16 z m 1.25,-1.25 5,0 0,-13.5 -5,0 z m 0,0"
           id="path5660" />
      </symbol>
      <symbol
         style="overflow:visible"
         overflow="visible"
         id="glyph1-1-1">
        <path
           inkscape:connector-curvature="0"
           style="stroke:none"
           d="m 5.25,3.984375 -3.890625,0 0,-18.296875 3.890625,0 0,1.453125 -2.140625,0 0,15.375 2.140625,0 z m 0,0"
           id="path5663" />
      </symbol>
      <symbol
         style="overflow:visible"
         overflow="visible"
         id="glyph1-2-0">
        <path
           inkscape:connector-curvature="0"
           style="stroke:none"
           d="m 11.015625,-10.859375 -0.359375,1.671875 -3.453125,0 c -0.554687,0 -1.027344,0.0625 -1.421875,0.1875 -0.398438,0.125 -0.734375,0.320312 -1.015625,0.578125 -0.28125,0.25 -0.523437,0.570313 -0.71875,0.953125 -0.1875,0.375 -0.351563,0.820312 -0.484375,1.328125 l 5.28125,0 -0.28125,1.375 -5.296875,0 C 3.210938,-4.429688 3.1875,-4.09375 3.1875,-3.75 c 0,0.429688 0.054688,0.777344 0.171875,1.046875 0.113281,0.261719 0.273437,0.46875 0.484375,0.625 0.207031,0.148437 0.460938,0.246094 0.765625,0.296875 0.300781,0.054688 0.644531,0.078125 1.03125,0.078125 l 3.421875,0 -0.34375,1.65625 -4.03125,0 c -1.09375,0 -1.90625,-0.285156 -2.4375,-0.859375 -0.53125,-0.582031 -0.796875,-1.410156 -0.796875,-2.484375 0,-0.34375 0.019531,-0.679687 0.0625,-1.015625 C 1.554688,-4.75 1.613281,-5.085938 1.6875,-5.421875 1.84375,-6.128906 2.050781,-6.8125 2.3125,-7.46875 2.582031,-8.125 2.929688,-8.703125 3.359375,-9.203125 c 0.425781,-0.5 0.9375,-0.898437 1.53125,-1.203125 0.601563,-0.300781 1.3125,-0.453125 2.125,-0.453125 z m 0,0"
           id="path5666" />
      </symbol>
      <symbol
         style="overflow:visible"
         overflow="visible"
         id="glyph1-3-5">
        <path
           inkscape:connector-curvature="0"
           style="stroke:none"
           d="m 4.203125,3.984375 -3.875,0 0,-1.46875 2.109375,0 0,-15.375 -2.109375,0 0,-1.453125 3.875,0 z m 0,0"
           id="path5669" />
      </symbol>
      <symbol
         style="overflow:visible"
         overflow="visible"
         id="glyph1-4-1">
        <path
           inkscape:connector-curvature="0"
           style="stroke:none"
           d="m 5.9375,4.203125 -1.265625,0 C 4.148438,3.535156 3.675781,2.832031 3.25,2.09375 2.832031,1.351562 2.46875,0.585938 2.15625,-0.203125 1.851562,-0.992188 1.617188,-1.804688 1.453125,-2.640625 c -0.167969,-0.832031 -0.25,-1.675781 -0.25,-2.53125 0,-0.863281 0.082031,-1.710937 0.25,-2.546875 0.164063,-0.832031 0.398437,-1.640625 0.703125,-2.421875 0.3125,-0.789063 0.679688,-1.554687 1.109375,-2.296875 0.425781,-0.738281 0.894531,-1.445312 1.40625,-2.125 l 1.265625,0 c -0.460938,0.761719 -0.871094,1.507812 -1.234375,2.234375 -0.367187,0.730469 -0.671875,1.476563 -0.921875,2.234375 -0.25,0.761719 -0.445312,1.542969 -0.578125,2.34375 -0.125,0.804688 -0.1875,1.652344 -0.1875,2.546875 0,0.835937 0.066406,1.664063 0.203125,2.484375 0.144531,0.824219 0.34375,1.632812 0.59375,2.421875 0.257812,0.789063 0.566406,1.5625 0.921875,2.3125 0.363281,0.75 0.765625,1.476563 1.203125,2.1875 z m 0,0"
           id="path5672" />
      </symbol>
      <symbol
         style="overflow:visible"
         overflow="visible"
         id="glyph1-5-1">
        <path
           inkscape:connector-curvature="0"
           style="stroke:none"
           d="m 5.453125,-5.171875 c 0,0.855469 -0.085937,1.699219 -0.25,2.53125 -0.167969,0.835937 -0.40625,1.648437 -0.71875,2.4375 -0.304687,0.78125 -0.667969,1.539063 -1.09375,2.28125 -0.429687,0.738281 -0.898437,1.445313 -1.40625,2.125 l -1.265625,0 C 1.175781,3.460938 1.585938,2.722656 1.953125,1.984375 2.316406,1.242188 2.625,0.492188 2.875,-0.265625 c 0.25,-0.757813 0.4375,-1.539063 0.5625,-2.34375 0.132812,-0.8125 0.203125,-1.660156 0.203125,-2.546875 0,-0.832031 -0.074219,-1.660156 -0.21875,-2.484375 -0.136719,-0.820313 -0.328125,-1.625 -0.578125,-2.40625 -0.25,-0.789063 -0.558594,-1.5625 -0.921875,-2.3125 C 1.554688,-13.117188 1.15625,-13.851562 0.71875,-14.5625 l 1.265625,0 c 0.519531,0.667969 0.992187,1.371094 1.421875,2.109375 0.425781,0.742187 0.789062,1.511719 1.09375,2.3125 0.3125,0.792969 0.546875,1.605469 0.703125,2.4375 0.164063,0.835937 0.25,1.679687 0.25,2.53125 z m 0,0"
           id="path5675" />
      </symbol>
    </g>
    <clipPath
       id="clip1-0">
      <path
         inkscape:connector-curvature="0"
         d="m 47,32 263,0 0,162 -263,0 z m 0,0"
         id="path5678" />
    </clipPath>
    <clipPath
       id="clipPath6004"
       clipPathUnits="userSpaceOnUse">
      <rect
         style="opacity:1;fill:none;fill-opacity:1;fill-rule:evenodd;stroke:#0e232e;stroke-width:1.21618259;stroke-linecap:round;stroke-linejoin:miter;stroke-miterlimit:4;stroke-dasharray:none;stroke-dashoffset:0;stroke-opacity:1"
         id="rect6006"
         width="263.40158"
         height="156.7433"
         x="50.077629"
         y="31.393587"
         clip-path="none" />
    </clipPath>
    <clipPath
       id="clipPath6004-8"
       clipPathUnits="userSpaceOnUse">
      <rect
         style="opacity:1;fill:none;fill-opacity:1;fill-rule:evenodd;stroke:#0e232e;stroke-width:1.21618259;stroke-linecap:round;stroke-linejoin:miter;stroke-miterlimit:4;stroke-dasharray:none;stroke-dashoffset:0;stroke-opacity:1"
         id="rect6006-5"
         width="263.40158"
         height="156.7433"
         x="50.077629"
         y="31.393587"
         clip-path="none" />
    </clipPath>
    <clipPath
       id="clip1-0-0">
      <path
         d="m 47,32 263,0 0,162 -263,0 z m 0,0"
         id="path5678-6"
         inkscape:connector-curvature="0" />
    </clipPath>
  </defs>
  <metadata
     id="metadata7">
    <rdf:RDF>
      <cc:Work
         rdf:about="">
        <dc:format>image/svg+xml</dc:format>
        <dc:type
           rdf:resource="http://purl.org/dc/dcmitype/StillImage" />
        <dc:title></dc:title>
      </cc:Work>
    </rdf:RDF>
  </metadata>
  <g
     inkscape:label="Layer 1"
     inkscape:groupmode="layer"
     id="layer1"
     transform="translate(-43.900297,-246.35811)">
    <path
       inkscape:connector-curvature="0"
       style="opacity:1;fill:none;fill-opacity:1;fill-rule:evenodd;stroke:#0084c8;stroke-width:2;stroke-linecap:round;stroke-linejoin:miter;stroke-miterlimit:4;stroke-dasharray:none;stroke-dashoffset:2.4000001;stroke-opacity:1"
       d="m 260.48821,270.75498 c -0.79535,-1.78424 -1.59064,-3.56286 -2.38279,-4.98223 -0.79216,-1.41936 -1.58107,-2.46917 -2.36495,-2.94206 -0.78378,-0.47306 -1.56266,-0.36294 -2.33654,0.30626 -0.77389,0.66921 -1.54289,1.89684 -2.30914,3.43801 -0.76627,1.54118 -1.52984,3.38865 -2.29395,5.17607 -0.76411,1.78741 -1.52883,3.50406 -2.29713,4.81155 -0.76834,1.30749 -1.54027,2.19605 -2.31741,2.4932 -0.77714,0.29716 -1.55949,-0.002 -2.34651,-0.83359 -0.787,-0.8316 -1.57866,-2.19365 -2.37256,-3.81208 -0.79389,-1.61843 -1.58996,-3.48514 -2.38493,-5.22761 -0.79498,-1.74247 -1.58878,-3.34979 -2.37861,-4.5029 -0.78982,-1.15312 -1.57559,-1.84278 -2.35612,-1.93351 -0.78053,-0.0908 -1.5558,0.4213 -2.32669,1.43275 -0.77088,1.01144 -1.53745,2.51912 -2.30227,4.22304 -0.76484,1.70392 -1.52804,3.5952 -2.29287,5.29947 -0.76483,1.70429 -1.5314,3.21064 -2.30228,4.22305 -0.77088,1.01241 -1.54616,1.52231 -2.32668,1.43274 -0.78052,-0.0896 -1.56631,-0.78128 -2.35613,-1.9335 -0.78982,-1.15223 -1.58362,-2.76069 -2.3786,-4.50291 -0.79497,-1.74221 -1.59104,-3.60869 -2.38494,-5.2276 -0.7939,-1.61893 -1.58554,-2.97946 -2.37256,-3.81209 -0.78702,-0.83262 -1.56936,-1.1296 -2.34651,-0.83359 -0.77714,0.296 -1.5491,1.18649 -2.3174,2.49319 -0.76834,1.30669 -1.53302,3.02428 -2.29713,4.81157 -0.76411,1.78729 -1.5277,3.63427 -2.29395,5.17605 -0.76625,1.54179 -1.53527,2.76772 -2.30915,3.43802 -0.77387,0.6703 -1.55266,0.77803 -2.33653,0.30625 -0.78386,-0.47177 -1.5728,-1.52339 -2.36495,-2.94205 -0.79215,-1.41866 -1.58745,-3.198 -2.38279,-4.98221"
       title="t sin(3*t)"
       id="path12963-1-0" />
    <path
       inkscape:connector-curvature="0"
       style="opacity:1;fill:none;fill-opacity:1;fill-rule:evenodd;stroke:#dc0000;stroke-width:2;stroke-linecap:round;stroke-linejoin:miter;stroke-miterlimit:4;stroke-dasharray:none;stroke-dashoffset:2.4000001;stroke-opacity:1"
       d="m 4.6564059,271.39627 c 0.8101301,-4.17343 1.6178392,-8.01369 2.3991954,-8.23743 0.781362,-0.22374 1.536018,3.21776 2.2854453,7.37773 0.7494234,4.15998 1.4983814,8.38361 2.2731204,9.06852 0.774743,0.68491 1.576131,-2.28853 2.385549,-6.36358 0.809415,-4.07506 1.622181,-8.60992 2.410038,-9.72533 0.787852,-1.11539 1.549421,1.37777 2.300266,5.34279 0.750844,3.96504 1.495489,8.78058 2.263891,10.33606 0.768396,1.55548 1.562412,-0.40552 2.369721,-4.19138 0.807312,-3.78587 1.623587,-8.80301 2.417556,-10.75766 0.793968,-1.95466 1.563296,-0.52617 2.316909,3.0588 0.753611,3.58496 1.495588,8.76752 2.25817,11.12109 0.762585,2.35358 1.548553,1.49698 2.352463,-1.82239 0.803912,-3.31938 1.621992,-8.58395 2.421409,-11.28619 0.799416,-2.70224 1.576977,-2.40493 2.334579,0.6326 0.757603,3.03752 1.498667,8.34502 2.256237,11.38689 0.757568,3.04191 1.535199,3.33002 2.334577,0.63261 0.799382,-2.69741 1.617468,-7.96297 2.42141,-11.28619 0.803938,-3.32321 1.589843,-4.17074 2.352464,-1.82239 0.762621,2.34832 1.50458,7.53287 2.258171,11.12108 0.753591,3.58824 1.522978,5.00787 2.316904,3.05882 0.793929,-1.94907 1.610231,-6.96914 2.41756,-10.75766 0.80733,-3.78853 1.601283,-5.74099 2.369722,-4.19138 0.768441,1.54958 1.51306,6.369 2.26389,10.33605 0.750831,3.96705 1.512455,6.45209 2.300267,5.34279 0.78781,-1.1093 1.600612,-5.6489 2.410038,-9.72532 0.809425,-4.07643 1.610761,-7.04225 2.385543,-6.36359 0.774788,0.67867 1.523706,4.90787 2.273126,9.06852 0.749419,4.16065 1.504127,7.59514 2.28544,7.37775 0.781313,-0.2174 1.589065,-4.06401 2.399202,-8.23745"
       title="t sin(7*t)"
       id="path13261-3" />
    <path
       inkscape:connector-curvature="0"
       id="path12513"
       d="m 119.15944,271.93897 27.4224,0"
       style="fill:#0e232e;fill-rule:evenodd;stroke:#0e232e;stroke-width:2.01478553;stroke-linecap:butt;stroke-linejoin:miter;stroke-miterlimit:4;stroke-dasharray:none;stroke-opacity:1" />
    <circle
       style="opacity:1;fill:none;fill-opacity:1;fill-rule:evenodd;stroke:#0e232e;stroke-width:2;stroke-linecap:round;stroke-linejoin:miter;stroke-miterlimit:4;stroke-dasharray:none;stroke-dashoffset:2.4000001;stroke-opacity:1"
       id="path4136"
       cx="95.50029"
       cy="271.79193"
       r="22.949682" />
    <path
       style="fill:none;fill-rule:evenodd;stroke:#b88100;stroke-width:2;stroke-linecap:butt;stroke-linejoin:miter;stroke-miterlimit:4;stroke-dasharray:none;stroke-opacity:1"
       d="m 86.077651,259.84263 18.845279,0"
       id="path4138"
       inkscape:connector-curvature="0" />
    <path
       style="fill:none;fill-rule:evenodd;stroke:#b88100;stroke-width:2;stroke-linecap:butt;stroke-linejoin:miter;stroke-miterlimit:4;stroke-dasharray:none;stroke-opacity:1"
       d="m 86.077651,282.70125 18.845279,0"
       id="path4138-3"
       inkscape:connector-curvature="0" />
    <path
       style="fill:none;fill-rule:evenodd;stroke:#000000;stroke-width:0.5;stroke-linecap:butt;stroke-linejoin:miter;stroke-miterlimit:4;stroke-dasharray:none;stroke-opacity:1;marker-start:url(#Arrow1Mstart);marker-end:url(#Arrow1Mend)"
       d="m 87.451677,279.39073 c -2.097198,-7.94975 -2.035491,-7.91848 0.37016,-16.84211"
       id="path4155"
       inkscape:connector-curvature="0"
       sodipodi:nodetypes="cc" />
    <g
       transform="matrix(0.25624527,0,0,0.25624527,14.20429,182.71252)"
       id="g11830">
      <g
         style="font-style:normal;font-variant:normal;font-weight:normal;font-stretch:normal;letter-spacing:normal;word-spacing:normal;text-anchor:start;fill:none;fill-opacity:1;fill-rule:evenodd;stroke:#000000;stroke-linecap:butt;stroke-linejoin:miter;stroke-miterlimit:10.43299961;stroke-dasharray:none;stroke-dashoffset:0;stroke-opacity:1"
         id="content"
         transform="matrix(1.0629921,0,0,-1.0629921,-186.02362,789.27165)"
         xml:space="preserve"
         stroke-miterlimit="10.433"
         font-style="normal"
         font-variant="normal"
         font-weight="normal"
         font-stretch="normal"
         font-size-adjust="none"
         letter-spacing="normal"
         word-spacing="normal"><path
           style="fill:#000000;stroke-width:0"
           inkscape:connector-curvature="0"
           d="m 486.14,424.53 -0.01,0.21 0,0.2 -0.02,0.2 -0.01,0.18 -0.03,0.19 -0.02,0.18 -0.03,0.17 -0.04,0.16 -0.04,0.16 -0.04,0.15 -0.05,0.15 -0.05,0.14 -0.06,0.13 -0.06,0.13 -0.06,0.12 -0.07,0.11 -0.07,0.11 -0.07,0.1 -0.07,0.1 -0.08,0.08 -0.08,0.09 -0.09,0.07 -0.08,0.07 -0.09,0.06 -0.09,0.05 -0.09,0.05 -0.1,0.04 -0.09,0.03 -0.1,0.02 -0.1,0.02 -0.1,0.01 -0.11,0.01 c -1.29,0 -2.64,-1.2 -2.64,-2.34 0,-0.5 0.25,-1.05 0.75,-1.5 0.85,-0.75 1.75,-2.09 1.75,-4.18 0,-2 -0.95,-4.84 -2.5,-7.12 -1.49,-2.15 -3.33,-3.84 -5.68,-3.84 -2.84,0 -4.38,1.79 -4.83,4.48 0.55,1.3 1.7,4.48 1.7,5.88 0,0.6 -0.25,1.1 -0.9,1.1 -0.4,0 -0.95,-0.11 -1.34,-0.85 -0.55,-1 -1.15,-4.24 -1.15,-6.03 -1.64,-2.34 -3.64,-4.58 -6.77,-4.58 -3.29,0 -4.34,2.94 -4.34,5.73 0,6.22 5.08,11.45 5.08,12.1 0,0.55 -0.39,0.95 -0.94,0.95 -0.65,0 -1,-0.65 -1.3,-1.1 -2.54,-3.68 -4.43,-9.61 -4.43,-14.15 0,-3.43 1.14,-7.12 5.23,-7.12 3.53,0 5.88,2.49 7.67,5.23 0.45,-2.89 2.39,-5.23 5.48,-5.23 3.88,0 6.27,3.04 8.07,6.78 1.19,2.44 3.09,9.21 3.09,12.3 z"
           id="path11833" /><path
           style="fill:#000000;stroke-width:0"
           inkscape:connector-curvature="0"
           d="m 501.27,412.36 -0.11,-0.03 -0.11,-0.02 -0.11,-0.03 -0.1,-0.04 -0.1,-0.04 -0.1,-0.04 -0.09,-0.04 -0.08,-0.05 -0.09,-0.05 -0.08,-0.06 -0.07,-0.05 -0.07,-0.06 -0.07,-0.07 -0.06,-0.06 -0.06,-0.07 -0.06,-0.06 -0.05,-0.07 -0.05,-0.07 -0.04,-0.08 -0.04,-0.07 -0.04,-0.07 -0.04,-0.08 -0.03,-0.07 -0.02,-0.08 -0.03,-0.08 -0.02,-0.07 -0.02,-0.08 -0.01,-0.07 -0.01,-0.08 -0.01,-0.07 0,-0.08 0,-0.07 c 0,-0.94 0.73,-1.29 1.36,-1.29 0.76,0 1.98,0.56 1.98,2.23 0,2.37 -2.72,3.04 -4.6,3.04 -5.23,0 -10.08,-4.81 -10.08,-9.66 0,-3 2.09,-6.07 6.45,-6.07 5.89,0 8.65,3.45 8.65,3.94 0,0.21 -0.31,0.59 -0.59,0.59 -0.21,0 -0.28,-0.07 -0.56,-0.34 -2.72,-3.21 -6.8,-3.21 -7.43,-3.21 -2.51,0 -3.63,1.71 -3.63,3.87 0,1.01 0.49,4.81 2.31,7.21 1.32,1.72 3.14,2.69 4.88,2.69 0.49,0 2.16,-0.07 3.03,-1.04 z"
           id="path11835" /></g>    </g>
    <circle
       style="opacity:1;fill:none;fill-opacity:1;fill-rule:evenodd;stroke:#0e232e;stroke-width:2;stroke-linecap:round;stroke-linejoin:miter;stroke-miterlimit:4;stroke-dasharray:none;stroke-dashoffset:2.4000001;stroke-opacity:1"
       id="path4136-9"
       cx="169.56812"
       cy="271.79193"
       r="22.949682" />
    <path
       style="fill:none;fill-rule:evenodd;stroke:#b88100;stroke-width:2;stroke-linecap:butt;stroke-linejoin:miter;stroke-miterlimit:4;stroke-dasharray:none;stroke-opacity:1"
       d="m 160.14548,259.84263 18.84528,0"
       id="path4138-7"
       inkscape:connector-curvature="0" />
    <path
       style="fill:none;fill-rule:evenodd;stroke:#b88100;stroke-width:2;stroke-linecap:butt;stroke-linejoin:miter;stroke-miterlimit:4;stroke-dasharray:none;stroke-opacity:1"
       d="m 160.14548,282.70125 18.84528,0"
       id="path4138-3-3"
       inkscape:connector-curvature="0" />
    <path
       style="fill:none;fill-rule:evenodd;stroke:#000000;stroke-width:0.5;stroke-linecap:butt;stroke-linejoin:miter;stroke-miterlimit:4;stroke-dasharray:none;stroke-opacity:1;marker-start:url(#Arrow1Mstart-5);marker-end:url(#Arrow1Mend-2)"
       d="m 161.51951,279.39073 c -2.0972,-7.94975 -2.03549,-7.91848 0.37016,-16.84211"
       id="path4155-6"
       inkscape:connector-curvature="0"
       sodipodi:nodetypes="cc" />
    <g
       transform="matrix(0.25624527,0,0,0.25624527,88.27212,182.71252)"
       id="g11830-1">
      <g
         style="font-style:normal;font-variant:normal;font-weight:normal;font-stretch:normal;letter-spacing:normal;word-spacing:normal;text-anchor:start;fill:none;fill-opacity:1;fill-rule:evenodd;stroke:#000000;stroke-linecap:butt;stroke-linejoin:miter;stroke-miterlimit:10.43299961;stroke-dasharray:none;stroke-dashoffset:0;stroke-opacity:1"
         id="content-29"
         transform="matrix(1.0629921,0,0,-1.0629921,-186.02362,789.27165)"
         xml:space="preserve"
         stroke-miterlimit="10.433"
         font-style="normal"
         font-variant="normal"
         font-weight="normal"
         font-stretch="normal"
         font-size-adjust="none"
         letter-spacing="normal"
         word-spacing="normal"><path
           style="fill:#000000;stroke-width:0"
           inkscape:connector-curvature="0"
           d="m 486.14,424.53 -0.01,0.21 0,0.2 -0.02,0.2 -0.01,0.18 -0.03,0.19 -0.02,0.18 -0.03,0.17 -0.04,0.16 -0.04,0.16 -0.04,0.15 -0.05,0.15 -0.05,0.14 -0.06,0.13 -0.06,0.13 -0.06,0.12 -0.07,0.11 -0.07,0.11 -0.07,0.1 -0.07,0.1 -0.08,0.08 -0.08,0.09 -0.09,0.07 -0.08,0.07 -0.09,0.06 -0.09,0.05 -0.09,0.05 -0.1,0.04 -0.09,0.03 -0.1,0.02 -0.1,0.02 -0.1,0.01 -0.11,0.01 c -1.29,0 -2.64,-1.2 -2.64,-2.34 0,-0.5 0.25,-1.05 0.75,-1.5 0.85,-0.75 1.75,-2.09 1.75,-4.18 0,-2 -0.95,-4.84 -2.5,-7.12 -1.49,-2.15 -3.33,-3.84 -5.68,-3.84 -2.84,0 -4.38,1.79 -4.83,4.48 0.55,1.3 1.7,4.48 1.7,5.88 0,0.6 -0.25,1.1 -0.9,1.1 -0.4,0 -0.95,-0.11 -1.34,-0.85 -0.55,-1 -1.15,-4.24 -1.15,-6.03 -1.64,-2.34 -3.64,-4.58 -6.77,-4.58 -3.29,0 -4.34,2.94 -4.34,5.73 0,6.22 5.08,11.45 5.08,12.1 0,0.55 -0.39,0.95 -0.94,0.95 -0.65,0 -1,-0.65 -1.3,-1.1 -2.54,-3.68 -4.43,-9.61 -4.43,-14.15 0,-3.43 1.14,-7.12 5.23,-7.12 3.53,0 5.88,2.49 7.67,5.23 0.45,-2.89 2.39,-5.23 5.48,-5.23 3.88,0 6.27,3.04 8.07,6.78 1.19,2.44 3.09,9.21 3.09,12.3 z"
           id="path11833-31" /><path
           style="fill:#000000;stroke-width:0"
           inkscape:connector-curvature="0"
           d="m 501.27,412.36 -0.11,-0.03 -0.11,-0.02 -0.11,-0.03 -0.1,-0.04 -0.1,-0.04 -0.1,-0.04 -0.09,-0.04 -0.08,-0.05 -0.09,-0.05 -0.08,-0.06 -0.07,-0.05 -0.07,-0.06 -0.07,-0.07 -0.06,-0.06 -0.06,-0.07 -0.06,-0.06 -0.05,-0.07 -0.05,-0.07 -0.04,-0.08 -0.04,-0.07 -0.04,-0.07 -0.04,-0.08 -0.03,-0.07 -0.02,-0.08 -0.03,-0.08 -0.02,-0.07 -0.02,-0.08 -0.01,-0.07 -0.01,-0.08 -0.01,-0.07 0,-0.08 0,-0.07 c 0,-0.94 0.73,-1.29 1.36,-1.29 0.76,0 1.98,0.56 1.98,2.23 0,2.37 -2.72,3.04 -4.6,3.04 -5.23,0 -10.08,-4.81 -10.08,-9.66 0,-3 2.09,-6.07 6.45,-6.07 5.89,0 8.65,3.45 8.65,3.94 0,0.21 -0.31,0.59 -0.59,0.59 -0.21,0 -0.28,-0.07 -0.56,-0.34 -2.72,-3.21 -6.8,-3.21 -7.43,-3.21 -2.51,0 -3.63,1.71 -3.63,3.87 0,1.01 0.49,4.81 2.31,7.21 1.32,1.72 3.14,2.69 4.88,2.69 0.49,0 2.16,-0.07 3.03,-1.04 z"
           id="path11835-94" /></g>    </g>
    <g
       id="g4397"
       transform="matrix(1.5685959,0,0,1.5685959,-21.247542,-57.050924)">
      <g
         id="g4399"
         transform="matrix(0.15656008,0,0,-0.15656008,-27.398014,265.60643)"
         xml:space="preserve"
         stroke-miterlimit="10.433"
         font-style="normal"
         font-variant="normal"
         font-weight="normal"
         font-stretch="normal"
         font-size-adjust="none"
         letter-spacing="normal"
         word-spacing="normal"
         style="font-style:normal;font-variant:normal;font-weight:normal;font-stretch:normal;letter-spacing:normal;word-spacing:normal;text-anchor:start;fill:none;fill-opacity:1;fill-rule:evenodd;stroke:#000000;stroke-linecap:butt;stroke-linejoin:miter;stroke-miterlimit:10.43299961;stroke-dasharray:none;stroke-dashoffset:0;stroke-opacity:1"><path
           d="m 477.27,436.24 0.03,0.13 0.03,0.12 0.03,0.11 0.03,0.11 0.03,0.11 0.03,0.09 0.03,0.1 0.03,0.08 0.03,0.09 0.03,0.07 0.03,0.08 0.03,0.06 0.03,0.07 0.03,0.06 0.03,0.05 0.03,0.06 0.03,0.04 0.03,0.05 0.04,0.04 0.03,0.04 0.04,0.03 0.03,0.04 0.04,0.03 0.04,0.02 0.04,0.03 0.05,0.02 0.04,0.02 0.05,0.02 0.05,0.02 0.05,0.02 0.05,0.01 0.05,0.02 c 0.45,0.1 2.1,0.1 3.14,0.1 5.04,0 7.28,-0.2 7.28,-4.09 0,-0.74 -0.2,-2.68 -0.4,-3.98 -0.05,-0.2 -0.15,-0.8 -0.15,-0.95 0,-0.3 0.15,-0.64 0.6,-0.64 0.55,0 0.64,0.39 0.74,1.14 l 1.35,8.67 c 0.05,0.2 0.1,0.7 0.1,0.85 0,0.54 -0.5,0.54 -1.35,0.54 l -27.64,0 c -1.2,0 -1.25,-0.05 -1.6,-0.99 l -2.98,-8.77 c -0.05,-0.1 -0.3,-0.8 -0.3,-0.9 0,-0.29 0.25,-0.54 0.59,-0.54 0.5,0 0.55,0.25 0.85,1.04 2.69,7.72 3.98,8.62 11.36,8.62 l 1.94,0 c 1.4,0 1.4,-0.2 1.4,-0.6 0,-0.3 -0.16,-0.9 -0.2,-1.04 l -6.68,-26.61 c -0.45,-1.84 -0.6,-2.39 -5.93,-2.39 -1.79,0 -2.09,0 -2.09,-0.94 0,-0.6 0.55,-0.6 0.85,-0.6 1.34,0 2.74,0.1 4.08,0.1 l 8.37,0 c 1.44,0 2.94,-0.1 4.33,-0.1 0.5,0 1.1,0 1.1,1 0,0.54 -0.4,0.54 -1.69,0.54 -1.25,0 -1.89,0 -3.19,0.1 -1.45,0.15 -1.84,0.3 -1.84,1.1 0,0.05 0,0.3 0.19,1.05 z"
           id="path4401"
           inkscape:connector-curvature="0"
           style="fill:#000000;stroke-width:0" /><path
           d="m 496.68,421.18 0,0.04 0,0.04 0,0.04 0,0.04 0,0.04 0,0.04 0,0.03 0,0.04 -0.01,0.03 0,0.03 0,0.04 0,0.03 -0.01,0.02 0,0.03 0,0.03 -0.01,0.03 0,0.02 0,0.02 -0.02,0.05 -0.01,0.04 -0.01,0.04 -0.02,0.03 -0.02,0.03 -0.02,0.03 -0.03,0.03 -0.02,0.02 -0.03,0.02 -0.04,0.02 -0.03,0.01 -0.04,0.01 -0.05,0.02 -0.05,0 -0.02,0.01 -0.03,0 -0.03,0.01 -0.02,0 -0.03,0 -0.03,0 -0.04,0 -0.03,0.01 -0.03,0 -0.04,0 -0.03,0 -0.04,0 -0.04,0 -0.04,0 -0.04,0 -0.04,0 -0.05,0 -0.04,0 c -2.24,-2.19 -5.41,-2.23 -6.84,-2.23 l 0,-1.25 c 0.84,0 3.14,0 5.06,0.97 l 0,-17.78 c 0,-1.15 0,-1.61 -3.49,-1.61 l -1.33,0 0,-1.25 12.45,0 0,1.25 -1.32,0 c -3.49,0 -3.49,0.46 -3.49,1.61 z"
           id="path4403"
           inkscape:connector-curvature="0"
           style="fill:#000000;stroke-width:0" /></g>    </g>
    <g
       transform="matrix(2.0304836,0,0,2.0304836,39.304709,-143.75576)"
       id="g4387">
      <g
         style="font-style:normal;font-variant:normal;font-weight:normal;font-stretch:normal;letter-spacing:normal;word-spacing:normal;text-anchor:start;fill:none;fill-opacity:1;fill-rule:evenodd;stroke:#000000;stroke-linecap:butt;stroke-linejoin:miter;stroke-miterlimit:10.43299961;stroke-dasharray:none;stroke-dashoffset:0;stroke-opacity:1"
         id="g4389"
         transform="matrix(0.15656008,0,0,-0.15656008,-27.398014,265.60643)"
         xml:space="preserve"
         stroke-miterlimit="10.433"
         font-style="normal"
         font-variant="normal"
         font-weight="normal"
         font-stretch="normal"
         font-size-adjust="none"
         letter-spacing="normal"
         word-spacing="normal"><path
           style="fill:#000000;stroke-width:0"
           inkscape:connector-curvature="0"
           d="m 470.84,411.84959 0.15,0 0.16,0 0.15,0 0.07,0.01 0.08,0 0.07,0.01 0.07,0 0.07,0.01 0.07,0.01 0.07,0.01 0.06,0.02 0.07,0.02 0.06,0.01 0.06,0.02 0.06,0.03 0.05,0.03 0.05,0.02 0.05,0.04 0.05,0.03 0.04,0.04 0.04,0.05 0.03,0.04 0.02,0.03 0.01,0.02 0.01,0.03 0.02,0.03 0.01,0.03 0.01,0.03 0.01,0.03 0.01,0.03 0,0.03 0.01,0.04 0,0.03 0.01,0.04 0,0.04 0,0.04 c 0,0.69 -0.6,0.69 -1.45,0.69 l -8.07,0 c 1.2,4.24 3.99,7.13 8.52,7.13 l 1.55,0 c 0.84,0 1.64,0 1.64,0.84 0,0.7 -0.65,0.7 -1.5,0.7 l -1.74,0 c -6.47,0 -13.15,-4.98 -13.15,-12.6 0,-5.48 3.74,-9.42 9.02,-9.42 3.23,0 6.47,2 6.47,2.54 0,0.15 -0.04,0.7 -0.49,0.7 -0.11,0 -0.2,0 -0.65,-0.3 -1.55,-1 -3.39,-1.84 -5.23,-1.84 -2.89,0 -5.38,2.09 -5.38,6.47 0,1.75 0.4,3.64 0.54,4.24 z"
           id="path4391" /></g>    </g>
    <g
       id="g4678"
       transform="matrix(2.1753264,0,0,2.1753264,145.3944,-67.141419)">
      <g
         word-spacing="normal"
         letter-spacing="normal"
         font-size-adjust="none"
         font-stretch="normal"
         font-weight="normal"
         font-variant="normal"
         font-style="normal"
         stroke-miterlimit="10.433"
         xml:space="preserve"
         transform="matrix(0.11289319,0,0,-0.11289319,-19.756308,195.9693)"
         id="g4680"
         style="font-style:normal;font-variant:normal;font-weight:normal;font-stretch:normal;letter-spacing:normal;word-spacing:normal;text-anchor:start;fill:none;fill-opacity:1;fill-rule:evenodd;stroke:#000000;stroke-linecap:butt;stroke-linejoin:miter;stroke-miterlimit:10.43299961;stroke-dasharray:none;stroke-dashoffset:0;stroke-opacity:1"><path
           id="path4682"
           d="m 477.27,436.24 0.03,0.13 0.03,0.12 0.03,0.11 0.03,0.11 0.03,0.11 0.03,0.09 0.03,0.1 0.03,0.08 0.03,0.09 0.03,0.07 0.03,0.08 0.03,0.06 0.03,0.07 0.03,0.06 0.03,0.05 0.03,0.06 0.03,0.04 0.03,0.05 0.04,0.04 0.03,0.04 0.04,0.03 0.03,0.04 0.04,0.03 0.04,0.02 0.04,0.03 0.05,0.02 0.04,0.02 0.05,0.02 0.05,0.02 0.05,0.02 0.05,0.01 0.05,0.02 c 0.45,0.1 2.1,0.1 3.14,0.1 5.04,0 7.28,-0.2 7.28,-4.09 0,-0.74 -0.2,-2.68 -0.4,-3.98 -0.05,-0.2 -0.15,-0.8 -0.15,-0.95 0,-0.3 0.15,-0.64 0.6,-0.64 0.55,0 0.64,0.39 0.74,1.14 l 1.35,8.67 c 0.05,0.2 0.1,0.7 0.1,0.85 0,0.54 -0.5,0.54 -1.35,0.54 l -27.64,0 c -1.2,0 -1.25,-0.05 -1.6,-0.99 l -2.98,-8.77 c -0.05,-0.1 -0.3,-0.8 -0.3,-0.9 0,-0.29 0.25,-0.54 0.59,-0.54 0.5,0 0.55,0.25 0.85,1.04 2.69,7.72 3.98,8.62 11.36,8.62 l 1.94,0 c 1.4,0 1.4,-0.2 1.4,-0.6 0,-0.3 -0.16,-0.9 -0.2,-1.04 l -6.68,-26.61 c -0.45,-1.84 -0.6,-2.39 -5.93,-2.39 -1.79,0 -2.09,0 -2.09,-0.94 0,-0.6 0.55,-0.6 0.85,-0.6 1.34,0 2.74,0.1 4.08,0.1 l 8.37,0 c 1.44,0 2.94,-0.1 4.33,-0.1 0.5,0 1.1,0 1.1,1 0,0.54 -0.4,0.54 -1.69,0.54 -1.25,0 -1.89,0 -3.19,0.1 -1.45,0.15 -1.84,0.3 -1.84,1.1 0,0.05 0,0.3 0.19,1.05 z"
           inkscape:connector-curvature="0"
           style="fill:#000000;stroke-width:0" /><path
           id="path4684"
           d="m 502.61,405.35 -1.19,0 c -0.1,-0.77 -0.45,-2.83 -0.9,-3.18 -0.28,-0.21 -2.97,-0.21 -3.45,-0.21 l -6.42,0 c 3.66,3.25 4.88,4.22 6.97,5.86 2.58,2.06 4.99,4.22 4.99,7.54 0,4.21 -3.7,6.79 -8.16,6.79 -4.33,0 -7.25,-3.03 -7.25,-6.24 0,-1.78 1.5,-1.95 1.84,-1.95 0.84,0 1.85,0.59 1.85,1.85 0,0.62 -0.24,1.85 -2.05,1.85 1.08,2.47 3.45,3.24 5.09,3.24 3.48,0 5.3,-2.72 5.3,-5.54 0,-3.04 -2.16,-5.45 -3.28,-6.7 l -8.4,-8.3 c -0.35,-0.31 -0.35,-0.38 -0.35,-1.36 l 14.36,0 z"
           inkscape:connector-curvature="0"
           style="fill:#000000;stroke-width:0" /></g>    </g>
  </g>
</svg>
