<?xml version="1.0" encoding="UTF-8"?>
<svg xmlns="http://www.w3.org/2000/svg" xmlns:xlink="http://www.w3.org/1999/xlink" width="498pt" height="300pt" viewBox="0 0 498 300" version="1.1">
<defs>
<g>
<symbol overflow="visible" id="glyph0-0">
<path style="stroke:none;" d=""/>
</symbol>
<symbol overflow="visible" id="glyph0-1">
<path style="stroke:none;" d="M 3.84375 -9.921875 C 2.921875 -9.921875 2.09375 -9.515625 1.5625 -8.828125 C 0.921875 -7.96875 0.609375 -6.640625 0.609375 -4.796875 C 0.609375 -1.453125 1.71875 0.328125 3.84375 0.328125 C 5.953125 0.328125 7.09375 -1.453125 7.09375 -4.71875 C 7.09375 -6.65625 6.796875 -7.9375 6.125 -8.828125 C 5.609375 -9.53125 4.78125 -9.921875 3.84375 -9.921875 Z M 3.84375 -8.828125 C 5.1875 -8.828125 5.84375 -7.484375 5.84375 -4.828125 C 5.84375 -2.015625 5.1875 -0.703125 3.828125 -0.703125 C 2.515625 -0.703125 1.859375 -2.078125 1.859375 -4.78125 C 1.859375 -7.5 2.515625 -8.828125 3.84375 -8.828125 Z M 3.84375 -8.828125 "/>
</symbol>
<symbol overflow="visible" id="glyph0-2">
<path style="stroke:none;" d="M 2.671875 -1.453125 L 1.21875 -1.453125 L 1.21875 0 L 2.671875 0 Z M 2.671875 -1.453125 "/>
</symbol>
<symbol overflow="visible" id="glyph0-3">
<path style="stroke:none;" d="M 7.078125 -1.21875 L 1.859375 -1.21875 C 1.984375 -2.03125 2.4375 -2.546875 3.65625 -3.265625 L 5.046875 -4.015625 C 6.4375 -4.78125 7.15625 -5.796875 7.15625 -7.015625 C 7.15625 -7.84375 6.8125 -8.609375 6.234375 -9.140625 C 5.640625 -9.671875 4.90625 -9.921875 3.96875 -9.921875 C 2.71875 -9.921875 1.78125 -9.484375 1.234375 -8.640625 C 0.875 -8.109375 0.734375 -7.484375 0.703125 -6.484375 L 1.9375 -6.484375 C 1.96875 -7.15625 2.0625 -7.5625 2.21875 -7.875 C 2.546875 -8.484375 3.1875 -8.84375 3.9375 -8.84375 C 5.046875 -8.84375 5.890625 -8.046875 5.890625 -6.984375 C 5.890625 -6.203125 5.4375 -5.53125 4.546875 -5.03125 L 3.265625 -4.296875 C 1.1875 -3.125 0.59375 -2.1875 0.46875 0 L 7.078125 0 Z M 7.078125 -1.21875 "/>
</symbol>
<symbol overflow="visible" id="glyph0-4">
<path style="stroke:none;" d="M 4.578125 -2.375 L 4.578125 0 L 5.8125 0 L 5.8125 -2.375 L 7.28125 -2.375 L 7.28125 -3.484375 L 5.8125 -3.484375 L 5.8125 -9.921875 L 4.90625 -9.921875 L 0.390625 -3.6875 L 0.390625 -2.375 Z M 4.578125 -3.484375 L 1.46875 -3.484375 L 4.578125 -7.828125 Z M 4.578125 -3.484375 "/>
</symbol>
<symbol overflow="visible" id="glyph0-5">
<path style="stroke:none;" d="M 6.96875 -7.34375 C 6.734375 -8.953125 5.671875 -9.921875 4.15625 -9.921875 C 3.0625 -9.921875 2.09375 -9.390625 1.5 -8.515625 C 0.875 -7.546875 0.609375 -6.328125 0.609375 -4.515625 C 0.609375 -2.859375 0.859375 -1.796875 1.4375 -0.90625 C 1.96875 -0.109375 2.84375 0.328125 3.9375 0.328125 C 5.828125 0.328125 7.1875 -1.078125 7.1875 -3.03125 C 7.1875 -4.875 5.921875 -6.171875 4.140625 -6.171875 C 3.15625 -6.171875 2.390625 -5.796875 1.859375 -5.0625 C 1.875 -7.484375 2.65625 -8.828125 4.078125 -8.828125 C 4.9375 -8.828125 5.546875 -8.28125 5.734375 -7.34375 Z M 3.984375 -5.078125 C 5.1875 -5.078125 5.921875 -4.25 5.921875 -2.921875 C 5.921875 -1.6875 5.078125 -0.765625 3.953125 -0.765625 C 2.796875 -0.765625 1.9375 -1.71875 1.9375 -3 C 1.9375 -4.234375 2.765625 -5.078125 3.984375 -5.078125 Z M 3.984375 -5.078125 "/>
</symbol>
<symbol overflow="visible" id="glyph0-6">
<path style="stroke:none;" d="M 5.46875 -5.21875 C 6.5 -5.84375 6.828125 -6.34375 6.828125 -7.28125 C 6.828125 -8.828125 5.609375 -9.921875 3.84375 -9.921875 C 2.09375 -9.921875 0.875 -8.828125 0.875 -7.28125 C 0.875 -6.359375 1.203125 -5.859375 2.21875 -5.21875 C 1.078125 -4.671875 0.515625 -3.84375 0.515625 -2.765625 C 0.515625 -0.9375 1.890625 0.328125 3.84375 0.328125 C 5.8125 0.328125 7.1875 -0.9375 7.1875 -2.75 C 7.1875 -3.84375 6.625 -4.671875 5.46875 -5.21875 Z M 3.84375 -8.828125 C 4.90625 -8.828125 5.578125 -8.21875 5.578125 -7.25 C 5.578125 -6.328125 4.890625 -5.71875 3.84375 -5.71875 C 2.8125 -5.71875 2.125 -6.328125 2.125 -7.265625 C 2.125 -8.21875 2.8125 -8.828125 3.84375 -8.828125 Z M 3.84375 -4.671875 C 5.078125 -4.671875 5.921875 -3.890625 5.921875 -2.734375 C 5.921875 -1.546875 5.078125 -0.765625 3.828125 -0.765625 C 2.625 -0.765625 1.78125 -1.5625 1.78125 -2.734375 C 1.78125 -3.890625 2.625 -4.671875 3.84375 -4.671875 Z M 3.84375 -4.671875 "/>
</symbol>
<symbol overflow="visible" id="glyph0-7">
<path style="stroke:none;" d="M 4.953125 -9.0625 L 8.296875 -9.0625 L 8.296875 -10.203125 L 0.296875 -10.203125 L 0.296875 -9.0625 L 3.65625 -9.0625 L 3.65625 0 L 4.953125 0 Z M 4.953125 -9.0625 "/>
</symbol>
<symbol overflow="visible" id="glyph0-8">
<path style="stroke:none;" d="M 3.625 -7.0625 L 3.625 0 L 4.859375 0 L 4.859375 -9.921875 L 4.046875 -9.921875 C 3.609375 -8.40625 3.328125 -8.1875 1.421875 -7.953125 L 1.421875 -7.0625 Z M 3.625 -7.0625 "/>
</symbol>
<symbol overflow="visible" id="glyph0-9">
<path style="stroke:none;" d="M 3.09375 -4.546875 L 3.25 -4.546875 L 3.765625 -4.5625 C 5.125 -4.5625 5.828125 -3.953125 5.828125 -2.765625 C 5.828125 -1.515625 5.046875 -0.765625 3.765625 -0.765625 C 2.421875 -0.765625 1.765625 -1.4375 1.6875 -2.890625 L 0.453125 -2.890625 C 0.5 -2.09375 0.640625 -1.5625 0.875 -1.125 C 1.390625 -0.171875 2.359375 0.328125 3.71875 0.328125 C 5.765625 0.328125 7.078125 -0.890625 7.078125 -2.765625 C 7.078125 -4.03125 6.59375 -4.734375 5.40625 -5.140625 C 6.328125 -5.5 6.796875 -6.203125 6.796875 -7.203125 C 6.796875 -8.90625 5.65625 -9.921875 3.765625 -9.921875 C 1.765625 -9.921875 0.703125 -8.828125 0.65625 -6.71875 L 1.890625 -6.71875 C 1.90625 -7.328125 1.953125 -7.65625 2.109375 -7.96875 C 2.390625 -8.515625 3.015625 -8.84375 3.78125 -8.84375 C 4.875 -8.84375 5.53125 -8.203125 5.53125 -7.15625 C 5.53125 -6.453125 5.28125 -6.03125 4.734375 -5.8125 C 4.390625 -5.671875 3.96875 -5.609375 3.09375 -5.59375 Z M 3.09375 -4.546875 "/>
</symbol>
<symbol overflow="visible" id="glyph0-10">
<path style="stroke:none;" d="M 6.65625 -9.921875 L 1.546875 -9.921875 L 0.796875 -4.515625 L 1.9375 -4.515625 C 2.5 -5.203125 2.984375 -5.453125 3.75 -5.453125 C 5.078125 -5.453125 5.921875 -4.53125 5.921875 -3.0625 C 5.921875 -1.640625 5.09375 -0.765625 3.75 -0.765625 C 2.671875 -0.765625 2.015625 -1.3125 1.71875 -2.4375 L 0.484375 -2.4375 C 0.65625 -1.625 0.796875 -1.234375 1.09375 -0.875 C 1.65625 -0.109375 2.65625 0.328125 3.78125 0.328125 C 5.78125 0.328125 7.1875 -1.140625 7.1875 -3.234375 C 7.1875 -5.1875 5.875 -6.53125 3.96875 -6.53125 C 3.28125 -6.53125 2.71875 -6.359375 2.140625 -5.9375 L 2.53125 -8.703125 L 6.65625 -8.703125 Z M 6.65625 -9.921875 "/>
</symbol>
<symbol overflow="visible" id="glyph0-11">
<path style="stroke:none;" d="M 2.71875 -10.203125 L 1.40625 -10.203125 L 1.40625 0 L 2.71875 0 Z M 2.71875 -10.203125 "/>
</symbol>
<symbol overflow="visible" id="glyph1-0">
<path style="stroke:none;" d="M 0.875 0 L 0.875 -11.203125 L 6.125 -11.203125 L 6.125 0 Z M 1.75 -0.875 L 5.25 -0.875 L 5.25 -10.328125 L 1.75 -10.328125 Z M 1.75 -0.875 "/>
</symbol>
<symbol overflow="visible" id="glyph1-1">
<path style="stroke:none;" d="M 9.453125 0 L 0.078125 0 L 3.9375 -10.015625 L 5.359375 -10.015625 Z M 7.5 -1.1875 L 5.296875 -6.984375 C 5.171875 -7.304688 5.050781 -7.625 4.9375 -7.9375 C 4.820312 -8.257812 4.726562 -8.585938 4.65625 -8.921875 C 4.570312 -8.585938 4.476562 -8.257812 4.375 -7.9375 C 4.269531 -7.613281 4.160156 -7.289062 4.046875 -6.96875 L 1.921875 -1.1875 Z M 7.5 -1.1875 "/>
</symbol>
<symbol overflow="visible" id="glyph1-2">
<path style="stroke:none;" d="M 3.671875 2.796875 L 0.953125 2.796875 L 0.953125 -10.015625 L 3.671875 -10.015625 L 3.671875 -9 L 2.1875 -9 L 2.1875 1.765625 L 3.671875 1.765625 Z M 3.671875 2.796875 "/>
</symbol>
<symbol overflow="visible" id="glyph1-3">
<path style="stroke:none;" d="M 7.71875 -7.609375 L 7.453125 -6.4375 L 5.03125 -6.4375 C 4.65625 -6.4375 4.328125 -6.390625 4.046875 -6.296875 C 3.765625 -6.210938 3.523438 -6.082031 3.328125 -5.90625 C 3.128906 -5.726562 2.960938 -5.503906 2.828125 -5.234375 C 2.703125 -4.960938 2.59375 -4.648438 2.5 -4.296875 L 6.1875 -4.296875 L 5.984375 -3.34375 L 2.296875 -3.34375 C 2.253906 -3.101562 2.234375 -2.863281 2.234375 -2.625 C 2.234375 -2.332031 2.269531 -2.09375 2.34375 -1.90625 C 2.425781 -1.71875 2.539062 -1.570312 2.6875 -1.46875 C 2.832031 -1.363281 3.007812 -1.289062 3.21875 -1.25 C 3.4375 -1.21875 3.675781 -1.203125 3.9375 -1.203125 L 6.34375 -1.203125 L 6.09375 -0.03125 L 3.28125 -0.03125 C 2.519531 -0.03125 1.953125 -0.234375 1.578125 -0.640625 C 1.203125 -1.046875 1.015625 -1.625 1.015625 -2.375 C 1.015625 -2.613281 1.03125 -2.851562 1.0625 -3.09375 C 1.09375 -3.332031 1.132812 -3.566406 1.1875 -3.796875 C 1.289062 -4.296875 1.4375 -4.769531 1.625 -5.21875 C 1.8125 -5.675781 2.050781 -6.082031 2.34375 -6.4375 C 2.644531 -6.789062 3.003906 -7.070312 3.421875 -7.28125 C 3.847656 -7.5 4.347656 -7.609375 4.921875 -7.609375 Z M 7.71875 -7.609375 "/>
</symbol>
<symbol overflow="visible" id="glyph1-4">
<path style="stroke:none;" d="M 2.9375 2.796875 L 0.21875 2.796875 L 0.21875 1.765625 L 1.703125 1.765625 L 1.703125 -9 L 0.21875 -9 L 0.21875 -10.015625 L 2.9375 -10.015625 Z M 2.9375 2.796875 "/>
</symbol>
</g>
<clipPath id="clip1">
  <path d="M 30 29 L 457 29 L 457 289 L 30 289 Z M 30 29 "/>
</clipPath>
</defs>
<g id="surface68">
<g clip-path="url(#clip1)" clip-rule="nonzero">
<path style="fill:none;stroke-width:1.6;stroke-linecap:square;stroke-linejoin:miter;stroke:rgb(36.84082%,50.67749%,70.979309%);stroke-opacity:1;stroke-miterlimit:3.25;" d="M 112 296.574219 L 157.714844 250.464844 L 203.429688 207.863281 L 249.144531 168.984375 L 294.855469 134.09375 L 340.570312 103.679688 L 386.285156 78.699219 L 432 60.8125 L 477.714844 51.835938 L 523.429688 50.242188 " transform="matrix(1,0,0,1,-74,-13)"/>
</g>
<path style="fill:none;stroke-width:0.2;stroke-linecap:butt;stroke-linejoin:miter;stroke:rgb(0%,0%,0%);stroke-opacity:1;stroke-miterlimit:3.25;" d="M 112 296.574219 L 112 292.574219 " transform="matrix(1,0,0,1,-74,-13)"/>
<path style="fill:none;stroke-width:0.2;stroke-linecap:butt;stroke-linejoin:miter;stroke:rgb(0%,0%,0%);stroke-opacity:1;stroke-miterlimit:3.25;" d="M 134.855469 296.574219 L 134.855469 294.175781 " transform="matrix(1,0,0,1,-74,-13)"/>
<path style="fill:none;stroke-width:0.2;stroke-linecap:butt;stroke-linejoin:miter;stroke:rgb(0%,0%,0%);stroke-opacity:1;stroke-miterlimit:3.25;" d="M 157.714844 296.574219 L 157.714844 294.175781 " transform="matrix(1,0,0,1,-74,-13)"/>
<path style="fill:none;stroke-width:0.2;stroke-linecap:butt;stroke-linejoin:miter;stroke:rgb(0%,0%,0%);stroke-opacity:1;stroke-miterlimit:3.25;" d="M 180.570312 296.574219 L 180.570312 294.175781 " transform="matrix(1,0,0,1,-74,-13)"/>
<path style="fill:none;stroke-width:0.2;stroke-linecap:butt;stroke-linejoin:miter;stroke:rgb(0%,0%,0%);stroke-opacity:1;stroke-miterlimit:3.25;" d="M 203.429688 296.574219 L 203.429688 292.574219 " transform="matrix(1,0,0,1,-74,-13)"/>
<g style="fill:rgb(0%,0%,0%);fill-opacity:1;">
  <use xlink:href="#glyph0-1" x="119.928571" y="299.574275"/>
  <use xlink:href="#glyph0-2" x="127.928571" y="299.574275"/>
  <use xlink:href="#glyph0-3" x="131.928571" y="299.574275"/>
</g>
<path style="fill:none;stroke-width:0.2;stroke-linecap:butt;stroke-linejoin:miter;stroke:rgb(0%,0%,0%);stroke-opacity:1;stroke-miterlimit:3.25;" d="M 226.285156 296.574219 L 226.285156 294.175781 " transform="matrix(1,0,0,1,-74,-13)"/>
<path style="fill:none;stroke-width:0.2;stroke-linecap:butt;stroke-linejoin:miter;stroke:rgb(0%,0%,0%);stroke-opacity:1;stroke-miterlimit:3.25;" d="M 249.144531 296.574219 L 249.144531 294.175781 " transform="matrix(1,0,0,1,-74,-13)"/>
<path style="fill:none;stroke-width:0.2;stroke-linecap:butt;stroke-linejoin:miter;stroke:rgb(0%,0%,0%);stroke-opacity:1;stroke-miterlimit:3.25;" d="M 272 296.574219 L 272 294.175781 " transform="matrix(1,0,0,1,-74,-13)"/>
<path style="fill:none;stroke-width:0.2;stroke-linecap:butt;stroke-linejoin:miter;stroke:rgb(0%,0%,0%);stroke-opacity:1;stroke-miterlimit:3.25;" d="M 294.855469 296.574219 L 294.855469 292.574219 " transform="matrix(1,0,0,1,-74,-13)"/>
<g style="fill:rgb(0%,0%,0%);fill-opacity:1;">
  <use xlink:href="#glyph0-1" x="211.357143" y="299.574275"/>
  <use xlink:href="#glyph0-2" x="219.357143" y="299.574275"/>
  <use xlink:href="#glyph0-4" x="223.357143" y="299.574275"/>
</g>
<path style="fill:none;stroke-width:0.2;stroke-linecap:butt;stroke-linejoin:miter;stroke:rgb(0%,0%,0%);stroke-opacity:1;stroke-miterlimit:3.25;" d="M 317.714844 296.574219 L 317.714844 294.175781 " transform="matrix(1,0,0,1,-74,-13)"/>
<path style="fill:none;stroke-width:0.2;stroke-linecap:butt;stroke-linejoin:miter;stroke:rgb(0%,0%,0%);stroke-opacity:1;stroke-miterlimit:3.25;" d="M 340.570312 296.574219 L 340.570312 294.175781 " transform="matrix(1,0,0,1,-74,-13)"/>
<path style="fill:none;stroke-width:0.2;stroke-linecap:butt;stroke-linejoin:miter;stroke:rgb(0%,0%,0%);stroke-opacity:1;stroke-miterlimit:3.25;" d="M 363.429688 296.574219 L 363.429688 294.175781 " transform="matrix(1,0,0,1,-74,-13)"/>
<path style="fill:none;stroke-width:0.2;stroke-linecap:butt;stroke-linejoin:miter;stroke:rgb(0%,0%,0%);stroke-opacity:1;stroke-miterlimit:3.25;" d="M 386.285156 296.574219 L 386.285156 292.574219 " transform="matrix(1,0,0,1,-74,-13)"/>
<g style="fill:rgb(0%,0%,0%);fill-opacity:1;">
  <use xlink:href="#glyph0-1" x="302.785714" y="299.574275"/>
  <use xlink:href="#glyph0-2" x="310.785714" y="299.574275"/>
  <use xlink:href="#glyph0-5" x="314.785714" y="299.574275"/>
</g>
<path style="fill:none;stroke-width:0.2;stroke-linecap:butt;stroke-linejoin:miter;stroke:rgb(0%,0%,0%);stroke-opacity:1;stroke-miterlimit:3.25;" d="M 409.144531 296.574219 L 409.144531 294.175781 " transform="matrix(1,0,0,1,-74,-13)"/>
<path style="fill:none;stroke-width:0.2;stroke-linecap:butt;stroke-linejoin:miter;stroke:rgb(0%,0%,0%);stroke-opacity:1;stroke-miterlimit:3.25;" d="M 432 296.574219 L 432 294.175781 " transform="matrix(1,0,0,1,-74,-13)"/>
<path style="fill:none;stroke-width:0.2;stroke-linecap:butt;stroke-linejoin:miter;stroke:rgb(0%,0%,0%);stroke-opacity:1;stroke-miterlimit:3.25;" d="M 454.855469 296.574219 L 454.855469 294.175781 " transform="matrix(1,0,0,1,-74,-13)"/>
<path style="fill:none;stroke-width:0.2;stroke-linecap:butt;stroke-linejoin:miter;stroke:rgb(0%,0%,0%);stroke-opacity:1;stroke-miterlimit:3.25;" d="M 477.714844 296.574219 L 477.714844 292.574219 " transform="matrix(1,0,0,1,-74,-13)"/>
<g style="fill:rgb(0%,0%,0%);fill-opacity:1;">
  <use xlink:href="#glyph0-1" x="394.214286" y="299.574275"/>
  <use xlink:href="#glyph0-2" x="402.214286" y="299.574275"/>
  <use xlink:href="#glyph0-6" x="406.214286" y="299.574275"/>
</g>
<path style="fill:none;stroke-width:0.2;stroke-linecap:butt;stroke-linejoin:miter;stroke:rgb(0%,0%,0%);stroke-opacity:1;stroke-miterlimit:3.25;" d="M 500.570312 296.574219 L 500.570312 294.175781 " transform="matrix(1,0,0,1,-74,-13)"/>
<path style="fill:none;stroke-width:0.2;stroke-linecap:butt;stroke-linejoin:miter;stroke:rgb(0%,0%,0%);stroke-opacity:1;stroke-miterlimit:3.25;" d="M 523.429688 296.574219 L 523.429688 294.175781 " transform="matrix(1,0,0,1,-74,-13)"/>
<path style="fill:none;stroke-width:0.2;stroke-linecap:butt;stroke-linejoin:miter;stroke:rgb(39.99939%,39.99939%,39.99939%);stroke-opacity:1;stroke-miterlimit:3.25;" d="M 103.429688 296.574219 L 532 296.574219 " transform="matrix(1,0,0,1,-74,-13)"/>
<g style="fill:rgb(0%,0%,0%);fill-opacity:1;">
  <use xlink:href="#glyph1-1" x="466" y="287.574275"/>
</g>
<g style="fill:rgb(0%,0%,0%);fill-opacity:1;">
  <use xlink:href="#glyph0-7" x="476" y="287.574275"/>
</g>
<g style="fill:rgb(0%,0%,0%);fill-opacity:1;">
  <use xlink:href="#glyph1-2" x="484" y="287.574275"/>
</g>
<g style="fill:rgb(0%,0%,0%);fill-opacity:1;">
  <use xlink:href="#glyph1-3" x="488" y="287.574275"/>
</g>
<g style="fill:rgb(0%,0%,0%);fill-opacity:1;">
  <use xlink:href="#glyph1-4" x="495" y="287.574275"/>
</g>
<path style="fill:none;stroke-width:0.2;stroke-linecap:butt;stroke-linejoin:miter;stroke:rgb(0%,0%,0%);stroke-opacity:1;stroke-miterlimit:3.25;" d="M 112 296.574219 L 116 296.574219 " transform="matrix(1,0,0,1,-74,-13)"/>
<path style="fill:none;stroke-width:0.2;stroke-linecap:butt;stroke-linejoin:miter;stroke:rgb(0%,0%,0%);stroke-opacity:1;stroke-miterlimit:3.25;" d="M 112 286.777344 L 114.398438 286.777344 " transform="matrix(1,0,0,1,-74,-13)"/>
<path style="fill:none;stroke-width:0.2;stroke-linecap:butt;stroke-linejoin:miter;stroke:rgb(0%,0%,0%);stroke-opacity:1;stroke-miterlimit:3.25;" d="M 112 276.980469 L 114.398438 276.980469 " transform="matrix(1,0,0,1,-74,-13)"/>
<path style="fill:none;stroke-width:0.2;stroke-linecap:butt;stroke-linejoin:miter;stroke:rgb(0%,0%,0%);stroke-opacity:1;stroke-miterlimit:3.25;" d="M 112 267.183594 L 114.398438 267.183594 " transform="matrix(1,0,0,1,-74,-13)"/>
<path style="fill:none;stroke-width:0.2;stroke-linecap:butt;stroke-linejoin:miter;stroke:rgb(0%,0%,0%);stroke-opacity:1;stroke-miterlimit:3.25;" d="M 112 257.386719 L 114.398438 257.386719 " transform="matrix(1,0,0,1,-74,-13)"/>
<path style="fill:none;stroke-width:0.2;stroke-linecap:butt;stroke-linejoin:miter;stroke:rgb(0%,0%,0%);stroke-opacity:1;stroke-miterlimit:3.25;" d="M 112 247.589844 L 116 247.589844 " transform="matrix(1,0,0,1,-74,-13)"/>
<g style="fill:rgb(0%,0%,0%);fill-opacity:1;">
  <use xlink:href="#glyph0-1" x="0" y="238.588471"/>
  <use xlink:href="#glyph0-2" x="8" y="238.588471"/>
  <use xlink:href="#glyph0-1" x="12" y="238.588471"/>
  <use xlink:href="#glyph0-1" x="20" y="238.588471"/>
  <use xlink:href="#glyph0-8" x="28" y="238.588471"/>
</g>
<path style="fill:none;stroke-width:0.2;stroke-linecap:butt;stroke-linejoin:miter;stroke:rgb(0%,0%,0%);stroke-opacity:1;stroke-miterlimit:3.25;" d="M 112 237.792969 L 114.398438 237.792969 " transform="matrix(1,0,0,1,-74,-13)"/>
<path style="fill:none;stroke-width:0.2;stroke-linecap:butt;stroke-linejoin:miter;stroke:rgb(0%,0%,0%);stroke-opacity:1;stroke-miterlimit:3.25;" d="M 112 227.996094 L 114.398438 227.996094 " transform="matrix(1,0,0,1,-74,-13)"/>
<path style="fill:none;stroke-width:0.2;stroke-linecap:butt;stroke-linejoin:miter;stroke:rgb(0%,0%,0%);stroke-opacity:1;stroke-miterlimit:3.25;" d="M 112 218.195312 L 114.398438 218.195312 " transform="matrix(1,0,0,1,-74,-13)"/>
<path style="fill:none;stroke-width:0.2;stroke-linecap:butt;stroke-linejoin:miter;stroke:rgb(0%,0%,0%);stroke-opacity:1;stroke-miterlimit:3.25;" d="M 112 208.398438 L 114.398438 208.398438 " transform="matrix(1,0,0,1,-74,-13)"/>
<path style="fill:none;stroke-width:0.2;stroke-linecap:butt;stroke-linejoin:miter;stroke:rgb(0%,0%,0%);stroke-opacity:1;stroke-miterlimit:3.25;" d="M 112 198.601562 L 116 198.601562 " transform="matrix(1,0,0,1,-74,-13)"/>
<g style="fill:rgb(0%,0%,0%);fill-opacity:1;">
  <use xlink:href="#glyph0-1" x="0" y="189.602667"/>
  <use xlink:href="#glyph0-2" x="8" y="189.602667"/>
  <use xlink:href="#glyph0-1" x="12" y="189.602667"/>
  <use xlink:href="#glyph0-1" x="20" y="189.602667"/>
  <use xlink:href="#glyph0-3" x="28" y="189.602667"/>
</g>
<path style="fill:none;stroke-width:0.2;stroke-linecap:butt;stroke-linejoin:miter;stroke:rgb(0%,0%,0%);stroke-opacity:1;stroke-miterlimit:3.25;" d="M 112 188.804688 L 114.398438 188.804688 " transform="matrix(1,0,0,1,-74,-13)"/>
<path style="fill:none;stroke-width:0.2;stroke-linecap:butt;stroke-linejoin:miter;stroke:rgb(0%,0%,0%);stroke-opacity:1;stroke-miterlimit:3.25;" d="M 112 179.007812 L 114.398438 179.007812 " transform="matrix(1,0,0,1,-74,-13)"/>
<path style="fill:none;stroke-width:0.2;stroke-linecap:butt;stroke-linejoin:miter;stroke:rgb(0%,0%,0%);stroke-opacity:1;stroke-miterlimit:3.25;" d="M 112 169.210938 L 114.398438 169.210938 " transform="matrix(1,0,0,1,-74,-13)"/>
<path style="fill:none;stroke-width:0.2;stroke-linecap:butt;stroke-linejoin:miter;stroke:rgb(0%,0%,0%);stroke-opacity:1;stroke-miterlimit:3.25;" d="M 112 159.414062 L 114.398438 159.414062 " transform="matrix(1,0,0,1,-74,-13)"/>
<path style="fill:none;stroke-width:0.2;stroke-linecap:butt;stroke-linejoin:miter;stroke:rgb(0%,0%,0%);stroke-opacity:1;stroke-miterlimit:3.25;" d="M 112 149.617188 L 116 149.617188 " transform="matrix(1,0,0,1,-74,-13)"/>
<g style="fill:rgb(0%,0%,0%);fill-opacity:1;">
  <use xlink:href="#glyph0-1" x="0" y="140.616863"/>
  <use xlink:href="#glyph0-2" x="8" y="140.616863"/>
  <use xlink:href="#glyph0-1" x="12" y="140.616863"/>
  <use xlink:href="#glyph0-1" x="20" y="140.616863"/>
  <use xlink:href="#glyph0-9" x="28" y="140.616863"/>
</g>
<path style="fill:none;stroke-width:0.2;stroke-linecap:butt;stroke-linejoin:miter;stroke:rgb(0%,0%,0%);stroke-opacity:1;stroke-miterlimit:3.25;" d="M 112 139.820312 L 114.398438 139.820312 " transform="matrix(1,0,0,1,-74,-13)"/>
<path style="fill:none;stroke-width:0.2;stroke-linecap:butt;stroke-linejoin:miter;stroke:rgb(0%,0%,0%);stroke-opacity:1;stroke-miterlimit:3.25;" d="M 112 130.023438 L 114.398438 130.023438 " transform="matrix(1,0,0,1,-74,-13)"/>
<path style="fill:none;stroke-width:0.2;stroke-linecap:butt;stroke-linejoin:miter;stroke:rgb(0%,0%,0%);stroke-opacity:1;stroke-miterlimit:3.25;" d="M 112 120.226562 L 114.398438 120.226562 " transform="matrix(1,0,0,1,-74,-13)"/>
<path style="fill:none;stroke-width:0.2;stroke-linecap:butt;stroke-linejoin:miter;stroke:rgb(0%,0%,0%);stroke-opacity:1;stroke-miterlimit:3.25;" d="M 112 110.429688 L 114.398438 110.429688 " transform="matrix(1,0,0,1,-74,-13)"/>
<path style="fill:none;stroke-width:0.2;stroke-linecap:butt;stroke-linejoin:miter;stroke:rgb(0%,0%,0%);stroke-opacity:1;stroke-miterlimit:3.25;" d="M 112 100.632812 L 116 100.632812 " transform="matrix(1,0,0,1,-74,-13)"/>
<g style="fill:rgb(0%,0%,0%);fill-opacity:1;">
  <use xlink:href="#glyph0-1" x="0" y="91.631059"/>
  <use xlink:href="#glyph0-2" x="8" y="91.631059"/>
  <use xlink:href="#glyph0-1" x="12" y="91.631059"/>
  <use xlink:href="#glyph0-1" x="20" y="91.631059"/>
  <use xlink:href="#glyph0-4" x="28" y="91.631059"/>
</g>
<path style="fill:none;stroke-width:0.2;stroke-linecap:butt;stroke-linejoin:miter;stroke:rgb(0%,0%,0%);stroke-opacity:1;stroke-miterlimit:3.25;" d="M 112 90.832031 L 114.398438 90.832031 " transform="matrix(1,0,0,1,-74,-13)"/>
<path style="fill:none;stroke-width:0.2;stroke-linecap:butt;stroke-linejoin:miter;stroke:rgb(0%,0%,0%);stroke-opacity:1;stroke-miterlimit:3.25;" d="M 112 81.035156 L 114.398438 81.035156 " transform="matrix(1,0,0,1,-74,-13)"/>
<path style="fill:none;stroke-width:0.2;stroke-linecap:butt;stroke-linejoin:miter;stroke:rgb(0%,0%,0%);stroke-opacity:1;stroke-miterlimit:3.25;" d="M 112 71.238281 L 114.398438 71.238281 " transform="matrix(1,0,0,1,-74,-13)"/>
<path style="fill:none;stroke-width:0.2;stroke-linecap:butt;stroke-linejoin:miter;stroke:rgb(0%,0%,0%);stroke-opacity:1;stroke-miterlimit:3.25;" d="M 112 61.441406 L 114.398438 61.441406 " transform="matrix(1,0,0,1,-74,-13)"/>
<path style="fill:none;stroke-width:0.2;stroke-linecap:butt;stroke-linejoin:miter;stroke:rgb(0%,0%,0%);stroke-opacity:1;stroke-miterlimit:3.25;" d="M 112 51.644531 L 116 51.644531 " transform="matrix(1,0,0,1,-74,-13)"/>
<g style="fill:rgb(0%,0%,0%);fill-opacity:1;">
  <use xlink:href="#glyph0-1" x="0" y="42.645255"/>
  <use xlink:href="#glyph0-2" x="8" y="42.645255"/>
  <use xlink:href="#glyph0-1" x="12" y="42.645255"/>
  <use xlink:href="#glyph0-1" x="20" y="42.645255"/>
  <use xlink:href="#glyph0-10" x="28" y="42.645255"/>
</g>
<path style="fill:none;stroke-width:0.2;stroke-linecap:butt;stroke-linejoin:miter;stroke:rgb(0%,0%,0%);stroke-opacity:1;stroke-miterlimit:3.25;" d="M 112 41.847656 L 114.398438 41.847656 " transform="matrix(1,0,0,1,-74,-13)"/>
<path style="fill:none;stroke-width:0.2;stroke-linecap:butt;stroke-linejoin:miter;stroke:rgb(39.99939%,39.99939%,39.99939%);stroke-opacity:1;stroke-miterlimit:3.25;" d="M 112 301.871094 L 112 37 " transform="matrix(1,0,0,1,-74,-13)"/>
<g style="fill:rgb(0%,0%,0%);fill-opacity:1;">
  <use xlink:href="#glyph0-11" x="36" y="13"/>
</g>
</g>
</svg>
