<?xml version="1.0" encoding="UTF-8"?>
<svg xmlns="http://www.w3.org/2000/svg" xmlns:xlink="http://www.w3.org/1999/xlink" width="637pt" height="301pt" viewBox="0 0 637 301" version="1.1">
<defs>
<g>
<symbol overflow="visible" id="glyph0-0">
<path style="stroke:none;" d=""/>
</symbol>
<symbol overflow="visible" id="glyph0-1">
<path style="stroke:none;" d="M 3.84375 -9.921875 C 2.921875 -9.921875 2.09375 -9.515625 1.5625 -8.828125 C 0.921875 -7.96875 0.609375 -6.640625 0.609375 -4.796875 C 0.609375 -1.453125 1.71875 0.328125 3.84375 0.328125 C 5.953125 0.328125 7.09375 -1.453125 7.09375 -4.71875 C 7.09375 -6.65625 6.796875 -7.9375 6.125 -8.828125 C 5.609375 -9.53125 4.78125 -9.921875 3.84375 -9.921875 Z M 3.84375 -8.828125 C 5.1875 -8.828125 5.84375 -7.484375 5.84375 -4.828125 C 5.84375 -2.015625 5.1875 -0.703125 3.828125 -0.703125 C 2.515625 -0.703125 1.859375 -2.078125 1.859375 -4.78125 C 1.859375 -7.5 2.515625 -8.828125 3.84375 -8.828125 Z M 3.84375 -8.828125 "/>
</symbol>
<symbol overflow="visible" id="glyph0-2">
<path style="stroke:none;" d="M 2.671875 -1.453125 L 1.21875 -1.453125 L 1.21875 0 L 2.671875 0 Z M 2.671875 -1.453125 "/>
</symbol>
<symbol overflow="visible" id="glyph0-3">
<path style="stroke:none;" d="M 7.078125 -1.21875 L 1.859375 -1.21875 C 1.984375 -2.03125 2.4375 -2.546875 3.65625 -3.265625 L 5.046875 -4.015625 C 6.4375 -4.78125 7.15625 -5.796875 7.15625 -7.015625 C 7.15625 -7.84375 6.8125 -8.609375 6.234375 -9.140625 C 5.640625 -9.671875 4.90625 -9.921875 3.96875 -9.921875 C 2.71875 -9.921875 1.78125 -9.484375 1.234375 -8.640625 C 0.875 -8.109375 0.734375 -7.484375 0.703125 -6.484375 L 1.9375 -6.484375 C 1.96875 -7.15625 2.0625 -7.5625 2.21875 -7.875 C 2.546875 -8.484375 3.1875 -8.84375 3.9375 -8.84375 C 5.046875 -8.84375 5.890625 -8.046875 5.890625 -6.984375 C 5.890625 -6.203125 5.4375 -5.53125 4.546875 -5.03125 L 3.265625 -4.296875 C 1.1875 -3.125 0.59375 -2.1875 0.46875 0 L 7.078125 0 Z M 7.078125 -1.21875 "/>
</symbol>
<symbol overflow="visible" id="glyph0-4">
<path style="stroke:none;" d="M 4.578125 -2.375 L 4.578125 0 L 5.8125 0 L 5.8125 -2.375 L 7.28125 -2.375 L 7.28125 -3.484375 L 5.8125 -3.484375 L 5.8125 -9.921875 L 4.90625 -9.921875 L 0.390625 -3.6875 L 0.390625 -2.375 Z M 4.578125 -3.484375 L 1.46875 -3.484375 L 4.578125 -7.828125 Z M 4.578125 -3.484375 "/>
</symbol>
<symbol overflow="visible" id="glyph0-5">
<path style="stroke:none;" d="M 6.96875 -7.34375 C 6.734375 -8.953125 5.671875 -9.921875 4.15625 -9.921875 C 3.0625 -9.921875 2.09375 -9.390625 1.5 -8.515625 C 0.875 -7.546875 0.609375 -6.328125 0.609375 -4.515625 C 0.609375 -2.859375 0.859375 -1.796875 1.4375 -0.90625 C 1.96875 -0.109375 2.84375 0.328125 3.9375 0.328125 C 5.828125 0.328125 7.1875 -1.078125 7.1875 -3.03125 C 7.1875 -4.875 5.921875 -6.171875 4.140625 -6.171875 C 3.15625 -6.171875 2.390625 -5.796875 1.859375 -5.0625 C 1.875 -7.484375 2.65625 -8.828125 4.078125 -8.828125 C 4.9375 -8.828125 5.546875 -8.28125 5.734375 -7.34375 Z M 3.984375 -5.078125 C 5.1875 -5.078125 5.921875 -4.25 5.921875 -2.921875 C 5.921875 -1.6875 5.078125 -0.765625 3.953125 -0.765625 C 2.796875 -0.765625 1.9375 -1.71875 1.9375 -3 C 1.9375 -4.234375 2.765625 -5.078125 3.984375 -5.078125 Z M 3.984375 -5.078125 "/>
</symbol>
<symbol overflow="visible" id="glyph0-6">
<path style="stroke:none;" d="M 5.46875 -5.21875 C 6.5 -5.84375 6.828125 -6.34375 6.828125 -7.28125 C 6.828125 -8.828125 5.609375 -9.921875 3.84375 -9.921875 C 2.09375 -9.921875 0.875 -8.828125 0.875 -7.28125 C 0.875 -6.359375 1.203125 -5.859375 2.21875 -5.21875 C 1.078125 -4.671875 0.515625 -3.84375 0.515625 -2.765625 C 0.515625 -0.9375 1.890625 0.328125 3.84375 0.328125 C 5.8125 0.328125 7.1875 -0.9375 7.1875 -2.75 C 7.1875 -3.84375 6.625 -4.671875 5.46875 -5.21875 Z M 3.84375 -8.828125 C 4.90625 -8.828125 5.578125 -8.21875 5.578125 -7.25 C 5.578125 -6.328125 4.890625 -5.71875 3.84375 -5.71875 C 2.8125 -5.71875 2.125 -6.328125 2.125 -7.265625 C 2.125 -8.21875 2.8125 -8.828125 3.84375 -8.828125 Z M 3.84375 -4.671875 C 5.078125 -4.671875 5.921875 -3.890625 5.921875 -2.734375 C 5.921875 -1.546875 5.078125 -0.765625 3.828125 -0.765625 C 2.625 -0.765625 1.78125 -1.5625 1.78125 -2.734375 C 1.78125 -3.890625 2.625 -4.671875 3.84375 -4.671875 Z M 3.84375 -4.671875 "/>
</symbol>
<symbol overflow="visible" id="glyph0-7">
<path style="stroke:none;" d="M 4.953125 -9.0625 L 8.296875 -9.0625 L 8.296875 -10.203125 L 0.296875 -10.203125 L 0.296875 -9.0625 L 3.65625 -9.0625 L 3.65625 0 L 4.953125 0 Z M 4.953125 -9.0625 "/>
</symbol>
<symbol overflow="visible" id="glyph0-8">
<path style="stroke:none;" d="M 3.625 -7.0625 L 3.625 0 L 4.859375 0 L 4.859375 -9.921875 L 4.046875 -9.921875 C 3.609375 -8.40625 3.328125 -8.1875 1.421875 -7.953125 L 1.421875 -7.0625 Z M 3.625 -7.0625 "/>
</symbol>
<symbol overflow="visible" id="glyph0-9">
<path style="stroke:none;" d="M 3.09375 -4.546875 L 3.25 -4.546875 L 3.765625 -4.5625 C 5.125 -4.5625 5.828125 -3.953125 5.828125 -2.765625 C 5.828125 -1.515625 5.046875 -0.765625 3.765625 -0.765625 C 2.421875 -0.765625 1.765625 -1.4375 1.6875 -2.890625 L 0.453125 -2.890625 C 0.5 -2.09375 0.640625 -1.5625 0.875 -1.125 C 1.390625 -0.171875 2.359375 0.328125 3.71875 0.328125 C 5.765625 0.328125 7.078125 -0.890625 7.078125 -2.765625 C 7.078125 -4.03125 6.59375 -4.734375 5.40625 -5.140625 C 6.328125 -5.5 6.796875 -6.203125 6.796875 -7.203125 C 6.796875 -8.90625 5.65625 -9.921875 3.765625 -9.921875 C 1.765625 -9.921875 0.703125 -8.828125 0.65625 -6.71875 L 1.890625 -6.71875 C 1.90625 -7.328125 1.953125 -7.65625 2.109375 -7.96875 C 2.390625 -8.515625 3.015625 -8.84375 3.78125 -8.84375 C 4.875 -8.84375 5.53125 -8.203125 5.53125 -7.15625 C 5.53125 -6.453125 5.28125 -6.03125 4.734375 -5.8125 C 4.390625 -5.671875 3.96875 -5.609375 3.09375 -5.59375 Z M 3.09375 -4.546875 "/>
</symbol>
<symbol overflow="visible" id="glyph0-10">
<path style="stroke:none;" d="M 6.65625 -9.921875 L 1.546875 -9.921875 L 0.796875 -4.515625 L 1.9375 -4.515625 C 2.5 -5.203125 2.984375 -5.453125 3.75 -5.453125 C 5.078125 -5.453125 5.921875 -4.53125 5.921875 -3.0625 C 5.921875 -1.640625 5.09375 -0.765625 3.75 -0.765625 C 2.671875 -0.765625 2.015625 -1.3125 1.71875 -2.4375 L 0.484375 -2.4375 C 0.65625 -1.625 0.796875 -1.234375 1.09375 -0.875 C 1.65625 -0.109375 2.65625 0.328125 3.78125 0.328125 C 5.78125 0.328125 7.1875 -1.140625 7.1875 -3.234375 C 7.1875 -5.1875 5.875 -6.53125 3.96875 -6.53125 C 3.28125 -6.53125 2.71875 -6.359375 2.140625 -5.9375 L 2.53125 -8.703125 L 6.65625 -8.703125 Z M 6.65625 -9.921875 "/>
</symbol>
<symbol overflow="visible" id="glyph0-11">
<path style="stroke:none;" d="M 2.71875 -10.203125 L 1.40625 -10.203125 L 1.40625 0 L 2.71875 0 Z M 2.71875 -10.203125 "/>
</symbol>
<symbol overflow="visible" id="glyph1-0">
<path style="stroke:none;" d="M 0.875 0 L 0.875 -11.203125 L 6.125 -11.203125 L 6.125 0 Z M 1.75 -0.875 L 5.25 -0.875 L 5.25 -10.328125 L 1.75 -10.328125 Z M 1.75 -0.875 "/>
</symbol>
<symbol overflow="visible" id="glyph1-1">
<path style="stroke:none;" d="M 9.453125 0 L 0.078125 0 L 3.9375 -10.015625 L 5.359375 -10.015625 Z M 7.5 -1.1875 L 5.296875 -6.984375 C 5.171875 -7.304688 5.050781 -7.625 4.9375 -7.9375 C 4.820312 -8.257812 4.726562 -8.585938 4.65625 -8.921875 C 4.570312 -8.585938 4.476562 -8.257812 4.375 -7.9375 C 4.269531 -7.613281 4.160156 -7.289062 4.046875 -6.96875 L 1.921875 -1.1875 Z M 7.5 -1.1875 "/>
</symbol>
<symbol overflow="visible" id="glyph1-2">
<path style="stroke:none;" d="M 3.671875 2.796875 L 0.953125 2.796875 L 0.953125 -10.015625 L 3.671875 -10.015625 L 3.671875 -9 L 2.1875 -9 L 2.1875 1.765625 L 3.671875 1.765625 Z M 3.671875 2.796875 "/>
</symbol>
<symbol overflow="visible" id="glyph1-3">
<path style="stroke:none;" d="M 7.71875 -7.609375 L 7.453125 -6.4375 L 5.03125 -6.4375 C 4.65625 -6.4375 4.328125 -6.390625 4.046875 -6.296875 C 3.765625 -6.210938 3.523438 -6.082031 3.328125 -5.90625 C 3.128906 -5.726562 2.960938 -5.503906 2.828125 -5.234375 C 2.703125 -4.960938 2.59375 -4.648438 2.5 -4.296875 L 6.1875 -4.296875 L 5.984375 -3.34375 L 2.296875 -3.34375 C 2.253906 -3.101562 2.234375 -2.863281 2.234375 -2.625 C 2.234375 -2.332031 2.269531 -2.09375 2.34375 -1.90625 C 2.425781 -1.71875 2.539062 -1.570312 2.6875 -1.46875 C 2.832031 -1.363281 3.007812 -1.289062 3.21875 -1.25 C 3.4375 -1.21875 3.675781 -1.203125 3.9375 -1.203125 L 6.34375 -1.203125 L 6.09375 -0.03125 L 3.28125 -0.03125 C 2.519531 -0.03125 1.953125 -0.234375 1.578125 -0.640625 C 1.203125 -1.046875 1.015625 -1.625 1.015625 -2.375 C 1.015625 -2.613281 1.03125 -2.851562 1.0625 -3.09375 C 1.09375 -3.332031 1.132812 -3.566406 1.1875 -3.796875 C 1.289062 -4.296875 1.4375 -4.769531 1.625 -5.21875 C 1.8125 -5.675781 2.050781 -6.082031 2.34375 -6.4375 C 2.644531 -6.789062 3.003906 -7.070312 3.421875 -7.28125 C 3.847656 -7.5 4.347656 -7.609375 4.921875 -7.609375 Z M 7.71875 -7.609375 "/>
</symbol>
<symbol overflow="visible" id="glyph1-4">
<path style="stroke:none;" d="M 2.9375 2.796875 L 0.21875 2.796875 L 0.21875 1.765625 L 1.703125 1.765625 L 1.703125 -9 L 0.21875 -9 L 0.21875 -10.015625 L 2.9375 -10.015625 Z M 2.9375 2.796875 "/>
</symbol>
<symbol overflow="visible" id="glyph2-0">
<path style="stroke:none;" d=""/>
</symbol>
<symbol overflow="visible" id="glyph2-1">
<path style="stroke:none;" d="M 2.375 -4.3125 L 7.546875 -4.3125 L 7.546875 -5.375 L 2.375 -5.375 L 2.375 -8.40625 L 7.734375 -8.40625 L 7.734375 -9.484375 L 1.171875 -9.484375 L 1.171875 0 L 7.96875 0 L 7.96875 -1.0625 L 2.375 -1.0625 Z M 2.375 -4.3125 "/>
</symbol>
<symbol overflow="visible" id="glyph2-2">
<path style="stroke:none;" d="M 3.796875 -3.515625 L 6.078125 -6.8125 L 4.859375 -6.8125 L 3.21875 -4.34375 L 1.59375 -6.8125 L 0.34375 -6.8125 L 2.625 -3.46875 L 0.21875 0 L 1.453125 0 L 3.1875 -2.609375 L 4.890625 0 L 6.15625 0 Z M 3.796875 -3.515625 "/>
</symbol>
<symbol overflow="visible" id="glyph2-3">
<path style="stroke:none;" d="M 6.953125 -0.640625 C 6.84375 -0.609375 6.78125 -0.609375 6.71875 -0.609375 C 6.34375 -0.609375 6.140625 -0.8125 6.140625 -1.140625 L 6.140625 -5.140625 C 6.140625 -6.359375 5.25 -7 3.578125 -7 C 2.59375 -7 1.765625 -6.71875 1.3125 -6.21875 C 1 -5.859375 0.875 -5.46875 0.84375 -4.796875 L 1.9375 -4.796875 C 2.03125 -5.625 2.515625 -6 3.53125 -6 C 4.515625 -6 5.0625 -5.640625 5.0625 -4.984375 L 5.0625 -4.703125 C 5.0625 -4.25 4.78125 -4.0625 3.921875 -3.953125 C 2.390625 -3.75 2.15625 -3.703125 1.734375 -3.53125 C 0.953125 -3.21875 0.546875 -2.59375 0.546875 -1.71875 C 0.546875 -0.484375 1.40625 0.296875 2.78125 0.296875 C 3.640625 0.296875 4.328125 0 5.09375 -0.703125 C 5.171875 -0.015625 5.515625 0.296875 6.21875 0.296875 C 6.4375 0.296875 6.609375 0.265625 6.953125 0.1875 Z M 5.0625 -2.140625 C 5.0625 -1.78125 4.953125 -1.5625 4.625 -1.265625 C 4.1875 -0.859375 3.65625 -0.65625 3.015625 -0.65625 C 2.171875 -0.65625 1.671875 -1.046875 1.671875 -1.734375 C 1.671875 -2.453125 2.15625 -2.828125 3.3125 -2.984375 C 4.453125 -3.140625 4.6875 -3.203125 5.0625 -3.359375 Z M 5.0625 -2.140625 "/>
</symbol>
<symbol overflow="visible" id="glyph2-4">
<path style="stroke:none;" d="M 6.125 -4.53125 C 6.078125 -5.1875 5.921875 -5.609375 5.671875 -6 C 5.203125 -6.625 4.375 -7 3.4375 -7 C 1.59375 -7 0.40625 -5.546875 0.40625 -3.28125 C 0.40625 -1.09375 1.578125 0.296875 3.421875 0.296875 C 5.046875 0.296875 6.078125 -0.671875 6.203125 -2.34375 L 5.109375 -2.34375 C 4.921875 -1.25 4.375 -0.703125 3.4375 -0.703125 C 2.25 -0.703125 1.53125 -1.671875 1.53125 -3.28125 C 1.53125 -4.984375 2.234375 -6 3.421875 -6 C 4.328125 -6 4.90625 -5.46875 5.03125 -4.53125 Z M 6.125 -4.53125 "/>
</symbol>
<symbol overflow="visible" id="glyph2-5">
<path style="stroke:none;" d="M 3.296875 -6.8125 L 2.1875 -6.8125 L 2.1875 -8.6875 L 1.109375 -8.6875 L 1.109375 -6.8125 L 0.1875 -6.8125 L 0.1875 -5.921875 L 1.109375 -5.921875 L 1.109375 -0.78125 C 1.109375 -0.09375 1.578125 0.296875 2.421875 0.296875 C 2.671875 0.296875 2.9375 0.265625 3.296875 0.203125 L 3.296875 -0.703125 C 3.15625 -0.65625 2.984375 -0.65625 2.78125 -0.65625 C 2.3125 -0.65625 2.1875 -0.78125 2.1875 -1.265625 L 2.1875 -5.921875 L 3.296875 -5.921875 Z M 3.296875 -6.8125 "/>
</symbol>
<symbol overflow="visible" id="glyph2-6">
<path style="stroke:none;" d="M 9.671875 0 L 12.078125 -9.484375 L 10.71875 -9.484375 L 8.984375 -1.78125 L 6.828125 -9.484375 L 5.53125 -9.484375 L 3.421875 -1.78125 L 1.640625 -9.484375 L 0.28125 -9.484375 L 2.71875 0 L 4.046875 0 L 6.15625 -7.78125 L 8.34375 0 Z M 9.671875 0 "/>
</symbol>
<symbol overflow="visible" id="glyph2-7">
<path style="stroke:none;" d="M 1.953125 -6.8125 L 0.875 -6.8125 L 0.875 0 L 1.953125 0 Z M 1.953125 -9.484375 L 0.859375 -9.484375 L 0.859375 -8.109375 L 1.953125 -8.109375 Z M 1.953125 -9.484375 "/>
</symbol>
<symbol overflow="visible" id="glyph2-8">
<path style="stroke:none;" d="M 6.4375 -9.484375 L 5.359375 -9.484375 L 5.359375 -5.953125 C 4.90625 -6.640625 4.171875 -7 3.265625 -7 C 1.5 -7 0.34375 -5.59375 0.34375 -3.421875 C 0.34375 -1.125 1.46875 0.296875 3.296875 0.296875 C 4.234375 0.296875 4.890625 -0.046875 5.46875 -0.890625 L 5.46875 0 L 6.4375 0 Z M 3.4375 -6 C 4.609375 -6 5.359375 -4.953125 5.359375 -3.328125 C 5.359375 -1.75 4.609375 -0.71875 3.453125 -0.71875 C 2.265625 -0.71875 1.46875 -1.765625 1.46875 -3.359375 C 1.46875 -4.9375 2.265625 -6 3.4375 -6 Z M 3.4375 -6 "/>
</symbol>
<symbol overflow="visible" id="glyph2-9">
<path style="stroke:none;" d="M 6.671875 -3.046875 C 6.671875 -4.078125 6.59375 -4.703125 6.390625 -5.21875 C 5.953125 -6.328125 4.90625 -7 3.640625 -7 C 1.734375 -7 0.515625 -5.546875 0.515625 -3.3125 C 0.515625 -1.078125 1.703125 0.296875 3.609375 0.296875 C 5.171875 0.296875 6.25 -0.578125 6.53125 -2.0625 L 5.4375 -2.0625 C 5.140625 -1.171875 4.53125 -0.703125 3.65625 -0.703125 C 2.96875 -0.703125 2.375 -1.015625 2.015625 -1.59375 C 1.75 -1.96875 1.65625 -2.359375 1.65625 -3.046875 Z M 1.671875 -3.921875 C 1.765625 -5.1875 2.53125 -6 3.625 -6 C 4.6875 -6 5.515625 -5.125 5.515625 -4 C 5.515625 -3.984375 5.515625 -3.953125 5.5 -3.921875 Z M 1.671875 -3.921875 "/>
</symbol>
<symbol overflow="visible" id="glyph2-10">
<path style="stroke:none;" d="M 1.03125 0 L 5.296875 0 C 6.203125 0 6.859375 -0.25 7.375 -0.796875 C 7.84375 -1.28125 8.09375 -1.96875 8.09375 -2.703125 C 8.09375 -3.84375 7.578125 -4.53125 6.375 -5 C 7.234375 -5.40625 7.6875 -6.109375 7.6875 -7.078125 C 7.6875 -7.765625 7.421875 -8.375 6.921875 -8.8125 C 6.4375 -9.265625 5.78125 -9.484375 4.875 -9.484375 L 1.03125 -9.484375 Z M 2.234375 -5.390625 L 2.234375 -8.40625 L 4.578125 -8.40625 C 5.25 -8.40625 5.625 -8.3125 5.953125 -8.078125 C 6.296875 -7.8125 6.46875 -7.421875 6.46875 -6.90625 C 6.46875 -6.390625 6.296875 -6 5.953125 -5.734375 C 5.625 -5.484375 5.25 -5.390625 4.578125 -5.390625 Z M 2.234375 -1.0625 L 2.234375 -4.328125 L 5.1875 -4.328125 C 5.765625 -4.328125 6.15625 -4.1875 6.453125 -3.875 C 6.734375 -3.578125 6.890625 -3.15625 6.890625 -2.6875 C 6.890625 -2.234375 6.734375 -1.8125 6.453125 -1.515625 C 6.15625 -1.203125 5.765625 -1.0625 5.1875 -1.0625 Z M 2.234375 -1.0625 "/>
</symbol>
<symbol overflow="visible" id="glyph2-11">
<path style="stroke:none;" d="M 0.90625 -6.8125 L 0.90625 0 L 2 0 L 2 -3.75 C 2 -5.140625 2.734375 -6.0625 3.84375 -6.0625 C 4.703125 -6.0625 5.25 -5.53125 5.25 -4.71875 L 5.25 0 L 6.328125 0 L 6.328125 -5.140625 C 6.328125 -6.28125 5.484375 -7 4.171875 -7 C 3.15625 -7 2.515625 -6.609375 1.90625 -5.671875 L 1.90625 -6.8125 Z M 0.90625 -6.8125 "/>
</symbol>
<symbol overflow="visible" id="glyph2-12">
<path style="stroke:none;" d="M 2.25 -9.484375 L 1.046875 -9.484375 L 1.046875 0 L 6.921875 0 L 6.921875 -1.0625 L 2.25 -1.0625 Z M 2.25 -9.484375 "/>
</symbol>
<symbol overflow="visible" id="glyph2-13">
<path style="stroke:none;" d="M 0.90625 -6.8125 L 0.90625 0 L 2 0 L 2 -4.28125 C 2 -5.265625 2.71875 -6.0625 3.59375 -6.0625 C 4.40625 -6.0625 4.859375 -5.5625 4.859375 -4.6875 L 4.859375 0 L 5.953125 0 L 5.953125 -4.28125 C 5.953125 -5.265625 6.671875 -6.0625 7.546875 -6.0625 C 8.34375 -6.0625 8.8125 -5.546875 8.8125 -4.6875 L 8.8125 0 L 9.90625 0 L 9.90625 -5.109375 C 9.90625 -6.328125 9.203125 -7 7.9375 -7 C 7.015625 -7 6.46875 -6.734375 5.84375 -5.96875 C 5.4375 -6.6875 4.890625 -7 4 -7 C 3.09375 -7 2.5 -6.671875 1.90625 -5.84375 L 1.90625 -6.8125 Z M 0.90625 -6.8125 "/>
</symbol>
</g>
<clipPath id="clip1">
  <path d="M 30 59 L 457 59 L 457 290 L 30 290 Z M 30 59 "/>
</clipPath>
<clipPath id="clip2">
  <path d="M 30 30 L 457 30 L 457 290 L 30 290 Z M 30 30 "/>
</clipPath>
<clipPath id="clip3">
  <path d="M 514 141 L 534 141 L 534 144 L 514 144 Z M 514 141 "/>
</clipPath>
<clipPath id="clip4">
  <path d="M 514 162 L 534 162 L 534 165 L 514 165 Z M 514 162 "/>
</clipPath>
</defs>
<g id="surface7">
<g clip-path="url(#clip1)" clip-rule="nonzero">
<path style="fill:none;stroke-width:1.6;stroke-linecap:square;stroke-linejoin:miter;stroke:rgb(36.84082%,50.67749%,70.979309%);stroke-opacity:1;stroke-miterlimit:3.25;" d="M 38 284.574219 L 83.714844 248.175781 L 129.429688 212.523438 L 175.144531 178.96875 L 220.855469 147.691406 L 266.570312 119.476562 L 312.285156 95.5625 L 358 77.832031 L 403.714844 68.445312 L 449.429688 66.617188 "/>
</g>
<g clip-path="url(#clip2)" clip-rule="nonzero">
<path style="fill:none;stroke-width:1.6;stroke-linecap:square;stroke-linejoin:miter;stroke:rgb(88.070679%,61.103821%,14.204407%);stroke-opacity:1;stroke-miterlimit:3.25;" d="M 38 284.574219 L 83.714844 247.699219 L 129.429688 211.46875 L 175.144531 176.257812 L 220.855469 142.441406 L 266.570312 110.683594 L 312.285156 82.121094 L 358 58.714844 L 403.714844 43.519531 L 449.429688 38.242188 "/>
</g>
<path style="fill:none;stroke-width:0.2;stroke-linecap:butt;stroke-linejoin:miter;stroke:rgb(0%,0%,0%);stroke-opacity:1;stroke-miterlimit:3.25;" d="M 38 284.574219 L 38 280.574219 "/>
<path style="fill:none;stroke-width:0.2;stroke-linecap:butt;stroke-linejoin:miter;stroke:rgb(0%,0%,0%);stroke-opacity:1;stroke-miterlimit:3.25;" d="M 60.855469 284.574219 L 60.855469 282.175781 "/>
<path style="fill:none;stroke-width:0.2;stroke-linecap:butt;stroke-linejoin:miter;stroke:rgb(0%,0%,0%);stroke-opacity:1;stroke-miterlimit:3.25;" d="M 83.714844 284.574219 L 83.714844 282.175781 "/>
<path style="fill:none;stroke-width:0.2;stroke-linecap:butt;stroke-linejoin:miter;stroke:rgb(0%,0%,0%);stroke-opacity:1;stroke-miterlimit:3.25;" d="M 106.570312 284.574219 L 106.570312 282.175781 "/>
<path style="fill:none;stroke-width:0.2;stroke-linecap:butt;stroke-linejoin:miter;stroke:rgb(0%,0%,0%);stroke-opacity:1;stroke-miterlimit:3.25;" d="M 129.429688 284.574219 L 129.429688 280.574219 "/>
<g style="fill:rgb(0%,0%,0%);fill-opacity:1;">
  <use xlink:href="#glyph0-1" x="119.928571" y="300.574275"/>
  <use xlink:href="#glyph0-2" x="127.928571" y="300.574275"/>
  <use xlink:href="#glyph0-3" x="131.928571" y="300.574275"/>
</g>
<path style="fill:none;stroke-width:0.2;stroke-linecap:butt;stroke-linejoin:miter;stroke:rgb(0%,0%,0%);stroke-opacity:1;stroke-miterlimit:3.25;" d="M 152.285156 284.574219 L 152.285156 282.175781 "/>
<path style="fill:none;stroke-width:0.2;stroke-linecap:butt;stroke-linejoin:miter;stroke:rgb(0%,0%,0%);stroke-opacity:1;stroke-miterlimit:3.25;" d="M 175.144531 284.574219 L 175.144531 282.175781 "/>
<path style="fill:none;stroke-width:0.2;stroke-linecap:butt;stroke-linejoin:miter;stroke:rgb(0%,0%,0%);stroke-opacity:1;stroke-miterlimit:3.25;" d="M 198 284.574219 L 198 282.175781 "/>
<path style="fill:none;stroke-width:0.2;stroke-linecap:butt;stroke-linejoin:miter;stroke:rgb(0%,0%,0%);stroke-opacity:1;stroke-miterlimit:3.25;" d="M 220.855469 284.574219 L 220.855469 280.574219 "/>
<g style="fill:rgb(0%,0%,0%);fill-opacity:1;">
  <use xlink:href="#glyph0-1" x="211.357143" y="300.574275"/>
  <use xlink:href="#glyph0-2" x="219.357143" y="300.574275"/>
  <use xlink:href="#glyph0-4" x="223.357143" y="300.574275"/>
</g>
<path style="fill:none;stroke-width:0.2;stroke-linecap:butt;stroke-linejoin:miter;stroke:rgb(0%,0%,0%);stroke-opacity:1;stroke-miterlimit:3.25;" d="M 243.714844 284.574219 L 243.714844 282.175781 "/>
<path style="fill:none;stroke-width:0.2;stroke-linecap:butt;stroke-linejoin:miter;stroke:rgb(0%,0%,0%);stroke-opacity:1;stroke-miterlimit:3.25;" d="M 266.570312 284.574219 L 266.570312 282.175781 "/>
<path style="fill:none;stroke-width:0.2;stroke-linecap:butt;stroke-linejoin:miter;stroke:rgb(0%,0%,0%);stroke-opacity:1;stroke-miterlimit:3.25;" d="M 289.429688 284.574219 L 289.429688 282.175781 "/>
<path style="fill:none;stroke-width:0.2;stroke-linecap:butt;stroke-linejoin:miter;stroke:rgb(0%,0%,0%);stroke-opacity:1;stroke-miterlimit:3.25;" d="M 312.285156 284.574219 L 312.285156 280.574219 "/>
<g style="fill:rgb(0%,0%,0%);fill-opacity:1;">
  <use xlink:href="#glyph0-1" x="302.785714" y="300.574275"/>
  <use xlink:href="#glyph0-2" x="310.785714" y="300.574275"/>
  <use xlink:href="#glyph0-5" x="314.785714" y="300.574275"/>
</g>
<path style="fill:none;stroke-width:0.2;stroke-linecap:butt;stroke-linejoin:miter;stroke:rgb(0%,0%,0%);stroke-opacity:1;stroke-miterlimit:3.25;" d="M 335.144531 284.574219 L 335.144531 282.175781 "/>
<path style="fill:none;stroke-width:0.2;stroke-linecap:butt;stroke-linejoin:miter;stroke:rgb(0%,0%,0%);stroke-opacity:1;stroke-miterlimit:3.25;" d="M 358 284.574219 L 358 282.175781 "/>
<path style="fill:none;stroke-width:0.2;stroke-linecap:butt;stroke-linejoin:miter;stroke:rgb(0%,0%,0%);stroke-opacity:1;stroke-miterlimit:3.25;" d="M 380.855469 284.574219 L 380.855469 282.175781 "/>
<path style="fill:none;stroke-width:0.2;stroke-linecap:butt;stroke-linejoin:miter;stroke:rgb(0%,0%,0%);stroke-opacity:1;stroke-miterlimit:3.25;" d="M 403.714844 284.574219 L 403.714844 280.574219 "/>
<g style="fill:rgb(0%,0%,0%);fill-opacity:1;">
  <use xlink:href="#glyph0-1" x="394.214286" y="300.574275"/>
  <use xlink:href="#glyph0-2" x="402.214286" y="300.574275"/>
  <use xlink:href="#glyph0-6" x="406.214286" y="300.574275"/>
</g>
<path style="fill:none;stroke-width:0.2;stroke-linecap:butt;stroke-linejoin:miter;stroke:rgb(0%,0%,0%);stroke-opacity:1;stroke-miterlimit:3.25;" d="M 426.570312 284.574219 L 426.570312 282.175781 "/>
<path style="fill:none;stroke-width:0.2;stroke-linecap:butt;stroke-linejoin:miter;stroke:rgb(0%,0%,0%);stroke-opacity:1;stroke-miterlimit:3.25;" d="M 449.429688 284.574219 L 449.429688 282.175781 "/>
<path style="fill:none;stroke-width:0.2;stroke-linecap:butt;stroke-linejoin:miter;stroke:rgb(39.99939%,39.99939%,39.99939%);stroke-opacity:1;stroke-miterlimit:3.25;" d="M 29.429688 284.574219 L 458 284.574219 "/>
<g style="fill:rgb(0%,0%,0%);fill-opacity:1;">
  <use xlink:href="#glyph1-1" x="466" y="288.574275"/>
</g>
<g style="fill:rgb(0%,0%,0%);fill-opacity:1;">
  <use xlink:href="#glyph0-7" x="476" y="288.574275"/>
</g>
<g style="fill:rgb(0%,0%,0%);fill-opacity:1;">
  <use xlink:href="#glyph1-2" x="484" y="288.574275"/>
</g>
<g style="fill:rgb(0%,0%,0%);fill-opacity:1;">
  <use xlink:href="#glyph1-3" x="488" y="288.574275"/>
</g>
<g style="fill:rgb(0%,0%,0%);fill-opacity:1;">
  <use xlink:href="#glyph1-4" x="495" y="288.574275"/>
</g>
<path style="fill:none;stroke-width:0.2;stroke-linecap:butt;stroke-linejoin:miter;stroke:rgb(0%,0%,0%);stroke-opacity:1;stroke-miterlimit:3.25;" d="M 38 284.574219 L 42 284.574219 "/>
<path style="fill:none;stroke-width:0.2;stroke-linecap:butt;stroke-linejoin:miter;stroke:rgb(0%,0%,0%);stroke-opacity:1;stroke-miterlimit:3.25;" d="M 38 274.375 L 40.398438 274.375 "/>
<path style="fill:none;stroke-width:0.2;stroke-linecap:butt;stroke-linejoin:miter;stroke:rgb(0%,0%,0%);stroke-opacity:1;stroke-miterlimit:3.25;" d="M 38 264.175781 L 40.398438 264.175781 "/>
<path style="fill:none;stroke-width:0.2;stroke-linecap:butt;stroke-linejoin:miter;stroke:rgb(0%,0%,0%);stroke-opacity:1;stroke-miterlimit:3.25;" d="M 38 253.976562 L 40.398438 253.976562 "/>
<path style="fill:none;stroke-width:0.2;stroke-linecap:butt;stroke-linejoin:miter;stroke:rgb(0%,0%,0%);stroke-opacity:1;stroke-miterlimit:3.25;" d="M 38 243.78125 L 40.398438 243.78125 "/>
<path style="fill:none;stroke-width:0.2;stroke-linecap:butt;stroke-linejoin:miter;stroke:rgb(0%,0%,0%);stroke-opacity:1;stroke-miterlimit:3.25;" d="M 38 233.582031 L 42 233.582031 "/>
<g style="fill:rgb(0%,0%,0%);fill-opacity:1;">
  <use xlink:href="#glyph0-1" x="0" y="237.580756"/>
  <use xlink:href="#glyph0-2" x="8" y="237.580756"/>
  <use xlink:href="#glyph0-1" x="12" y="237.580756"/>
  <use xlink:href="#glyph0-1" x="20" y="237.580756"/>
  <use xlink:href="#glyph0-8" x="28" y="237.580756"/>
</g>
<path style="fill:none;stroke-width:0.2;stroke-linecap:butt;stroke-linejoin:miter;stroke:rgb(0%,0%,0%);stroke-opacity:1;stroke-miterlimit:3.25;" d="M 38 223.382812 L 40.398438 223.382812 "/>
<path style="fill:none;stroke-width:0.2;stroke-linecap:butt;stroke-linejoin:miter;stroke:rgb(0%,0%,0%);stroke-opacity:1;stroke-miterlimit:3.25;" d="M 38 213.183594 L 40.398438 213.183594 "/>
<path style="fill:none;stroke-width:0.2;stroke-linecap:butt;stroke-linejoin:miter;stroke:rgb(0%,0%,0%);stroke-opacity:1;stroke-miterlimit:3.25;" d="M 38 202.984375 L 40.398438 202.984375 "/>
<path style="fill:none;stroke-width:0.2;stroke-linecap:butt;stroke-linejoin:miter;stroke:rgb(0%,0%,0%);stroke-opacity:1;stroke-miterlimit:3.25;" d="M 38 192.785156 L 40.398438 192.785156 "/>
<path style="fill:none;stroke-width:0.2;stroke-linecap:butt;stroke-linejoin:miter;stroke:rgb(0%,0%,0%);stroke-opacity:1;stroke-miterlimit:3.25;" d="M 38 182.585938 L 42 182.585938 "/>
<g style="fill:rgb(0%,0%,0%);fill-opacity:1;">
  <use xlink:href="#glyph0-1" x="0" y="186.587237"/>
  <use xlink:href="#glyph0-2" x="8" y="186.587237"/>
  <use xlink:href="#glyph0-1" x="12" y="186.587237"/>
  <use xlink:href="#glyph0-1" x="20" y="186.587237"/>
  <use xlink:href="#glyph0-3" x="28" y="186.587237"/>
</g>
<path style="fill:none;stroke-width:0.2;stroke-linecap:butt;stroke-linejoin:miter;stroke:rgb(0%,0%,0%);stroke-opacity:1;stroke-miterlimit:3.25;" d="M 38 172.386719 L 40.398438 172.386719 "/>
<path style="fill:none;stroke-width:0.2;stroke-linecap:butt;stroke-linejoin:miter;stroke:rgb(0%,0%,0%);stroke-opacity:1;stroke-miterlimit:3.25;" d="M 38 162.191406 L 40.398438 162.191406 "/>
<path style="fill:none;stroke-width:0.2;stroke-linecap:butt;stroke-linejoin:miter;stroke:rgb(0%,0%,0%);stroke-opacity:1;stroke-miterlimit:3.25;" d="M 38 151.992188 L 40.398438 151.992188 "/>
<path style="fill:none;stroke-width:0.2;stroke-linecap:butt;stroke-linejoin:miter;stroke:rgb(0%,0%,0%);stroke-opacity:1;stroke-miterlimit:3.25;" d="M 38 141.792969 L 40.398438 141.792969 "/>
<path style="fill:none;stroke-width:0.2;stroke-linecap:butt;stroke-linejoin:miter;stroke:rgb(0%,0%,0%);stroke-opacity:1;stroke-miterlimit:3.25;" d="M 38 131.59375 L 42 131.59375 "/>
<g style="fill:rgb(0%,0%,0%);fill-opacity:1;">
  <use xlink:href="#glyph0-1" x="0" y="135.593717"/>
  <use xlink:href="#glyph0-2" x="8" y="135.593717"/>
  <use xlink:href="#glyph0-1" x="12" y="135.593717"/>
  <use xlink:href="#glyph0-1" x="20" y="135.593717"/>
  <use xlink:href="#glyph0-9" x="28" y="135.593717"/>
</g>
<path style="fill:none;stroke-width:0.2;stroke-linecap:butt;stroke-linejoin:miter;stroke:rgb(0%,0%,0%);stroke-opacity:1;stroke-miterlimit:3.25;" d="M 38 121.394531 L 40.398438 121.394531 "/>
<path style="fill:none;stroke-width:0.2;stroke-linecap:butt;stroke-linejoin:miter;stroke:rgb(0%,0%,0%);stroke-opacity:1;stroke-miterlimit:3.25;" d="M 38 111.195312 L 40.398438 111.195312 "/>
<path style="fill:none;stroke-width:0.2;stroke-linecap:butt;stroke-linejoin:miter;stroke:rgb(0%,0%,0%);stroke-opacity:1;stroke-miterlimit:3.25;" d="M 38 100.996094 L 40.398438 100.996094 "/>
<path style="fill:none;stroke-width:0.2;stroke-linecap:butt;stroke-linejoin:miter;stroke:rgb(0%,0%,0%);stroke-opacity:1;stroke-miterlimit:3.25;" d="M 38 90.800781 L 40.398438 90.800781 "/>
<path style="fill:none;stroke-width:0.2;stroke-linecap:butt;stroke-linejoin:miter;stroke:rgb(0%,0%,0%);stroke-opacity:1;stroke-miterlimit:3.25;" d="M 38 80.601562 L 42 80.601562 "/>
<g style="fill:rgb(0%,0%,0%);fill-opacity:1;">
  <use xlink:href="#glyph0-1" x="0" y="84.600198"/>
  <use xlink:href="#glyph0-2" x="8" y="84.600198"/>
  <use xlink:href="#glyph0-1" x="12" y="84.600198"/>
  <use xlink:href="#glyph0-1" x="20" y="84.600198"/>
  <use xlink:href="#glyph0-4" x="28" y="84.600198"/>
</g>
<path style="fill:none;stroke-width:0.2;stroke-linecap:butt;stroke-linejoin:miter;stroke:rgb(0%,0%,0%);stroke-opacity:1;stroke-miterlimit:3.25;" d="M 38 70.402344 L 40.398438 70.402344 "/>
<path style="fill:none;stroke-width:0.2;stroke-linecap:butt;stroke-linejoin:miter;stroke:rgb(0%,0%,0%);stroke-opacity:1;stroke-miterlimit:3.25;" d="M 38 60.203125 L 40.398438 60.203125 "/>
<path style="fill:none;stroke-width:0.2;stroke-linecap:butt;stroke-linejoin:miter;stroke:rgb(0%,0%,0%);stroke-opacity:1;stroke-miterlimit:3.25;" d="M 38 50.003906 L 40.398438 50.003906 "/>
<path style="fill:none;stroke-width:0.2;stroke-linecap:butt;stroke-linejoin:miter;stroke:rgb(0%,0%,0%);stroke-opacity:1;stroke-miterlimit:3.25;" d="M 38 39.804688 L 40.398438 39.804688 "/>
<path style="fill:none;stroke-width:0.2;stroke-linecap:butt;stroke-linejoin:miter;stroke:rgb(0%,0%,0%);stroke-opacity:1;stroke-miterlimit:3.25;" d="M 38 29.605469 L 42 29.605469 "/>
<g style="fill:rgb(0%,0%,0%);fill-opacity:1;">
  <use xlink:href="#glyph0-1" x="0" y="33.606678"/>
  <use xlink:href="#glyph0-2" x="8" y="33.606678"/>
  <use xlink:href="#glyph0-1" x="12" y="33.606678"/>
  <use xlink:href="#glyph0-1" x="20" y="33.606678"/>
  <use xlink:href="#glyph0-10" x="28" y="33.606678"/>
</g>
<path style="fill:none;stroke-width:0.2;stroke-linecap:butt;stroke-linejoin:miter;stroke:rgb(39.99939%,39.99939%,39.99939%);stroke-opacity:1;stroke-miterlimit:3.25;" d="M 38 289.871094 L 38 25 "/>
<g style="fill:rgb(0%,0%,0%);fill-opacity:1;">
  <use xlink:href="#glyph0-11" x="36" y="14"/>
</g>
<g clip-path="url(#clip3)" clip-rule="nonzero">
<path style="fill:none;stroke-width:1.6;stroke-linecap:square;stroke-linejoin:miter;stroke:rgb(36.84082%,50.67749%,70.979309%);stroke-opacity:1;stroke-miterlimit:3.25;" d="M 514.800781 142.5 L 532.199219 142.5 "/>
</g>
<g style="fill:rgb(0%,0%,0%);fill-opacity:1;">
  <use xlink:href="#glyph2-1" x="541" y="147"/>
  <use xlink:href="#glyph2-2" x="550" y="147"/>
  <use xlink:href="#glyph2-3" x="557" y="147"/>
  <use xlink:href="#glyph2-4" x="564" y="147"/>
  <use xlink:href="#glyph2-5" x="571" y="147"/>
</g>
<g clip-path="url(#clip4)" clip-rule="nonzero">
<path style="fill:none;stroke-width:1.6;stroke-linecap:square;stroke-linejoin:miter;stroke:rgb(88.070679%,61.103821%,14.204407%);stroke-opacity:1;stroke-miterlimit:3.25;" d="M 514.800781 163.5 L 532.199219 163.5 "/>
</g>
<g style="fill:rgb(0%,0%,0%);fill-opacity:1;">
  <use xlink:href="#glyph2-6" x="541" y="168"/>
  <use xlink:href="#glyph2-7" x="553" y="168"/>
  <use xlink:href="#glyph2-8" x="556" y="168"/>
  <use xlink:href="#glyph2-9" x="563" y="168"/>
</g>
<g style="fill:rgb(0%,0%,0%);fill-opacity:1;">
  <use xlink:href="#glyph2-10" x="575" y="168"/>
  <use xlink:href="#glyph2-3" x="584" y="168"/>
  <use xlink:href="#glyph2-11" x="591" y="168"/>
  <use xlink:href="#glyph2-8" x="598" y="168"/>
</g>
<g style="fill:rgb(0%,0%,0%);fill-opacity:1;">
  <use xlink:href="#glyph2-12" x="609" y="168"/>
  <use xlink:href="#glyph2-7" x="616" y="168"/>
  <use xlink:href="#glyph2-13" x="619" y="168"/>
  <use xlink:href="#glyph2-7" x="630" y="168"/>
  <use xlink:href="#glyph2-5" x="633" y="168"/>
</g>
</g>
</svg>
