\relax 
\providecommand\hyper@newdestlabel[2]{}
\providecommand\HyperFirstAtBeginDocument{\AtBeginDocument}
\HyperFirstAtBeginDocument{\ifx\hyper@anchor\@undefined
\global\let\oldcontentsline\contentsline
\gdef\contentsline#1#2#3#4{\oldcontentsline{#1}{#2}{#3}}
\global\let\oldnewlabel\newlabel
\gdef\newlabel#1#2{\newlabelxx{#1}#2}
\gdef\newlabelxx#1#2#3#4#5#6{\oldnewlabel{#1}{{#2}{#3}}}
\AtEndDocument{\ifx\hyper@anchor\@undefined
\let\contentsline\oldcontentsline
\let\newlabel\oldnewlabel
\fi}
\fi}
\global\let\hyper@last\relax 
\gdef\HyperFirstAtBeginDocument#1{#1}
\providecommand\HyField@AuxAddToFields[1]{}
\providecommand\HyField@AuxAddToCoFields[2]{}
\citation{Carmichael}
\citation{QD_phonon}
\citation{FMOSpec1}
\citation{LinQuOptComp}
\citation{SingePhotonQD}
\citation{FMO_ME}
\citation{darkStateProtec}
\citation{Molecular}
\@writefile{toc}{\contentsline {chapter}{\numberline {1}Introduction}{1}{chapter.1}}
\@writefile{lof}{\addvspace {10\p@ }}
\@writefile{lot}{\addvspace {10\p@ }}
\citation{Breuer}
\citation{HEOM}
\citation{ReactionCoord}
\citation{Nakajima}
\citation{zwanzig}
\citation{PolaronTransform}
\@writefile{toc}{\contentsline {section}{\numberline {1.1}Memory effects and non-equilibrium in open systems}{2}{section.1.1}}
\citation{CavityQED}
\citation{QDs}
\citation{QDPhonon}
\citation{Chin}
\citation{Molecular}
\@writefile{toc}{\contentsline {section}{\numberline {1.2}Model and realisations}{3}{section.1.2}}
\citation{Agarwal}
\@writefile{toc}{\contentsline {subsection}{\numberline {1.2.1}Microscopic model}{4}{subsection.1.2.1}}
\newlabel{Intro_eq:2LS_Hamilton}{{1.2}{4}{Microscopic model}{equation.1.2.2}{}}
\newlabel{Intro_eq:BosonCommutation}{{1.3}{4}{Microscopic model}{equation.1.2.3}{}}
\newlabel{KC_eq:2LSAntiComm}{{1.4}{4}{Microscopic model}{equation.1.2.4}{}}
\@writefile{lof}{\contentsline {figure}{\numberline {1.1}{\ignorespaces A two-site system}}{5}{figure.caption.5}}
\providecommand*\caption@xref[2]{\@setref\relax\@undefined{#1}}
\newlabel{Intro_fig:2site}{{1.1}{5}{A two-site system}{figure.caption.5}{}}
\newlabel{KC_eq:2LSComm}{{1.5}{5}{Microscopic model}{equation.1.2.5}{}}
\@writefile{toc}{\contentsline {section}{\numberline {1.3}Outline}{5}{section.1.3}}
\citation{Ballentine}
\citation{Breuer}
\@writefile{toc}{\contentsline {chapter}{\numberline {2}The Markovian master equation}{6}{chapter.2}}
\@writefile{lof}{\addvspace {10\p@ }}
\@writefile{lot}{\addvspace {10\p@ }}
\newlabel{chp_MME}{{2}{6}{The Markovian master equation}{chapter.2}{}}
\@writefile{toc}{\contentsline {section}{\numberline {2.1}Born-Markov master equation}{6}{section.2.1}}
\newlabel{MME_sec:BMME}{{2.1}{6}{Born-Markov master equation}{section.2.1}{}}
\newlabel{MME_eq:DensityMat}{{2.1}{6}{Born-Markov master equation}{equation.2.1.1}{}}
\newlabel{MME_eq:VonNeumann}{{2.2}{6}{Born-Markov master equation}{equation.2.1.2}{}}
\citation{Breuer}
\citation{Breuer}
\newlabel{MME_eq:IntPictTrans}{{2.6}{7}{Born-Markov master equation}{equation.2.1.6}{}}
\newlabel{MME_eq:VonNeumannIntPic}{{2.7}{7}{Born-Markov master equation}{equation.2.1.7}{}}
\newlabel{MME_eq:IntPic}{{2.8}{7}{Born-Markov master equation}{equation.2.1.8}{}}
\citation{Breuer}
\newlabel{MME_eq:ME_s1}{{2.11}{8}{Born-Markov master equation}{equation.2.1.11}{}}
\newlabel{MME_eq:HInt_decomposition}{{2.12}{8}{Born-Markov master equation}{equation.2.1.12}{}}
\newlabel{MME_eq:IntPicME}{{2.15}{8}{Born-Markov master equation}{equation.2.1.15}{}}
\newlabel{MME_eq:EnvCorrelationFct}{{2.16}{8}{Born-Markov master equation}{equation.2.1.16}{}}
\newlabel{MME_eq:FullBMNoHermitian}{{2.17}{8}{Born-Markov master equation}{equation.2.1.17}{}}
\citation{Breuer}
\citation{CP3}
\citation{Ballentine}
\citation{CP1}
\citation{CP2}
\citation{Breuer}
\newlabel{MME_eq:RateOp}{{2.18}{9}{Born-Markov master equation}{equation.2.1.18}{}}
\newlabel{MME_eq:NonSecDissipator}{{2.19}{9}{Born-Markov master equation}{equation.2.1.19}{}}
\@writefile{toc}{\contentsline {section}{\numberline {2.2}Lindblad form}{9}{section.2.2}}
\newlabel{MME_sec_LindbladForm}{{2.2}{9}{Lindblad form}{section.2.2}{}}
\newlabel{MME_eq:LiouvilleTimeEvolution}{{2.20}{9}{Lindblad form}{equation.2.2.20}{}}
\citation{Kossakowski}
\citation{CP1}
\citation{CP2}
\citation{Breuer}
\newlabel{MME_eq:IntPicMELocal}{{2.24}{10}{Lindblad form}{equation.2.2.24}{}}
\newlabel{MME_eq:rateC}{{2.25}{10}{Lindblad form}{equation.2.2.25}{}}
\newlabel{MME_eq:Kossakowski}{{2.27}{10}{Lindblad form}{equation.2.2.27}{}}
\newlabel{MME_eq:LindbladDisMESecularised}{{2.28}{10}{Lindblad form}{equation.2.2.28}{}}
\@writefile{toc}{\contentsline {section}{\numberline {2.3}A two-site system}{11}{section.2.3}}
\newlabel{MME_eq:EnvIntPic}{{2.31}{11}{A two-site system}{equation.2.3.31}{}}
\newlabel{MME_eq:MarkovEnvCorr}{{2.32}{11}{A two-site system}{equation.2.3.32}{}}
\citation{SpectralDensity}
\citation{QDPhonon}
\citation{FMOSpec1}
\citation{FMOSpec2}
\citation{Breuer}
\citation{EngineerSpectralDensity}
\newlabel{MME_eq:BoseOccu}{{2.33}{12}{A two-site system}{equation.2.3.33}{}}
\newlabel{MME_eq:ChosenSpectralDensity}{{2.36}{12}{A two-site system}{equation.2.3.36}{}}
\newlabel{MME_eq:DiagonalisingHc}{{2.37}{12}{A two-site system}{equation.2.3.37}{}}
\citation{Arfken}
\citation{Arfken}
\citation{Bruus}
\citation{Weinberg}
\citation{Knight}
\newlabel{MME_eq:MarkovHIDecomposition}{{2.39}{13}{A two-site system}{equation.2.3.39}{}}
\newlabel{MME_eq:ratesTerm}{{2.40}{13}{A two-site system}{equation.2.3.40}{}}
\newlabel{MME_eq:Sokhotski1}{{2.41}{13}{A two-site system}{equation.2.3.41}{}}
\newlabel{MMe_eq:Sokhotski}{{2.42}{13}{A two-site system}{equation.2.3.42}{}}
\@writefile{lof}{\contentsline {figure}{\numberline {2.1}{\ignorespaces Negative eigenvalue of Kossakowski matrix}}{14}{figure.caption.6}}
\newlabel{MME_fig:Kossakowski}{{2.1}{14}{Negative eigenvalue of Kossakowski matrix}{figure.caption.6}{}}
\citation{Breuer}
\citation{Kossakowski}
\citation{SecNoCurrent}
\citation{Breuer}
\@writefile{toc}{\contentsline {subsection}{\numberline {2.3.1}Completely positive master equations}{15}{subsection.2.3.1}}
\newlabel{MME_sec:LocalSite}{{2.3.1}{15}{Completely positive master equations}{subsection.2.3.1}{}}
\citation{WrongThermal}
\citation{ThermalOpenSystems}
\newlabel{MME_eq:Localsite}{{2.45}{16}{Completely positive master equations}{equation.2.3.45}{}}
\@writefile{toc}{\contentsline {section}{\numberline {2.4}Chapter summary}{16}{section.2.4}}
\citation{Altland}
\citation{Bruus}
\@writefile{toc}{\contentsline {chapter}{\numberline {3}Non-equilibrium quantum field theory}{17}{chapter.3}}
\@writefile{lof}{\addvspace {10\p@ }}
\@writefile{lot}{\addvspace {10\p@ }}
\newlabel{chp_KFT}{{3}{17}{Non-equilibrium quantum field theory}{chapter.3}{}}
\@writefile{toc}{\contentsline {section}{\numberline {3.1}Evolving a non-equilibrium system}{17}{section.3.1}}
\newlabel{KFT_eq:SchrodingerEq}{{3.1}{17}{Evolving a non-equilibrium system}{equation.3.1.1}{}}
\newlabel{KFT_eq:EvolutionOP}{{3.3}{17}{Evolving a non-equilibrium system}{equation.3.1.3}{}}
\citation{Aarsev}
\citation{Maciejko}
\@writefile{lof}{\contentsline {figure}{\numberline {3.1}{\ignorespaces Closed time contour}}{18}{figure.caption.7}}
\newlabel{KFT_fig:ClosedTimeContour1}{{3.1}{18}{Closed time contour}{figure.caption.7}{}}
\newlabel{KFT_eq:EvolvedDensityMatrix}{{3.4}{18}{Evolving a non-equilibrium system}{equation.3.1.4}{}}
\@writefile{toc}{\contentsline {section}{\numberline {3.2}The generating functional}{18}{section.3.2}}
\newlabel{KFT_eq:PartitionFct0}{{3.5}{18}{The generating functional}{equation.3.2.5}{}}
\citation{AnttiBook}
\citation{Breuer}
\citation{Altland}
\citation{FeynmanPath}
\@writefile{toc}{\contentsline {subsection}{\numberline {3.2.1}Time slicing the closed time contour}{19}{subsection.3.2.1}}
\newlabel{KFT_eq:Trotter}{{3.9}{19}{Time slicing the closed time contour}{equation.3.2.9}{}}
\citation{Agarwal}
\citation{Altland}
\citation{Knight}
\@writefile{lof}{\contentsline {figure}{\numberline {3.2}{\ignorespaces Path integral appraoch to QFT}}{20}{figure.caption.8}}
\newlabel{KFT_fig:path_sketch}{{3.2}{20}{Path integral appraoch to QFT}{figure.caption.8}{}}
\citation{Kamenev}
\citation{Kamenev}
\citation{Altland}
\@writefile{lof}{\contentsline {figure}{\numberline {3.3}{\ignorespaces Sliced time contour}}{21}{figure.caption.9}}
\newlabel{KFT_fig:TimeContour2}{{3.3}{21}{Sliced time contour}{figure.caption.9}{}}
\newlabel{KFT_eq:Coherent_Identity}{{3.12}{21}{Time slicing the closed time contour}{equation.3.2.12}{}}
\newlabel{KFT_eq:coherentTrace}{{3.13}{21}{Time slicing the closed time contour}{equation.3.2.13}{}}
\@writefile{toc}{\contentsline {subsection}{\numberline {3.2.2}Free boson partition function}{21}{subsection.3.2.2}}
\newlabel{KFT_sec:FreeBosonPartFunc}{{3.2.2}{21}{Free boson partition function}{subsection.3.2.2}{}}
\newlabel{KFT_eq:ThermalState}{{3.15}{21}{Free boson partition function}{equation.3.2.15}{}}
\newlabel{KFT_eq:PartitionFct2}{{3.16}{21}{Free boson partition function}{equation.3.2.16}{}}
\newlabel{KFT_eq:EvolutionOverlap}{{3.18}{22}{Free boson partition function}{equation.3.2.18}{}}
\newlabel{KFT_eq:PartitionFct3}{{3.20}{22}{Free boson partition function}{equation.3.2.20}{}}
\newlabel{KFT_eq:Ginv}{{3.21}{22}{Free boson partition function}{equation.3.2.21}{}}
\citation{Kamenev}
\@writefile{toc}{\contentsline {subsection}{\numberline {3.2.3}The free boson generating functional}{23}{subsection.3.2.3}}
\newlabel{KFt_sec:PropagatorGeneratingFunc}{{3.2.3}{23}{The free boson generating functional}{subsection.3.2.3}{}}
\newlabel{KFT_eq:DiscreteAction}{{3.22}{23}{The free boson generating functional}{equation.3.2.22}{}}
\newlabel{KFT_eq:GaussianInt}{{3.23}{23}{The free boson generating functional}{equation.3.2.23}{}}
\newlabel{KFT_eq:DiscreteGeneratingFunctional}{{3.24}{23}{The free boson generating functional}{equation.3.2.24}{}}
\newlabel{KFT_eq:DiscreteCorrleation2P}{{3.25}{23}{The free boson generating functional}{equation.3.2.25}{}}
\citation{BlockMatInv}
\citation{Strang}
\@writefile{toc}{\contentsline {subsection}{\numberline {3.2.4}Propagators for the Free Boson}{24}{subsection.3.2.4}}
\newlabel{KFT_sec:DiscretePropagators}{{3.2.4}{24}{Propagators for the Free Boson}{subsection.3.2.4}{}}
\newlabel{KFT_eq:DeterminantFreeProp}{{3.27}{24}{Propagators for the Free Boson}{equation.3.2.27}{}}
\newlabel{KFT_eq:GDiscrete}{{3.35}{25}{Propagators for the Free Boson}{equation.3.2.35}{}}
\newlabel{KFT_eq:PMContinuumPropagators}{{3.37}{25}{Propagators for the Free Boson}{equation.3.2.37}{}}
\citation{Severin}
\citation{KroneckerDeltaScaling}
\citation{Kamenev}
\newlabel{KFT_eq:CausalityStructureCondition}{{3.38}{26}{Propagators for the Free Boson}{equation.3.2.38}{}}
\newlabel{KFT_eq:Discrete_CausalityStructureCondition}{{3.40}{26}{Propagators for the Free Boson}{equation.3.2.40}{}}
\citation{Keldysh}
\citation{Severin}
\@writefile{toc}{\contentsline {subsection}{\numberline {3.2.5}A continuum theory}{27}{subsection.3.2.5}}
\newlabel{KFT_sec:ContinuumSection}{{3.2.5}{27}{A continuum theory}{subsection.3.2.5}{}}
\newlabel{eq:Keldysh_rotation}{{3.43}{27}{A continuum theory}{equation.3.2.43}{}}
\newlabel{KFT_eq:FreePropagatorsTimeDomain}{{3.44}{27}{A continuum theory}{equation.3.2.44}{}}
\citation{Kamenev}
\citation{Altland}
\citation{Bruus}
\newlabel{KFT_eq:CausalityStructure}{{3.45}{28}{A continuum theory}{equation.3.2.45}{}}
\newlabel{KFT_eq:KeldyshPropagatorMatrix}{{3.46}{28}{A continuum theory}{equation.3.2.46}{}}
\newlabel{KFT_eq:FreeBosonAction}{{3.49}{28}{A continuum theory}{equation.3.2.49}{}}
\newlabel{KFT_eq:InverseKeldyshPropagatorRelation}{{3.50}{28}{A continuum theory}{equation.3.2.50}{}}
\newlabel{KFT_eq:FreePropagatorsFouirer}{{3.52}{29}{A continuum theory}{equation.3.2.52}{}}
\newlabel{KFT_eq:FreeInverseKeldyshProp}{{3.53}{29}{A continuum theory}{equation.3.2.53}{}}
\@writefile{toc}{\contentsline {subsection}{\numberline {3.2.6}The generalised generating functional}{29}{subsection.3.2.6}}
\citation{Severin}
\citation{Kamenev}
\newlabel{KFT_eq:QuadraticOperator}{{3.55}{30}{The generalised generating functional}{equation.3.2.55}{}}
\newlabel{KFT_eq:KeldyshTransformGeneral}{{3.58}{30}{The generalised generating functional}{equation.3.2.58}{}}
\newlabel{KFT_eq:GeneralisedGeneratingFunctional}{{3.59}{30}{The generalised generating functional}{equation.3.2.59}{}}
\newlabel{KFT_eq:GeneralisedGeneratingFunctional2}{{3.61}{30}{The generalised generating functional}{equation.3.2.61}{}}
\citation{Tsvelik}
\newlabel{KFT_eq:GenratingFuncNormalisation}{{3.62}{31}{The generalised generating functional}{equation.3.2.62}{}}
\newlabel{KFT_eq:CorrelationFunctions}{{3.65}{31}{The generalised generating functional}{equation.3.2.65}{}}
\@writefile{toc}{\contentsline {section}{\numberline {3.3}Chapter summary}{32}{section.3.3}}
\citation{Altland}
\citation{Nagaosa}
\citation{Tsvelik}
\@writefile{toc}{\contentsline {chapter}{\numberline {4}The linear bosonic chain model}{33}{chapter.4}}
\@writefile{lof}{\addvspace {10\p@ }}
\@writefile{lot}{\addvspace {10\p@ }}
\newlabel{chp_KC}{{4}{33}{The linear bosonic chain model}{chapter.4}{}}
\@writefile{toc}{\contentsline {section}{\numberline {4.1}Fermion mapping}{33}{section.4.1}}
\newlabel{KC_eq:JW_transformation}{{4.1}{33}{Fermion mapping}{equation.4.1.1}{}}
\citation{XX_circle}
\citation{SemiFermionic}
\citation{Demler}
\citation{Kamenev}
\newlabel{eq:phase1}{{4.4}{34}{Fermion mapping}{equation.4.1.4}{}}
\@writefile{toc}{\contentsline {section}{\numberline {4.2}Bosonic mapping}{34}{section.4.2}}
\citation{Siebierer}
\citation{Agarwal}
\newlabel{KC_eq:LinearBosonHamiltonian0}{{4.6}{35}{Bosonic mapping}{equation.4.2.6}{}}
\newlabel{eq:Schrodinger_Hamiltonian_terms}{{4.7}{35}{Bosonic mapping}{equation.4.2.7}{}}
\newlabel{KC_eq:LinearBosonHamiltonian}{{4.8}{35}{Bosonic mapping}{equation.4.2.8}{}}
\@writefile{toc}{\contentsline {section}{\numberline {4.3}Effective partition function}{35}{section.4.3}}
\newlabel{KC_sec:effPartFunc}{{4.3}{35}{Effective partition function}{section.4.3}{}}
\newlabel{KFT_eq:pmAction}{{4.11}{36}{Effective partition function}{equation.4.3.11}{}}
\newlabel{eq:Keldysh2site}{{4.13}{36}{Effective partition function}{equation.4.3.13}{}}
\newlabel{eq:InteractionKeldyshform}{{4.15}{37}{Effective partition function}{equation.4.3.15}{}}
\newlabel{KC_eq:selfEnergies}{{4.19}{37}{Effective partition function}{equation.4.3.19}{}}
\citation{Meek}
\newlabel{KC_eq:RetardedSelfEnergy}{{4.20}{38}{Effective partition function}{equation.4.3.20}{}}
\newlabel{eq:InverseChainPropagators}{{4.21}{38}{Effective partition function}{equation.4.3.21}{}}
\newlabel{KC_eq:fullInversePropagator}{{4.22}{38}{Effective partition function}{equation.4.3.22}{}}
\newlabel{KC}{{4.23}{38}{Effective partition function}{equation.4.3.23}{}}
\newlabel{KC_eq:GeneralKeldyshChain}{{4.24}{38}{Effective partition function}{equation.4.3.24}{}}
\newlabel{KC_eq:inverseRetardedProp}{{4.25}{38}{Effective partition function}{equation.4.3.25}{}}
\citation{Meurant}
\citation{Bruus}
\citation{Bruus}
\@writefile{toc}{\contentsline {section}{\numberline {4.4}Observables}{39}{section.4.4}}
\newlabel{KC_sec:Observables}{{4.4}{39}{Observables}{section.4.4}{}}
\newlabel{KC_eq:SpectralFunction}{{4.26}{39}{Observables}{equation.4.4.26}{}}
\newlabel{KC_eq:SpectalFuncNormalisation}{{4.27}{39}{Observables}{equation.4.4.27}{}}
\citation{Antti}
\citation{AnttiBook}
\newlabel{KC_eq:Occupation}{{4.29}{40}{Observables}{equation.4.4.29}{}}
\newlabel{KC_eq:Current1}{{4.31}{40}{Observables}{equation.4.4.31}{}}
\newlabel{KC_eq:Current2}{{4.32}{40}{Observables}{equation.4.4.32}{}}
\newlabel{KC_eq:Current3}{{4.33}{41}{Observables}{equation.4.4.33}{}}
\newlabel{KC_eq:Current4}{{4.34}{41}{Observables}{equation.4.4.34}{}}
\newlabel{KC_eq:Current5}{{4.35}{41}{Observables}{equation.4.4.35}{}}
\newlabel{KC_eq:Current6}{{4.36}{41}{Observables}{equation.4.4.36}{}}
\@writefile{toc}{\contentsline {section}{\numberline {4.5}Chapter summary}{42}{section.4.5}}
\citation{TEMPO}
\citation{Feynman}
\citation{Makri}
\citation{TEMPO}
\@writefile{toc}{\contentsline {chapter}{\numberline {5}A numerical tensor network method}{43}{chapter.5}}
\@writefile{lof}{\addvspace {10\p@ }}
\@writefile{lot}{\addvspace {10\p@ }}
\@writefile{toc}{\contentsline {section}{\numberline {5.1}Reduced system evolution}{43}{section.5.1}}
\newlabel{ParIS_eq:Form_Of_Hamiltonian}{{5.1}{43}{Reduced system evolution}{equation.5.1.1}{}}
\newlabel{ParIS_eq:HilbertSpaceStructure}{{5.7}{44}{Reduced system evolution}{equation.5.1.7}{}}
\newlabel{ParIS_eq:reducedIdentity}{{5.8}{44}{Reduced system evolution}{equation.5.1.8}{}}
\citation{Feynman}
\citation{Feynman}
\citation{TempoSpecialKursus}
\newlabel{ParIS_eq:rhonm}{{5.11}{45}{Reduced system evolution}{equation.5.1.11}{}}
\@writefile{toc}{\contentsline {section}{\numberline {5.2}Influence functional}{45}{section.5.2}}
\newlabel{ParIS_sec:influenceFunc}{{5.2}{45}{Influence functional}{section.5.2}{}}
\newlabel{Paris_eq:UE_tf}{{5.14}{46}{Influence functional}{equation.5.2.14}{}}
\newlabel{eq:influenceTrace}{{5.15}{46}{Influence functional}{equation.5.2.15}{}}
\newlabel{ParIS_eq:influenceAction}{{5.16}{46}{Influence functional}{equation.5.2.16}{}}
\newlabel{ParIS_eq:influenceGaussian}{{5.17}{46}{Influence functional}{equation.5.2.17}{}}
\newlabel{ParIS_eq:alphaSinglemode}{{5.18}{46}{Influence functional}{equation.5.2.18}{}}
\newlabel{ParIS_eq:alpha}{{5.19}{46}{Influence functional}{equation.5.2.19}{}}
\citation{Orus}
\citation{Breuer}
\citation{Strang}
\citation{Goloub}
\newlabel{ParIS_eq:influenceFunc}{{5.20}{47}{Influence functional}{equation.5.2.20}{}}
\newlabel{ParIS_eq:influencePhase}{{5.21}{47}{Influence functional}{equation.5.2.21}{}}
\newlabel{ParIS_eq:Lineshape}{{5.22}{47}{Influence functional}{equation.5.2.22}{}}
\@writefile{toc}{\contentsline {section}{\numberline {5.3}Numerical evaluation scheme}{47}{section.5.3}}
\@writefile{toc}{\contentsline {subsection}{\numberline {5.3.1}Matrix product states}{47}{subsection.5.3.1}}
\newlabel{ParIS_eq:1Dstate}{{5.23}{47}{Matrix product states}{equation.5.3.23}{}}
\newlabel{ParIS_eq:MPSrep}{{5.30}{48}{Matrix product states}{equation.5.3.30}{}}
\citation{TEMPO}
\citation{Strang}
\@writefile{lof}{\contentsline {figure}{\numberline {5.1}{\ignorespaces Diagrammatic representation of MPS and MPO}}{49}{figure.caption.10}}
\newlabel{ParIS_fig:MPSMPO}{{5.1}{49}{Diagrammatic representation of MPS and MPO}{figure.caption.10}{}}
\@writefile{toc}{\contentsline {subsubsection}{Matrix product operators}{49}{section*.11}}
\@writefile{toc}{\contentsline {subsection}{\numberline {5.3.2}Time evolution using matrix product operators}{49}{subsection.5.3.2}}
\newlabel{ParIS:sec_ParIS}{{5.3.2}{49}{Time evolution using matrix product operators}{subsection.5.3.2}{}}
\newlabel{ParIS_eq:overlap1}{{5.37}{51}{Time evolution using matrix product operators}{equation.5.3.37}{}}
\@writefile{lof}{\contentsline {figure}{\numberline {5.2}{\ignorespaces Three different representations of $\lambda _4$}}{52}{figure.caption.13}}
\newlabel{ParIS_fig:MPOConstruction}{{5.2}{52}{Three different representations of $\lambda _4$}{figure.caption.13}{}}
\@writefile{toc}{\contentsline {subsubsection}{Time-local evolution}{52}{section*.12}}
\citation{TEMPO}
\@writefile{toc}{\contentsline {subsubsection}{Augmented density tensor}{53}{section*.14}}
\newlabel{ParIS_eq:overlapfromADT}{{5.46}{53}{Augmented density tensor}{equation.5.3.46}{}}
\@writefile{lof}{\contentsline {figure}{\numberline {5.3}{\ignorespaces Evaluation of reduced state using tensor networks }}{54}{figure.caption.15}}
\newlabel{ParIS_fig:NetworkStructure}{{5.3}{54}{Evaluation of reduced state using tensor networks}{figure.caption.15}{}}
\@writefile{lof}{\contentsline {figure}{\numberline {5.4}{\ignorespaces Maximum bond dimensions for three 2LS sites with only one connected to an environment}}{55}{figure.caption.16}}
\newlabel{ParIS_fig:ParIS_advantages}{{5.4}{55}{Maximum bond dimensions for three 2LS sites with only one connected to an environment}{figure.caption.16}{}}
\@writefile{toc}{\contentsline {subsubsection}{Finite memory time approximation and singular value decompositions}{55}{section*.17}}
\@writefile{toc}{\contentsline {subsubsection}{Numerical parameters and convergence}{55}{section*.19}}
\citation{Nielsen}
\@writefile{lof}{\contentsline {figure}{\numberline {5.5}{\ignorespaces Autocorrelation function and lineshape for environments}}{56}{figure.caption.18}}
\newlabel{ParIS_fig:AutoCor}{{5.5}{56}{Autocorrelation function and lineshape for environments}{figure.caption.18}{}}
\@writefile{lof}{\contentsline {figure}{\numberline {5.6}{\ignorespaces Convegence of two-site system connected to one environment}}{57}{figure.caption.20}}
\newlabel{ParIS_fig:Conv}{{5.6}{57}{Convegence of two-site system connected to one environment}{figure.caption.20}{}}
\@writefile{toc}{\contentsline {section}{\numberline {5.4}Chapter summary}{58}{section.5.4}}
\citation{Arfken}
\@writefile{toc}{\contentsline {chapter}{\numberline {6}Two-site system: A comparison}{59}{chapter.6}}
\@writefile{lof}{\addvspace {10\p@ }}
\@writefile{lot}{\addvspace {10\p@ }}
\@writefile{toc}{\contentsline {section}{\numberline {6.1}NEQFT observables}{59}{section.6.1}}
\@writefile{toc}{\contentsline {subsection}{\numberline {6.1.1}Spectral function}{59}{subsection.6.1.1}}
\newlabel{Res_eq:SpectralFunc}{{6.4}{59}{Spectral function}{equation.6.1.4}{}}
\citation{Bruus}
\@writefile{lof}{\contentsline {figure}{\numberline {6.1}{\ignorespaces Spectral function for the two-site system}}{60}{figure.caption.21}}
\newlabel{Res_fig:SpectralFunc}{{6.1}{60}{Spectral function for the two-site system}{figure.caption.21}{}}
\@writefile{toc}{\contentsline {subsection}{\numberline {6.1.2}Occupation and current}{61}{subsection.6.1.2}}
\@writefile{lof}{\contentsline {figure}{\numberline {6.2}{\ignorespaces Occupation difference and current from NEQFT with weak env. coupling}}{62}{figure.caption.22}}
\newlabel{Res_fig:Kplt1}{{6.2}{62}{Occupation difference and current from NEQFT with weak env. coupling}{figure.caption.22}{}}
\@writefile{lof}{\contentsline {figure}{\numberline {6.3}{\ignorespaces Two-site occupations from NEQFT with stronger environment coupling}}{63}{figure.caption.23}}
\newlabel{Res_fig:Kplt2}{{6.3}{63}{Two-site occupations from NEQFT with stronger environment coupling}{figure.caption.23}{}}
\@writefile{lof}{\contentsline {figure}{\numberline {6.4}{\ignorespaces Local site MME compared to NEQFT}}{64}{figure.caption.24}}
\newlabel{Res_fig:MME_Keldysh}{{6.4}{64}{Local site MME compared to NEQFT}{figure.caption.24}{}}
\@writefile{toc}{\contentsline {section}{\numberline {6.2}Comparing NEQFT with 2LS models}{64}{section.6.2}}
\@writefile{lof}{\contentsline {figure}{\numberline {6.5}{\ignorespaces Numerical method results for two-site system}}{65}{figure.caption.25}}
\newlabel{Res_fig:TEMPO2site}{{6.5}{65}{Numerical method results for two-site system}{figure.caption.25}{}}
\citation{Siebierer}
\@writefile{toc}{\contentsline {subsection}{\numberline {6.2.1}NTNM}{66}{subsection.6.2.1}}
\@writefile{lof}{\contentsline {figure}{\numberline {6.6}{\ignorespaces Comaprison of all methods}}{67}{figure.caption.26}}
\newlabel{Res_fig:FullComp}{{6.6}{67}{Comaprison of all methods}{figure.caption.26}{}}
\@writefile{toc}{\contentsline {section}{\numberline {6.3}Chapter summary}{68}{section.6.3}}
\@writefile{toc}{\contentsline {chapter}{\numberline {7}Conclusion}{69}{chapter.7}}
\@writefile{lof}{\addvspace {10\p@ }}
\@writefile{lot}{\addvspace {10\p@ }}
\@writefile{toc}{\contentsline {section}{\numberline {7.1}Outlook}{70}{section.7.1}}
\@writefile{toc}{\contentsline {chapter}{\numberline {A}Markovian master equation derivations}{71}{appendix.A}}
\@writefile{lof}{\addvspace {10\p@ }}
\@writefile{lot}{\addvspace {10\p@ }}
\@writefile{toc}{\contentsline {section}{\numberline {A.1}Markovian Rates}{71}{section.A.1}}
\newlabel{App_Rates}{{A.1}{71}{Markovian Rates}{section.A.1}{}}
\@writefile{toc}{\contentsline {chapter}{\numberline {B}Tensor network derivations}{72}{appendix.B}}
\@writefile{lof}{\addvspace {10\p@ }}
\@writefile{lot}{\addvspace {10\p@ }}
\newlabel{App_ParIS}{{B}{72}{Tensor network derivations}{appendix.B}{}}
\@writefile{toc}{\contentsline {section}{\numberline {B.1}Influence functional derivation}{72}{section.B.1}}
\citation{TempoSpecialKursus}
\newlabel{eq:I_expression1}{{B.4}{73}{Influence functional derivation}{equation.B.1.4}{}}
\newlabel{eq:InfluenceFunc}{{B.9}{73}{Influence functional derivation}{equation.B.1.9}{}}
\@writefile{toc}{\contentsline {section}{\numberline {B.2}Rewriting the overlap}{73}{section.B.2}}
\newlabel{App_Influence2}{{B.2}{73}{Rewriting the overlap}{section.B.2}{}}
\@writefile{lof}{\contentsline {figure}{\numberline {B.1}{\ignorespaces Integration domain for the influence functional}}{74}{figure.caption.27}}
\newlabel{fig:flip}{{B.1}{74}{Integration domain for the influence functional}{figure.caption.27}{}}
\newlabel{App_Influence1_eq:InfluencePhase}{{B.12}{74}{Rewriting the overlap}{equation.B.2.12}{}}
\@writefile{toc}{\contentsline {chapter}{\numberline {C}Project plan}{76}{appendix.C}}
\@writefile{lof}{\addvspace {10\p@ }}
\@writefile{lot}{\addvspace {10\p@ }}
\@writefile{toc}{\contentsline {section}{\numberline {C.1}Original project plan}{76}{section.C.1}}
\@writefile{toc}{\contentsline {section}{\numberline {C.2}Revised project plan}{78}{section.C.2}}
\bibstyle{unsrt}
\bibdata{/home/christian/repos/non_equilibrium/Notes/Bibliography.bib}
\bibcite{Carmichael}{1}
\bibcite{QD_phonon}{2}
\bibcite{FMOSpec1}{3}
\bibcite{LinQuOptComp}{4}
\bibcite{SingePhotonQD}{5}
\bibcite{FMO_ME}{6}
\bibcite{darkStateProtec}{7}
\bibcite{Molecular}{8}
\bibcite{Breuer}{9}
\bibcite{HEOM}{10}
\bibcite{ReactionCoord}{11}
\bibcite{Nakajima}{12}
\bibcite{zwanzig}{13}
\bibcite{PolaronTransform}{14}
\bibcite{CavityQED}{15}
\bibcite{QDs}{16}
\@writefile{toc}{\contentsline {chapter}{Bibliography}{79}{section*.32}}
\bibcite{QDPhonon}{17}
\bibcite{Chin}{18}
\bibcite{Agarwal}{19}
\bibcite{Ballentine}{20}
\bibcite{CP3}{21}
\bibcite{CP1}{22}
\bibcite{CP2}{23}
\bibcite{Kossakowski}{24}
\bibcite{SpectralDensity}{25}
\bibcite{FMOSpec2}{26}
\bibcite{EngineerSpectralDensity}{27}
\bibcite{Arfken}{28}
\bibcite{Bruus}{29}
\bibcite{Weinberg}{30}
\bibcite{Knight}{31}
\bibcite{SecNoCurrent}{32}
\bibcite{WrongThermal}{33}
\bibcite{ThermalOpenSystems}{34}
\bibcite{Altland}{35}
\bibcite{Aarsev}{36}
\bibcite{Maciejko}{37}
\bibcite{AnttiBook}{38}
\bibcite{FeynmanPath}{39}
\bibcite{Kamenev}{40}
\bibcite{BlockMatInv}{41}
\bibcite{Strang}{42}
\bibcite{Severin}{43}
\bibcite{KroneckerDeltaScaling}{44}
\bibcite{Keldysh}{45}
\bibcite{Tsvelik}{46}
\bibcite{Nagaosa}{47}
\bibcite{XX_circle}{48}
\bibcite{SemiFermionic}{49}
\bibcite{Demler}{50}
\bibcite{Siebierer}{51}
\bibcite{Meek}{52}
\bibcite{Meurant}{53}
\bibcite{Antti}{54}
\bibcite{TEMPO}{55}
\bibcite{Feynman}{56}
\bibcite{Makri}{57}
\bibcite{TempoSpecialKursus}{58}
\bibcite{Orus}{59}
\bibcite{Goloub}{60}
\bibcite{Nielsen}{61}
