\relax 
\citation{Altland}
\citation{Kamenev}
\citation{Altland}
\citation{Kamenev}
\citation{Altland}
\@writefile{toc}{\contentsline {section}{\numberline {1}Introduction}{1}}
\@writefile{toc}{\contentsline {section}{\numberline {2}The Free Boson}{1}}
\newlabel{eq:H_free}{{1}{1}}
\newlabel{eq:Initial_state}{{2}{1}}
\newlabel{eq:VonNeumann}{{4}{1}}
\@writefile{tdo}{\contentsline {todo}{change point name in figure from $t_i$ to $p_i$ to avoid confusion}{1}}
\pgfsyspdfmark {pgfid1}{4057040}{6891050}
\pgfsyspdfmark {pgfid4}{38001205}{6903338}
\pgfsyspdfmark {pgfid5}{39852597}{6679424}
\@writefile{lof}{\contentsline {figure}{\numberline {1}{\ignorespaces \textit  {The closed time contour $\mathcal  {C}$ used to evolve the density matrix in the Keldysh formalism. The small black dots reflects that time has been discretised into 2N-1 pieces.}}}{2}}
\newlabel{fig:time_contour}{{1}{2}}
\newlabel{eq:coherent_states}{{7}{2}}
\newlabel{eq:coherent_overlap}{{8}{2}}
\newlabel{eq:coherent_identity}{{9}{2}}
\citation{Haehl}
\citation{Chakraborty}
\citation{Altland}
\citation{Kamenev}
\citation{Siebierer}
\newlabel{eq:Z_step1}{{13}{3}}
\@writefile{toc}{\contentsline {section}{\numberline {3}Two Ways of Storing Initial State Information}{3}}
\newlabel{eq:Z_step2}{{14}{3}}
\citation{Chang}
\citation{Kamenev}
\newlabel{eq:partitionfct1}{{19}{4}}
\newlabel{eq:partitionfct2}{{20}{4}}
\@writefile{toc}{\contentsline {section}{\numberline {4}Physicality of the Partition Function}{4}}
\newlabel{mat:Ginv}{{21}{4}}
\citation{Strang}
\citation{Kamenev}
\newlabel{eq:GaussianInt}{{22}{5}}
\@writefile{toc}{\contentsline {subsection}{\numberline {4.1}Proof of Gaussian Integral}{5}}
\newlabel{eq:gauss1}{{25}{5}}
\@writefile{toc}{\contentsline {subsection}{\numberline {4.2}Normalisation of Partition Function}{5}}
\citation{BlockMatInv}
\newlabel{mat:G_vacuum}{{38}{6}}
\citation{Kamenev}
\@writefile{toc}{\contentsline {section}{\numberline {5}Propagators of the Theory}{7}}
\newlabel{eq:full_InitState}{{47}{8}}
\citation{KroneckerDeltaScaling}
\newlabel{eq:RedundancyRelation}{{54}{9}}
\newlabel{eq:+correction}{{57}{9}}
\newlabel{eq:other_corrections}{{58}{9}}
\citation{Kamenev}
\citation{Altland}
\citation{Kamenev}
\newlabel{eq:full_propagator_pm}{{61}{10}}
\@writefile{toc}{\contentsline {subsection}{\numberline {5.1}Keldysh Rotation and the Continuum Action}{10}}
\newlabel{eq:Keldysh_rotation}{{63}{10}}
\citation{Bruus}
\bibstyle{abbrv}
\bibdata{/home/christian/repos/non_equilibrium/Notes/Bibliography.bib}
\bibcite{Altland}{1}
\bibcite{Bruus}{2}
\bibcite{Chakraborty}{3}
\bibcite{Haehl}{4}
\bibcite{Kamenev}{5}
\bibcite{BlockMatInv}{6}
\bibcite{Chang}{7}
\bibcite{Siebierer}{8}
\bibcite{KroneckerDeltaScaling}{9}
\bibcite{Strang}{10}
\@writefile{toc}{\contentsline {section}{\numberline {6}Conclusion}{12}}
