\BOOKMARK [0][-]{section*.2}{Finite Bosonic Chains Coupled to Quantum Heat Baths}{}% 2
\BOOKMARK [1][-]{section*.3}{Model and rotating frame}{section*.2}% 3
\BOOKMARK [1][-]{section*.5}{Structure For Effective Partition Function}{section*.2}% 4
\BOOKMARK [1][-]{section*.10}{Form of Retarded Propagator}{section*.2}% 5
\BOOKMARK [1][-]{section*.11}{Form of propagators}{section*.2}% 6
\BOOKMARK [1][-]{section*.12}{Current Through Chain}{section*.2}% 7
\BOOKMARK [1][-]{section*.13}{References}{section*.2}% 8
