\relax 
\providecommand\hyper@newdestlabel[2]{}
\providecommand\HyperFirstAtBeginDocument{\AtBeginDocument}
\HyperFirstAtBeginDocument{\ifx\hyper@anchor\@undefined
\global\let\oldcontentsline\contentsline
\gdef\contentsline#1#2#3#4{\oldcontentsline{#1}{#2}{#3}}
\global\let\oldnewlabel\newlabel
\gdef\newlabel#1#2{\newlabelxx{#1}#2}
\gdef\newlabelxx#1#2#3#4#5#6{\oldnewlabel{#1}{{#2}{#3}}}
\AtEndDocument{\ifx\hyper@anchor\@undefined
\let\contentsline\oldcontentsline
\let\newlabel\oldnewlabel
\fi}
\fi}
\global\let\hyper@last\relax 
\gdef\HyperFirstAtBeginDocument#1{#1}
\providecommand\HyField@AuxAddToFields[1]{}
\providecommand\HyField@AuxAddToCoFields[2]{}
\newlabel{FirstPage}{{}{1}{}{section*.1}{}}
\@writefile{toc}{\contentsline {title}{Finite Bosonic Chains Coupled to Quantum Heat Baths}{1}{section*.2}}
\@writefile{toc}{\contentsline {abstract}{Abstract}{1}{section*.1}}
\@writefile{toc}{\contentsline {section}{\numberline {I}Model and rotating frame}{1}{section*.3}}
\newlabel{eq:Schrödinger_Hamiltonian_terms}{{2}{1}{}{equation.1.2}{}}
\newlabel{eq:time_dep_annihilation}{{9}{1}{}{equation.1.9}{}}
\citation{Altland}
\citation{Breuer}
\@writefile{tdo}{\contentsline {todo}{add to appendix}{2}{section*.4}}
\pgfsyspdfmark {pgfid1}{16852410}{20686960}
\pgfsyspdfmark {pgfid2}{2159575}{20699248}
\pgfsyspdfmark {pgfid3}{3126231}{20475334}
\@writefile{toc}{\contentsline {section}{\numberline {II}Structure For Effective Partition Function}{2}{section*.5}}
\newlabel{eq:timesliced_partitionFct}{{16}{2}{}{equation.2.16}{}}
\citation{Kamenev}
\citation{Kamenev}
\citation{Altland}
\citation{Kamenev}
\citation{Kamenev}
\newlabel{eq:pmAction}{{22}{4}{}{equation.2.22}{}}
\newlabel{eq:Keldysh_Rotation}{{25}{4}{}{equation.2.25}{}}
\newlabel{eq:Keldysh2site}{{26}{4}{}{equation.2.26}{}}
\newlabel{eq:InteractionKeldyshform}{{28}{4}{}{equation.2.28}{}}
\citation{Kamenev}
\citation{Kamenev}
\citation{Meurant}
\citation{Meek}
\@writefile{tdo}{\contentsline {todo}{add calculation to appendix}{5}{section*.6}}
\pgfsyspdfmark {pgfid6}{11596759}{38248200}
\@writefile{tdo}{\contentsline {todo}{given in the above appendix}{5}{section*.7}}
\pgfsyspdfmark {pgfid7}{15150267}{37200789}
\pgfsyspdfmark {pgfid8}{2159575}{37213077}
\pgfsyspdfmark {pgfid9}{3126231}{36989163}
\newlabel{eq:selfEnergies}{{32}{5}{}{equation.2.32}{}}
\newlabel{eq:InverseChainPropagators}{{33}{5}{}{equation.2.33}{}}
\@writefile{tdo}{\contentsline {todo}{prove this relation without using F}{5}{section*.8}}
\pgfsyspdfmark {pgfid12}{11596759}{13589726}
\newlabel{eq:Keldyshprop_causality}{{34}{5}{}{equation.2.34}{}}
\@writefile{tdo}{\contentsline {todo}{Understand what this convolution thing means in Fourier space}{5}{section*.9}}
\pgfsyspdfmark {pgfid13}{28898263}{51107097}
\newlabel{eq:fullInversePropagator}{{35}{5}{}{equation.2.35}{}}
\@writefile{toc}{\contentsline {section}{\numberline {III}Form of Retarded Propagator}{5}{section*.10}}
\citation{Antti}
\newlabel{eq:inverseRetardedProp}{{39}{6}{}{equation.3.39}{}}
\@writefile{toc}{\contentsline {section}{\numberline {IV}Form of propagators}{6}{section*.11}}
\@writefile{toc}{\contentsline {section}{\numberline {V}Current Through Chain}{6}{section*.12}}
\newlabel{eq:current1}{{41}{6}{}{equation.5.41}{}}
\bibdata{BosonChainNotes,/home/christian/repos/non_equilibrium/Notes/Bibliography.bib}
\bibcite{Altland}{{1}{}{{}}{{}}}
\bibcite{Breuer}{{2}{}{{}}{{}}}
\bibcite{Antti}{{3}{}{{}}{{}}}
\bibcite{Kamenev}{{4}{}{{}}{{}}}
\bibcite{Meek}{{5}{}{{}}{{}}}
\bibcite{Meurant}{{6}{}{{}}{{}}}
\bibstyle{abbrv}
\providecommand\NAT@force@numbers{}\NAT@force@numbers
\@writefile{toc}{\contentsline {section}{\numberline {}References}{7}{section*.13}}
\newlabel{LastBibItem}{{6}{7}{}{section*.13}{}}
\newlabel{LastPage}{{}{7}{}{}{}}
