\relax 
\citation{Breuer}
\citation{PolaronTransform}
\@writefile{toc}{\contentsline {section}{\numberline {1}General non-Markovian effects in open systems and model}{1}}
\citation{Quapi}
\citation{Breuer}
\@writefile{toc}{\contentsline {subsection}{\numberline {1.1}Theoretical model}{2}}
\newlabel{eq:Form_Of_Hamiltonian}{{2}{2}}
\@writefile{toc}{\contentsline {section}{\numberline {2}Effective evolution}{2}}
\newlabel{eq:A_Id_Eigensystem}{{8}{2}}
\citation{Feynman}
\@writefile{lof}{\contentsline {figure}{\numberline {1}{\ignorespaces \textit  {The discretised evolution operator $U_E$ for the influence functional. A similar evolution is applied in the opposite direction by $U_E^\dagger $.}}}{3}}
\newlabel{fig:s_param}{{1}{3}}
\newlabel{eq:rhonm}{{11}{3}}
\newlabel{eq:FV_result}{{12}{3}}
\@writefile{toc}{\contentsline {section}{\numberline {3}Influence functional}{3}}
\@writefile{lof}{\contentsline {figure}{\numberline {2}{\ignorespaces \textit  {The time contour used to evaluate the Influence functional \textup  {\hbox {\mathsurround \z@ \normalfont  (\ignorespaces 16\hbox {}\unskip \@@italiccorr )}}}}}{4}}
\newlabel{fig:Time_contour}{{2}{4}}
\newlabel{eq:UE_T}{{15}{4}}
\newlabel{eq:InfluenceTrace}{{16}{4}}
\citation{Strang}
\citation{Altland}
\newlabel{eq:alphaSinglemode}{{33}{6}}
\newlabel{eq:I_expression1}{{34}{6}}
\@writefile{lof}{\contentsline {figure}{\numberline {3}{\ignorespaces \textit  {To transform a point from the red region to the blue region, by flipping it along the black line $a(t)=t$, one simply has to exchange the $t$ and $t'$ values.}}}{7}}
\newlabel{fig:flip}{{3}{7}}
\newlabel{eq:InfluenceFunc}{{39}{7}}
\citation{Orus}
\citation{TEMPO}
\citation{Breuer}
\@writefile{lof}{\contentsline {figure}{\numberline {4}{\ignorespaces \textit  {Tensor network diagrammatic representation of $a)$ a MPS and $b)$ a MPO. The black lines correspond to physical inputs (specific state). The two grey boxes represent the regular tensor representation. The green circles is the matrices found by SVD of the tensor representation and the blue lines represent the bond indices.}}}{8}}
\newlabel{fig:MPSMPO}{{4}{8}}
\newlabel{eq:alpha}{{40}{8}}
\newlabel{eq:influencePhase}{{42}{8}}
\@writefile{toc}{\contentsline {section}{\numberline {4}Numerical evaluation scheme}{8}}
\@writefile{toc}{\contentsline {subsection}{\numberline {4.1}Matrix Product States}{8}}
\citation{Strang}
\@writefile{toc}{\contentsline {subsubsection}{\numberline {4.1.1}Matrix Product Operators}{9}}
\@writefile{toc}{\contentsline {subsection}{\numberline {4.2}Reduced system evolution using Matrix Product Operators}{10}}
\citation{TEMPO}
\@writefile{lof}{\contentsline {figure}{\numberline {5}{\ignorespaces \textit  {A figure illustrating how to get from a general tensor ($a$) to a MPS presentation ($b$) and finally to a MPO $(c)$. Connected legs and a leg ending with a black dot means the index is contracted.}}}{11}}
\newlabel{fig:lambdaMP}{{5}{11}}
\newlabel{eq:DensityMatrixComponent}{{58}{11}}
\@writefile{toc}{\contentsline {subsubsection}{\numberline {4.2.1}Augmented Density Tensor}{11}}
\@writefile{lof}{\contentsline {figure}{\numberline {6}{\ignorespaces \textit  {Building the augmented density tensor for 4 time steps. Each time step corresponds to lengthening the MPS once. To Find the MPS one has to contract over the previous evolutions (grey box). This gives the MPS representation of $\mathcal  {A}$ for the given time.}}}{12}}
\newlabel{fig:A_evolution}{{6}{12}}
\@writefile{toc}{\contentsline {subsubsection}{\numberline {4.2.2}Finite memory}{12}}
\@writefile{toc}{\contentsline {section}{\numberline {5}Example computation}{12}}
\@writefile{lof}{\contentsline {figure}{\numberline {7}{\ignorespaces \textit  {Occupation dynamics for the Caldeira-Leggett model. The bath is at zero temperature and is described by an Ohmic spectral density. \textbf  {a)} Weak coupling compared to the strong coupling between system oscillator and bath. For both cases the oscillator initially contains 1 excitation. It is seen that weak coupling leads to decay while strong coupling keeps an excitation in the system. The three computational parameters is $\{(weak, strong);\Delta =(1/6,1/10);k_c=(10,24);precision=(10^{-3},10^{-5})\}$\textbf  {b)} For the strong coupling case the system is initiated in both vacuum and with 1 excitation. It is seen that strong coupling leads to a non-vacuum stationary state for the reduced system. The same computational parameters as for strong coupling in $a)$ was used.}}}{13}}
\newlabel{fig:results}{{7}{13}}
\@writefile{toc}{\contentsline {subsection}{\numberline {5.1}Computation parameter optimisation}{13}}
\@writefile{toc}{\contentsline {subsection}{\numberline {5.2}Dynamics}{13}}
\bibstyle{abbrv}
\bibdata{/home/christian/repos/non_equilibrium/Notes/Bibliography.bib}
\bibcite{Altland}{1}
\bibcite{PolaronTransform}{2}
\bibcite{Breuer}{3}
\bibcite{Feynman}{4}
\bibcite{Orus}{5}
\bibcite{Strang}{6}
\bibcite{TEMPO}{7}
\bibcite{Quapi}{8}
\@writefile{toc}{\contentsline {section}{\numberline {6}Conclusion}{14}}
