\relax 
\citation{FreeBoson}
\citation{FreeBoson}
\@writefile{toc}{\contentsline {section}{\numberline {1}Interacting Boson System}{1}}
\newlabel{eq:CL_Hamiltonian}{{1}{1}}
\@writefile{toc}{\contentsline {section}{\numberline {2}Partition Function}{1}}
\citation{FreeBoson}
\citation{FreeBoson}
\citation{Altland}
\citation{FreeBoson}
\citation{Chakraborty}
\citation{Kamenev}
\bibstyle{abbrv}
\bibdata{/home/christian/repos/non_equilibrium/Notes/Bibliography.bib}
\bibcite{Altland}{1}
\bibcite{Chakraborty}{2}
\bibcite{FreeBoson}{3}
\bibcite{Kamenev}{4}
