\relax 
\providecommand\hyper@newdestlabel[2]{}
\providecommand\HyperFirstAtBeginDocument{\AtBeginDocument}
\HyperFirstAtBeginDocument{\ifx\hyper@anchor\@undefined
\global\let\oldcontentsline\contentsline
\gdef\contentsline#1#2#3#4{\oldcontentsline{#1}{#2}{#3}}
\global\let\oldnewlabel\newlabel
\gdef\newlabel#1#2{\newlabelxx{#1}#2}
\gdef\newlabelxx#1#2#3#4#5#6{\oldnewlabel{#1}{{#2}{#3}}}
\AtEndDocument{\ifx\hyper@anchor\@undefined
\let\contentsline\oldcontentsline
\let\newlabel\oldnewlabel
\fi}
\fi}
\global\let\hyper@last\relax 
\gdef\HyperFirstAtBeginDocument#1{#1}
\providecommand\HyField@AuxAddToFields[1]{}
\providecommand\HyField@AuxAddToCoFields[2]{}
\@input{sections/Eff_part.aux}
\newlabel{FirstPage}{{}{1}{}{section*.1}{}}
\@writefile{toc}{\contentsline {title}{Finite Bosonic Chains Coupled to Quantum Heat Baths}{1}{section*.2}}
\@writefile{toc}{\contentsline {abstract}{Abstract}{1}{section*.1}}
\pgfsyspdfmark {pgfid1}{28898263}{51451161}
\pgfsyspdfmark {pgfid2}{32451771}{50404860}
\pgfsyspdfmark {pgfid5}{38335447}{50417148}
\pgfsyspdfmark {pgfid6}{39302103}{50193234}
\pgfsyspdfmark {pgfid7}{30897127}{24922831}
\pgfsyspdfmark {pgfid10}{38335447}{24935119}
\pgfsyspdfmark {pgfid11}{39302103}{24711205}
\pgfsyspdfmark {pgfid12}{22449014}{20917174}
\pgfsyspdfmark {pgfid15}{38335447}{19457712}
\pgfsyspdfmark {pgfid16}{39302103}{19233798}
\bibdata{BosonChainNotes,/home/christian/repos/non_equilibrium/Notes/Bibliography.bib}
\bibcite{Altland}{{1}{}{{}}{{}}}
\bibcite{Kamenev}{{2}{}{{}}{{}}}
\bibstyle{abbrv}
\providecommand\NAT@force@numbers{}\NAT@force@numbers
\@writefile{toc}{\contentsline {section}{\numberline {}References}{4}{section*.8}}
\newlabel{LastBibItem}{{2}{4}{}{section*.8}{}}
\newlabel{LastPage}{{}{4}{}{}{}}
