\relax 
\providecommand\hyper@newdestlabel[2]{}
\citation{Altland}
\citation{Altland}
\citation{Kamenev}
\citation{Kamenev}
\@writefile{toc}{\contentsline {section}{\numberline {II}Structure For Effective Partition Function}{2}{section*.4}}
\newlabel{eq:timesliced_partitionFct}{{4}{2}{}{equation.2.4}{}}
\citation{Kamenev}
\citation{Kamenev}
\newlabel{eq:pmAction}{{10}{3}{}{equation.2.10}{}}
\newlabel{eq:Keldysh2site}{{14}{3}{}{equation.2.14}{}}
\newlabel{eq:InteractionKeldyshform}{{16}{3}{}{equation.2.16}{}}
\citation{Kamenev}
\citation{Kamenev}
\@setckpt{sections/Eff_part}{
\setcounter{page}{4}
\setcounter{equation}{25}
\setcounter{enumi}{0}
\setcounter{enumii}{0}
\setcounter{enumiii}{0}
\setcounter{enumiv}{0}
\setcounter{footnote}{0}
\setcounter{mpfootnote}{0}
\setcounter{affil}{2}
\setcounter{collab}{0}
\setcounter{linecount}{0}
\setcounter{part}{0}
\setcounter{section}{2}
\setcounter{subsection}{0}
\setcounter{subsubsection}{0}
\setcounter{paragraph}{0}
\setcounter{subparagraph}{0}
\setcounter{figure}{0}
\setcounter{table}{0}
\setcounter{video}{0}
\setcounter{NAT@ctr}{0}
\setcounter{Item}{0}
\setcounter{Hfootnote}{0}
\setcounter{bookmark@seq@number}{4}
\setcounter{parentequation}{0}
\setcounter{@todonotes@numberoftodonotes}{4}
\setcounter{ContinuedFloat}{0}
\setcounter{section@level}{0}
}
