\BOOKMARK [2][]{Outline0.1}{The FMO complex and open quantum systems}{}% 1
\BOOKMARK [2][]{Outline0.2}{Non-equilibrium quantum field theory}{}% 2
\BOOKMARK [2][]{Outline0.3}{Numerical Tensor Network Method}{}% 3
\BOOKMARK [2][]{Outline0.4}{Comparsion}{}% 4
\BOOKMARK [2][]{Outline0.5}{Summary and outlook}{}% 5
