<?xml version="1.0" encoding="UTF-8" standalone="no"?>
<!-- Created with Inkscape (http://www.inkscape.org/) -->

<svg
   xmlns:dc="http://purl.org/dc/elements/1.1/"
   xmlns:cc="http://creativecommons.org/ns#"
   xmlns:rdf="http://www.w3.org/1999/02/22-rdf-syntax-ns#"
   xmlns:svg="http://www.w3.org/2000/svg"
   xmlns="http://www.w3.org/2000/svg"
   xmlns:sodipodi="http://sodipodi.sourceforge.net/DTD/sodipodi-0.dtd"
   xmlns:inkscape="http://www.inkscape.org/namespaces/inkscape"
   width="184.1944mm"
   height="83.301804mm"
   viewBox="0 0 652.65731 295.16387"
   id="svg2"
   version="1.1"
   inkscape:version="0.91 r13725"
   sodipodi:docname="EvolutionMPO.svg">
  <sodipodi:namedview
     id="base"
     pagecolor="#ffffff"
     bordercolor="#666666"
     borderopacity="1.0"
     inkscape:pageopacity="0.0"
     inkscape:pageshadow="2"
     inkscape:zoom="2"
     inkscape:cx="200.15495"
     inkscape:cy="246.76123"
     inkscape:document-units="px"
     inkscape:current-layer="layer1"
     showgrid="false"
     inkscape:window-width="3200"
     inkscape:window-height="1670"
     inkscape:window-x="0"
     inkscape:window-y="45"
     inkscape:window-maximized="1"
     fit-margin-top="0"
     fit-margin-left="0"
     fit-margin-right="0"
     fit-margin-bottom="0" />
  <defs
     id="defs4">
    <marker
       inkscape:stockid="Arrow1Lend"
       orient="auto"
       refY="0"
       refX="0"
       id="marker5398"
       style="overflow:visible"
       inkscape:isstock="true">
      <path
         id="path5400"
         d="M 0,0 5,-5 -12.5,0 5,5 0,0 Z"
         style="fill:#666666;fill-opacity:1;fill-rule:evenodd;stroke:#666666;stroke-width:1pt;stroke-opacity:1"
         transform="matrix(-0.8,0,0,-0.8,-10,0)"
         inkscape:connector-curvature="0" />
    </marker>
    <marker
       inkscape:isstock="true"
       style="overflow:visible"
       id="Arrow1Lend"
       refX="0"
       refY="0"
       orient="auto"
       inkscape:stockid="Arrow1Lend"
       inkscape:collect="always">
      <path
         transform="matrix(-0.8,0,0,-0.8,-10,0)"
         style="fill:#000000;fill-opacity:1;fill-rule:evenodd;stroke:#000000;stroke-width:1pt;stroke-opacity:1"
         d="M 0,0 5,-5 -12.5,0 5,5 0,0 Z"
         id="path4536"
         inkscape:connector-curvature="0" />
    </marker>
  </defs>
  <metadata
     id="metadata7">
    <rdf:RDF>
      <cc:Work
         rdf:about="">
        <dc:format>image/svg+xml</dc:format>
        <dc:type
           rdf:resource="http://purl.org/dc/dcmitype/StillImage" />
        <dc:title></dc:title>
      </cc:Work>
    </rdf:RDF>
  </metadata>
  <g
     id="layer1"
     inkscape:groupmode="layer"
     inkscape:label="Layer 1"
     transform="translate(-35.783469,-179.36693)">
    <path
       inkscape:connector-curvature="0"
       id="path4138-3-5-1"
       d="m 93.198488,391.20888 43.099842,0"
       style="fill:none;fill-rule:evenodd;stroke:#005c94;stroke-width:4;stroke-linecap:butt;stroke-linejoin:miter;stroke-miterlimit:4;stroke-dasharray:none;stroke-opacity:1" />
    <g
       transform="translate(-16.756492,291.53513)"
       id="g4158">
      <path
         style="fill:none;fill-rule:evenodd;stroke:#000000;stroke-width:4;stroke-linecap:butt;stroke-linejoin:miter;stroke-miterlimit:4;stroke-dasharray:none;stroke-opacity:1"
         d="m 96.49479,160.7322 0,-43.09984"
         id="path4138-3"
         inkscape:connector-curvature="0" />
      <circle
         style="opacity:1;fill:#009100;fill-opacity:1;fill-rule:evenodd;stroke:#009100;stroke-width:1;stroke-linecap:round;stroke-linejoin:miter;stroke-miterlimit:4;stroke-dasharray:none;stroke-dashoffset:2.4000001;stroke-opacity:1"
         id="path4136-6"
         cx="-96.494789"
         cy="-156.88626"
         r="17.767496"
         transform="scale(-1,-1)" />
    </g>
    <g
       transform="translate(-16.541059,234.75264)"
       id="g4158-7">
      <path
         style="fill:none;fill-rule:evenodd;stroke:#000000;stroke-width:4;stroke-linecap:butt;stroke-linejoin:miter;stroke-miterlimit:4;stroke-dasharray:none;stroke-opacity:1"
         d="m 96.49479,160.7322 0,-43.09984"
         id="path4138-3-5"
         inkscape:connector-curvature="0" />
      <circle
         style="opacity:1;fill:#009100;fill-opacity:1;fill-rule:evenodd;stroke:#009100;stroke-width:1;stroke-linecap:round;stroke-linejoin:miter;stroke-miterlimit:4;stroke-dasharray:none;stroke-dashoffset:2.4000001;stroke-opacity:1"
         id="path4136-6-3"
         cx="-96.494789"
         cy="-156.88626"
         r="17.767496"
         transform="scale(-1,-1)" />
    </g>
    <g
       transform="translate(-11.47652,0)"
       id="g4218">
      <path
         style="fill:none;fill-rule:evenodd;stroke:#000000;stroke-width:4;stroke-linecap:butt;stroke-linejoin:miter;stroke-miterlimit:4;stroke-dasharray:none;stroke-opacity:1"
         d="m 148.246,395.48484 0,-43.09984"
         id="path4138-3-6"
         inkscape:connector-curvature="0" />
      <circle
         style="opacity:1;fill:#009100;fill-opacity:1;fill-rule:evenodd;stroke:#009100;stroke-width:1;stroke-linecap:round;stroke-linejoin:miter;stroke-miterlimit:4;stroke-dasharray:none;stroke-dashoffset:2.4000001;stroke-opacity:1"
         id="path4136-6-2"
         cx="-148.246"
         cy="-391.63892"
         r="17.767496"
         transform="scale(-1,-1)" />
    </g>
    <path
       inkscape:connector-curvature="0"
       id="path4138-3-5-1-7"
       d="m 93.662794,333.95806 43.099836,0"
       style="fill:none;fill-rule:evenodd;stroke:#005c94;stroke-width:4;stroke-linecap:butt;stroke-linejoin:miter;stroke-miterlimit:4;stroke-dasharray:none;stroke-opacity:1" />
    <g
       transform="translate(-16.076754,177.50182)"
       id="g4158-7-0">
      <path
         style="fill:none;fill-rule:evenodd;stroke:#000000;stroke-width:4;stroke-linecap:butt;stroke-linejoin:miter;stroke-miterlimit:4;stroke-dasharray:none;stroke-opacity:1"
         d="m 96.49479,160.7322 0,-43.09984"
         id="path4138-3-5-9"
         inkscape:connector-curvature="0" />
      <circle
         style="opacity:1;fill:#009100;fill-opacity:1;fill-rule:evenodd;stroke:#009100;stroke-width:1;stroke-linecap:round;stroke-linejoin:miter;stroke-miterlimit:4;stroke-dasharray:none;stroke-dashoffset:2.4000001;stroke-opacity:1"
         id="path4136-6-3-3"
         cx="-96.494789"
         cy="-156.88626"
         r="17.767496"
         transform="scale(-1,-1)" />
    </g>
    <g
       transform="translate(-11.012215,-57.250824)"
       id="g4218-6">
      <path
         style="fill:none;fill-rule:evenodd;stroke:#000000;stroke-width:4;stroke-linecap:butt;stroke-linejoin:miter;stroke-miterlimit:4;stroke-dasharray:none;stroke-opacity:1"
         d="m 148.246,395.48484 0,-43.09984"
         id="path4138-3-6-0"
         inkscape:connector-curvature="0" />
      <circle
         style="opacity:1;fill:#009100;fill-opacity:1;fill-rule:evenodd;stroke:#009100;stroke-width:1;stroke-linecap:round;stroke-linejoin:miter;stroke-miterlimit:4;stroke-dasharray:none;stroke-dashoffset:2.4000001;stroke-opacity:1"
         id="path4136-6-2-6"
         cx="-148.246"
         cy="-391.63892"
         r="17.767496"
         transform="scale(-1,-1)" />
    </g>
    <path
       inkscape:connector-curvature="0"
       id="path4138-3-5-1-2"
       d="m 150.53469,333.8845 43.09984,0"
       style="fill:none;fill-rule:evenodd;stroke:#005c94;stroke-width:4;stroke-linecap:butt;stroke-linejoin:miter;stroke-miterlimit:4;stroke-dasharray:none;stroke-opacity:1" />
    <g
       transform="translate(40.795141,177.42826)"
       id="g4158-7-6">
      <path
         style="fill:none;fill-rule:evenodd;stroke:#000000;stroke-width:4;stroke-linecap:butt;stroke-linejoin:miter;stroke-miterlimit:4;stroke-dasharray:none;stroke-opacity:1"
         d="m 96.49479,160.7322 0,-43.09984"
         id="path4138-3-5-18"
         inkscape:connector-curvature="0" />
      <circle
         style="opacity:1;fill:#009100;fill-opacity:1;fill-rule:evenodd;stroke:#009100;stroke-width:1;stroke-linecap:round;stroke-linejoin:miter;stroke-miterlimit:4;stroke-dasharray:none;stroke-dashoffset:2.4000001;stroke-opacity:1"
         id="path4136-6-3-7"
         cx="-96.494789"
         cy="-156.88626"
         r="17.767496"
         transform="scale(-1,-1)" />
    </g>
    <g
       transform="translate(45.859681,-57.324385)"
       id="g4218-9">
      <path
         style="fill:none;fill-rule:evenodd;stroke:#000000;stroke-width:4;stroke-linecap:butt;stroke-linejoin:miter;stroke-miterlimit:4;stroke-dasharray:none;stroke-opacity:1"
         d="m 148.246,395.48484 0,-43.09984"
         id="path4138-3-6-2"
         inkscape:connector-curvature="0" />
      <circle
         style="opacity:1;fill:#009100;fill-opacity:1;fill-rule:evenodd;stroke:#009100;stroke-width:1;stroke-linecap:round;stroke-linejoin:miter;stroke-miterlimit:4;stroke-dasharray:none;stroke-dashoffset:2.4000001;stroke-opacity:1"
         id="path4136-6-2-0"
         cx="-148.246"
         cy="-391.63892"
         r="17.767496"
         transform="scale(-1,-1)" />
    </g>
    <path
       inkscape:connector-curvature="0"
       id="path4138-3-5-1-23"
       d="m 208.16443,278.2137 43.09984,0"
       style="fill:none;fill-rule:evenodd;stroke:#005c94;stroke-width:4;stroke-linecap:butt;stroke-linejoin:miter;stroke-miterlimit:4;stroke-dasharray:none;stroke-opacity:1" />
    <g
       transform="translate(98.42489,121.75746)"
       id="g4158-7-7">
      <path
         style="fill:none;fill-rule:evenodd;stroke:#000000;stroke-width:4;stroke-linecap:butt;stroke-linejoin:miter;stroke-miterlimit:4;stroke-dasharray:none;stroke-opacity:1"
         d="m 96.49479,160.7322 0,-43.09984"
         id="path4138-3-5-5"
         inkscape:connector-curvature="0" />
      <circle
         style="opacity:1;fill:#009100;fill-opacity:1;fill-rule:evenodd;stroke:#009100;stroke-width:1;stroke-linecap:round;stroke-linejoin:miter;stroke-miterlimit:4;stroke-dasharray:none;stroke-dashoffset:2.4000001;stroke-opacity:1"
         id="path4136-6-3-9"
         cx="-96.494789"
         cy="-156.88626"
         r="17.767496"
         transform="scale(-1,-1)" />
    </g>
    <g
       transform="translate(103.48942,-112.99519)"
       id="g4218-2">
      <path
         style="fill:none;fill-rule:evenodd;stroke:#000000;stroke-width:4;stroke-linecap:butt;stroke-linejoin:miter;stroke-miterlimit:4;stroke-dasharray:none;stroke-opacity:1"
         d="m 148.246,395.48484 0,-43.09984"
         id="path4138-3-6-28"
         inkscape:connector-curvature="0" />
      <circle
         style="opacity:1;fill:#009100;fill-opacity:1;fill-rule:evenodd;stroke:#009100;stroke-width:1;stroke-linecap:round;stroke-linejoin:miter;stroke-miterlimit:4;stroke-dasharray:none;stroke-dashoffset:2.4000001;stroke-opacity:1"
         id="path4136-6-2-9"
         cx="-148.246"
         cy="-391.63892"
         r="17.767496"
         transform="scale(-1,-1)" />
    </g>
    <path
       inkscape:connector-curvature="0"
       id="path4138-3-5-1-7-7"
       d="m 93.852255,278.74403 43.099835,0"
       style="fill:none;fill-rule:evenodd;stroke:#005c94;stroke-width:4;stroke-linecap:butt;stroke-linejoin:miter;stroke-miterlimit:4;stroke-dasharray:none;stroke-opacity:1" />
    <g
       transform="translate(-15.887293,122.28778)"
       id="g4158-7-0-3">
      <path
         style="fill:none;fill-rule:evenodd;stroke:#000000;stroke-width:4;stroke-linecap:butt;stroke-linejoin:miter;stroke-miterlimit:4;stroke-dasharray:none;stroke-opacity:1"
         d="m 96.49479,160.7322 0,-43.09984"
         id="path4138-3-5-9-6"
         inkscape:connector-curvature="0" />
      <circle
         style="opacity:1;fill:#009100;fill-opacity:1;fill-rule:evenodd;stroke:#009100;stroke-width:1;stroke-linecap:round;stroke-linejoin:miter;stroke-miterlimit:4;stroke-dasharray:none;stroke-dashoffset:2.4000001;stroke-opacity:1"
         id="path4136-6-3-3-1"
         cx="-96.494789"
         cy="-156.88626"
         r="17.767496"
         transform="scale(-1,-1)" />
    </g>
    <g
       transform="translate(-10.822754,-112.46486)"
       id="g4218-6-2">
      <path
         style="fill:none;fill-rule:evenodd;stroke:#000000;stroke-width:4;stroke-linecap:butt;stroke-linejoin:miter;stroke-miterlimit:4;stroke-dasharray:none;stroke-opacity:1"
         d="m 148.246,395.48484 0,-43.09984"
         id="path4138-3-6-0-9"
         inkscape:connector-curvature="0" />
      <circle
         style="opacity:1;fill:#009100;fill-opacity:1;fill-rule:evenodd;stroke:#009100;stroke-width:1;stroke-linecap:round;stroke-linejoin:miter;stroke-miterlimit:4;stroke-dasharray:none;stroke-dashoffset:2.4000001;stroke-opacity:1"
         id="path4136-6-2-6-3"
         cx="-148.246"
         cy="-391.63892"
         r="17.767496"
         transform="scale(-1,-1)" />
    </g>
    <path
       inkscape:connector-curvature="0"
       id="path4138-3-5-1-2-1"
       d="m 150.72415,278.67047 43.09984,0"
       style="fill:none;fill-rule:evenodd;stroke:#005c94;stroke-width:4;stroke-linecap:butt;stroke-linejoin:miter;stroke-miterlimit:4;stroke-dasharray:none;stroke-opacity:1" />
    <g
       transform="translate(40.984602,122.21423)"
       id="g4158-7-6-9">
      <path
         style="fill:none;fill-rule:evenodd;stroke:#000000;stroke-width:4;stroke-linecap:butt;stroke-linejoin:miter;stroke-miterlimit:4;stroke-dasharray:none;stroke-opacity:1"
         d="m 96.49479,160.7322 0,-43.09984"
         id="path4138-3-5-18-4"
         inkscape:connector-curvature="0" />
      <circle
         style="opacity:1;fill:#009100;fill-opacity:1;fill-rule:evenodd;stroke:#009100;stroke-width:1;stroke-linecap:round;stroke-linejoin:miter;stroke-miterlimit:4;stroke-dasharray:none;stroke-dashoffset:2.4000001;stroke-opacity:1"
         id="path4136-6-3-7-7"
         cx="-96.494789"
         cy="-156.88626"
         r="17.767496"
         transform="scale(-1,-1)" />
    </g>
    <g
       style="opacity:1"
       transform="translate(46.666069,-112.88188)"
       id="g4218-9-8">
      <path
         style="fill:none;fill-rule:evenodd;stroke:#000000;stroke-width:4;stroke-linecap:butt;stroke-linejoin:miter;stroke-miterlimit:4;stroke-dasharray:none;stroke-opacity:1"
         d="m 148.246,395.48484 0,-43.09984"
         id="path4138-3-6-2-4"
         inkscape:connector-curvature="0" />
      <circle
         style="opacity:1;fill:#009100;fill-opacity:1;fill-rule:evenodd;stroke:#009100;stroke-width:1;stroke-linecap:round;stroke-linejoin:miter;stroke-miterlimit:4;stroke-dasharray:none;stroke-dashoffset:2.4000001;stroke-opacity:1"
         id="path4136-6-2-0-5"
         cx="-148.246"
         cy="-391.63892"
         r="17.767496"
         transform="scale(-1,-1)" />
    </g>
    <path
       inkscape:connector-curvature="0"
       id="path4138-3-5-1-23-5"
       d="m 209.49297,223.16023 43.09984,0"
       style="fill:none;fill-rule:evenodd;stroke:#005c94;stroke-width:4;stroke-linecap:butt;stroke-linejoin:miter;stroke-miterlimit:4;stroke-dasharray:none;stroke-opacity:1" />
    <g
       transform="translate(99.75343,66.703987)"
       id="g4158-7-7-2">
      <path
         style="fill:none;fill-rule:evenodd;stroke:#000000;stroke-width:4;stroke-linecap:butt;stroke-linejoin:miter;stroke-miterlimit:4;stroke-dasharray:none;stroke-opacity:1"
         d="m 96.49479,160.7322 0,-43.09984"
         id="path4138-3-5-5-5"
         inkscape:connector-curvature="0" />
      <circle
         style="opacity:1;fill:#009100;fill-opacity:1;fill-rule:evenodd;stroke:#009100;stroke-width:1;stroke-linecap:round;stroke-linejoin:miter;stroke-miterlimit:4;stroke-dasharray:none;stroke-dashoffset:2.4000001;stroke-opacity:1"
         id="path4136-6-3-9-4"
         cx="-96.494789"
         cy="-156.88626"
         r="17.767496"
         transform="scale(-1,-1)" />
    </g>
    <g
       transform="translate(104.81796,-168.04866)"
       id="g4218-2-7">
      <path
         style="fill:none;fill-rule:evenodd;stroke:#000000;stroke-width:4;stroke-linecap:butt;stroke-linejoin:miter;stroke-miterlimit:4;stroke-dasharray:none;stroke-opacity:1"
         d="m 148.246,395.48484 0,-43.09984"
         id="path4138-3-6-28-4"
         inkscape:connector-curvature="0" />
      <circle
         style="opacity:1;fill:#009100;fill-opacity:1;fill-rule:evenodd;stroke:#009100;stroke-width:1;stroke-linecap:round;stroke-linejoin:miter;stroke-miterlimit:4;stroke-dasharray:none;stroke-dashoffset:2.4000001;stroke-opacity:1"
         id="path4136-6-2-9-4"
         cx="-148.246"
         cy="-391.63892"
         r="17.767496"
         transform="scale(-1,-1)" />
    </g>
    <path
       inkscape:connector-curvature="0"
       id="path4138-3-5-1-7-7-3"
       d="m 95.1808,223.69056 43.09983,0"
       style="fill:none;fill-rule:evenodd;stroke:#005c94;stroke-width:4;stroke-linecap:butt;stroke-linejoin:miter;stroke-miterlimit:4;stroke-dasharray:none;stroke-opacity:1" />
    <g
       transform="translate(-14.558753,67.234307)"
       id="g4158-7-0-3-0">
      <path
         style="fill:none;fill-rule:evenodd;stroke:#000000;stroke-width:4;stroke-linecap:butt;stroke-linejoin:miter;stroke-miterlimit:4;stroke-dasharray:none;stroke-opacity:1"
         d="m 96.49479,160.7322 0,-43.09984"
         id="path4138-3-5-9-6-7"
         inkscape:connector-curvature="0" />
      <circle
         style="opacity:1;fill:#009100;fill-opacity:1;fill-rule:evenodd;stroke:#009100;stroke-width:1;stroke-linecap:round;stroke-linejoin:miter;stroke-miterlimit:4;stroke-dasharray:none;stroke-dashoffset:2.4000001;stroke-opacity:1"
         id="path4136-6-3-3-1-8"
         cx="-96.494789"
         cy="-156.88626"
         r="17.767496"
         transform="scale(-1,-1)" />
    </g>
    <g
       transform="translate(-9.4942138,-167.51833)"
       id="g4218-6-2-6">
      <path
         style="fill:none;fill-rule:evenodd;stroke:#000000;stroke-width:4;stroke-linecap:butt;stroke-linejoin:miter;stroke-miterlimit:4;stroke-dasharray:none;stroke-opacity:1"
         d="m 148.246,395.48484 0,-43.09984"
         id="path4138-3-6-0-9-8"
         inkscape:connector-curvature="0" />
      <circle
         style="opacity:1;fill:#009100;fill-opacity:1;fill-rule:evenodd;stroke:#009100;stroke-width:1;stroke-linecap:round;stroke-linejoin:miter;stroke-miterlimit:4;stroke-dasharray:none;stroke-dashoffset:2.4000001;stroke-opacity:1"
         id="path4136-6-2-6-3-8"
         cx="-148.246"
         cy="-391.63892"
         r="17.767496"
         transform="scale(-1,-1)" />
    </g>
    <path
       inkscape:connector-curvature="0"
       id="path4138-3-5-1-2-1-4"
       d="m 152.05269,223.617 43.09984,0"
       style="fill:none;fill-rule:evenodd;stroke:#005c94;stroke-width:4;stroke-linecap:butt;stroke-linejoin:miter;stroke-miterlimit:4;stroke-dasharray:none;stroke-opacity:1" />
    <g
       transform="translate(42.313142,67.160757)"
       id="g4158-7-6-9-3">
      <path
         style="fill:none;fill-rule:evenodd;stroke:#000000;stroke-width:4;stroke-linecap:butt;stroke-linejoin:miter;stroke-miterlimit:4;stroke-dasharray:none;stroke-opacity:1"
         d="m 96.49479,160.7322 0,-43.09984"
         id="path4138-3-5-18-4-1"
         inkscape:connector-curvature="0" />
      <circle
         style="opacity:1;fill:#009100;fill-opacity:1;fill-rule:evenodd;stroke:#009100;stroke-width:1;stroke-linecap:round;stroke-linejoin:miter;stroke-miterlimit:4;stroke-dasharray:none;stroke-dashoffset:2.4000001;stroke-opacity:1"
         id="path4136-6-3-7-7-4"
         cx="-96.494789"
         cy="-156.88626"
         r="17.767496"
         transform="scale(-1,-1)" />
    </g>
    <g
       style="opacity:1"
       transform="translate(47.99461,-167.93535)"
       id="g4218-9-8-9">
      <path
         style="fill:none;fill-rule:evenodd;stroke:#000000;stroke-width:4;stroke-linecap:butt;stroke-linejoin:miter;stroke-miterlimit:4;stroke-dasharray:none;stroke-opacity:1"
         d="m 148.246,395.48484 0,-43.09984"
         id="path4138-3-6-2-4-2"
         inkscape:connector-curvature="0" />
      <circle
         style="opacity:1;fill:#009100;fill-opacity:1;fill-rule:evenodd;stroke:#009100;stroke-width:1;stroke-linecap:round;stroke-linejoin:miter;stroke-miterlimit:4;stroke-dasharray:none;stroke-dashoffset:2.4000001;stroke-opacity:1"
         id="path4136-6-2-0-5-0"
         cx="-148.246"
         cy="-391.63892"
         r="17.767496"
         transform="scale(-1,-1)" />
    </g>
    <g
       style="opacity:1"
       transform="translate(-31.039475,0.23927669)"
       id="g4518">
      <path
         style="fill:none;fill-rule:evenodd;stroke:#005c94;stroke-width:4;stroke-linecap:butt;stroke-linejoin:miter;stroke-miterlimit:4;stroke-dasharray:none;stroke-opacity:1"
         d="m 297.33688,222.92538 43.09984,0"
         id="path4138-3-5-1-6"
         inkscape:connector-curvature="0" />
      <g
         id="g4158-7-8"
         transform="translate(187.59733,66.469142)">
        <path
           inkscape:connector-curvature="0"
           id="path4138-3-5-92"
           d="m 96.49479,160.7322 0,-43.09984"
           style="fill:none;fill-rule:evenodd;stroke:#000000;stroke-width:4;stroke-linecap:butt;stroke-linejoin:miter;stroke-miterlimit:4;stroke-dasharray:none;stroke-opacity:1" />
        <circle
           transform="scale(-1,-1)"
           r="17.767496"
           cy="-156.88626"
           cx="-96.494789"
           id="path4136-6-3-6"
           style="opacity:1;fill:#009100;fill-opacity:1;fill-rule:evenodd;stroke:#009100;stroke-width:1;stroke-linecap:round;stroke-linejoin:miter;stroke-miterlimit:4;stroke-dasharray:none;stroke-dashoffset:2.4000001;stroke-opacity:1" />
      </g>
      <g
         id="g4218-64"
         transform="translate(192.66187,-168.2835)">
        <path
           inkscape:connector-curvature="0"
           id="path4138-3-6-9"
           d="m 148.246,395.48484 0,-43.09984"
           style="fill:none;fill-rule:evenodd;stroke:#000000;stroke-width:4;stroke-linecap:butt;stroke-linejoin:miter;stroke-miterlimit:4;stroke-dasharray:none;stroke-opacity:1" />
        <circle
           transform="scale(-1,-1)"
           r="17.767496"
           cy="-391.63892"
           cx="-148.246"
           id="path4136-6-2-5"
           style="opacity:1;fill:#009100;fill-opacity:1;fill-rule:evenodd;stroke:#009100;stroke-width:1;stroke-linecap:round;stroke-linejoin:miter;stroke-miterlimit:4;stroke-dasharray:none;stroke-dashoffset:2.4000001;stroke-opacity:1" />
      </g>
    </g>
    <path
       inkscape:connector-curvature="0"
       id="path4527"
       d="m 111.5,443.36221 157.5,0"
       style="fill:none;fill-rule:evenodd;stroke:#000000;stroke-width:2;stroke-linecap:butt;stroke-linejoin:miter;stroke-miterlimit:4;stroke-dasharray:none;stroke-opacity:1;marker-end:url(#Arrow1Lend)"
       sodipodi:nodetypes="cc" />
    <g
       id="g4905"
       transform="matrix(0.42147871,0,0,0.42147871,27.005813,287.77346)">
      <g
         word-spacing="normal"
         letter-spacing="normal"
         font-size-adjust="none"
         font-stretch="normal"
         font-weight="normal"
         font-variant="normal"
         font-style="normal"
         stroke-miterlimit="10.433"
         xml:space="preserve"
         transform="matrix(1.0629921,0,0,-1.0629921,-186.02362,789.27165)"
         id="content"
         style="font-style:normal;font-variant:normal;font-weight:normal;font-stretch:normal;letter-spacing:normal;word-spacing:normal;text-anchor:start;fill:none;fill-opacity:1;fill-rule:evenodd;stroke:#000000;stroke-linecap:butt;stroke-linejoin:miter;stroke-miterlimit:10.43299961;stroke-dasharray:none;stroke-dashoffset:0;stroke-opacity:1"><path
           id="path4908"
           d="m 466.26,425.93 4.69,0 c 0.99,0 1.49,0 1.49,0.99 0,0.55 -0.5,0.55 -1.4,0.55 l -4.38,0 c 1.79,7.07 2.04,8.07 2.04,8.37 0,0.84 -0.59,1.34 -1.44,1.34 -0.15,0 -1.55,-0.05 -1.99,-1.79 l -1.95,-7.92 -4.68,0 c -1,0 -1.5,0 -1.5,-0.95 0,-0.59 0.4,-0.59 1.4,-0.59 l 4.39,0 c -3.59,-14.15 -3.79,-15 -3.79,-15.89 0,-2.7 1.89,-4.59 4.58,-4.59 5.08,0 7.92,7.28 7.92,7.67 0,0.5 -0.4,0.5 -0.6,0.5 -0.45,0 -0.49,-0.15 -0.74,-0.69 -2.14,-5.19 -4.78,-6.38 -6.48,-6.38 -1.05,0 -1.54,0.65 -1.54,2.29 0,1.2 0.1,1.54 0.29,2.39 z"
           inkscape:connector-curvature="0"
           style="fill:#000000;stroke-width:0" /><path
           id="path4910"
           d="m 488.15,437.13 0,0.1 -0.01,0.09 -0.01,0.09 -0.01,0.09 -0.02,0.08 -0.02,0.09 -0.03,0.08 -0.03,0.08 -0.03,0.08 -0.04,0.08 -0.04,0.08 -0.04,0.07 -0.05,0.07 -0.05,0.07 -0.06,0.06 -0.05,0.06 -0.07,0.06 -0.06,0.06 -0.07,0.05 -0.07,0.05 -0.07,0.05 -0.08,0.04 -0.08,0.04 -0.08,0.04 -0.09,0.03 -0.09,0.03 -0.09,0.02 -0.1,0.02 -0.1,0.02 -0.1,0.01 -0.1,0 -0.11,0.01 c -1.34,0 -2.69,-1.3 -2.69,-2.64 0,-0.95 0.7,-1.8 1.9,-1.8 1.14,0 2.64,1.15 2.64,2.64 z"
           inkscape:connector-curvature="0"
           style="fill:#000000;stroke-width:0" /><path
           id="path4912"
           d="m 484.36,418.4 0.05,0.13 0.05,0.13 0.05,0.12 0.05,0.11 0.04,0.1 0.04,0.1 0.04,0.09 0.03,0.09 0.04,0.09 0.03,0.08 0.03,0.08 0.03,0.08 0.03,0.07 0.02,0.07 0.05,0.15 0.06,0.14 0.05,0.14 0.02,0.07 0.03,0.08 0.03,0.08 0.03,0.08 0.03,0.08 0.03,0.09 0.04,0.09 0.03,0.1 0.04,0.11 0.04,0.1 0.04,0.12 0.05,0.12 c 0.4,1 0.65,1.69 0.65,2.64 0,2.25 -1.6,4.09 -4.09,4.09 -4.68,0 -6.57,-7.23 -6.57,-7.67 0,-0.5 0.49,-0.5 0.59,-0.5 0.5,0 0.55,0.1 0.8,0.9 1.34,4.68 3.34,6.17 5.03,6.17 0.4,0 1.25,0 1.25,-1.59 0,-1.05 -0.35,-2.1 -0.55,-2.59 -0.4,-1.3 -2.64,-7.08 -3.44,-9.22 -0.5,-1.29 -1.15,-2.94 -1.15,-3.98 0,-2.34 1.7,-4.09 4.09,-4.09 4.68,0 6.52,7.23 6.52,7.67 0,0.5 -0.44,0.5 -0.59,0.5 -0.5,0 -0.5,-0.15 -0.75,-0.89 -0.89,-3.14 -2.54,-6.18 -5.08,-6.18 -0.85,0 -1.2,0.5 -1.2,1.64 0,1.25 0.3,1.94 1.45,4.98 z"
           inkscape:connector-curvature="0"
           style="fill:#000000;stroke-width:0" /><path
           id="path4914"
           d="m 495.38,408.94 -0.01,-0.07 -0.02,-0.08 -0.01,-0.07 -0.02,-0.08 -0.03,-0.16 -0.04,-0.16 -0.04,-0.16 -0.03,-0.16 -0.04,-0.16 -0.04,-0.16 -0.01,-0.08 -0.02,-0.07 -0.02,-0.07 -0.01,-0.07 -0.02,-0.07 -0.01,-0.07 -0.01,-0.06 -0.02,-0.06 -0.01,-0.05 -0.01,-0.06 -0.01,-0.05 0,-0.04 -0.01,-0.04 0,-0.04 -0.01,-0.03 0,-0.02 c 0,-0.9 0.7,-1.35 1.45,-1.35 0.6,0 1.5,0.4 1.84,1.4 0.05,0.1 0.65,2.44 0.95,3.68 l 1.1,4.49 c 0.29,1.09 0.59,2.19 0.84,3.34 0.2,0.84 0.6,2.28 0.65,2.48 0.75,1.55 3.39,6.08 8.12,6.08 2.24,0 2.69,-1.84 2.69,-3.49 0,-1.24 -0.35,-2.64 -0.75,-4.13 l -1.39,-5.78 -1,-3.79 c -0.2,-0.99 -0.64,-2.68 -0.64,-2.93 0,-0.9 0.69,-1.35 1.44,-1.35 1.54,0 1.84,1.25 2.24,2.84 0.7,2.79 2.54,10.07 2.99,12.01 0.15,0.65 2.79,6.62 8.22,6.62 2.14,0 2.69,-1.69 2.69,-3.49 0,-2.84 -2.1,-8.51 -3.09,-11.15 -0.45,-1.2 -0.65,-1.75 -0.65,-2.74 0,-2.34 1.75,-4.09 4.09,-4.09 4.68,0 6.52,7.28 6.52,7.67 0,0.5 -0.45,0.5 -0.59,0.5 -0.5,0 -0.5,-0.15 -0.75,-0.89 -0.75,-2.64 -2.35,-6.18 -5.08,-6.18 -0.85,0 -1.2,0.5 -1.2,1.64 0,1.25 0.45,2.44 0.9,3.54 0.95,2.59 3.03,8.12 3.03,10.96 0,3.24 -1.99,5.33 -5.72,5.33 -3.74,0 -6.28,-2.2 -8.12,-4.84 -0.05,0.65 -0.2,2.35 -1.6,3.54 -1.24,1.05 -2.84,1.3 -4.08,1.3 -4.48,0 -6.92,-3.19 -7.77,-4.34 -0.25,2.84 -2.34,4.34 -4.58,4.34 -2.3,0 -3.24,-1.95 -3.69,-2.84 -0.9,-1.75 -1.54,-4.68 -1.54,-4.83 0,-0.5 0.49,-0.5 0.59,-0.5 0.5,0 0.55,0.05 0.85,1.14 0.84,3.54 1.84,5.93 3.64,5.93 0.79,0 1.54,-0.4 1.54,-2.29 0,-1.04 -0.15,-1.59 -0.8,-4.18 z"
           inkscape:connector-curvature="0"
           style="fill:#000000;stroke-width:0" /><path
           id="path4916"
           d="m 543.32,417.51 0.14,0 0.15,0 0.17,0 0.18,0 0.18,0.01 0.2,0 0.21,0.01 0.21,0.01 0.23,0.01 0.23,0.01 0.24,0.02 0.24,0.01 0.25,0.02 0.26,0.03 0.52,0.05 0.54,0.06 0.54,0.08 0.55,0.09 0.54,0.11 0.53,0.13 0.27,0.07 0.25,0.07 0.26,0.08 0.25,0.09 0.24,0.09 0.24,0.09 c 3.48,1.5 3.73,4.44 3.73,5.14 0,2.19 -1.89,4.23 -5.33,4.23 l 0,-1.1 c 2.34,0 3.69,-1.44 3.69,-3.13 0,-5.19 -7.97,-5.19 -10.01,-5.19 l -2.05,0 c 1.95,7.58 7.08,8.32 8.37,8.32 l 0,1.1 c -5.53,0 -13.05,-4.84 -13.05,-13.55 0,-5.08 2.94,-9.02 7.82,-9.02 7.12,0 11.31,5.28 11.31,5.88 0,0.3 -0.3,0.65 -0.6,0.65 -0.25,0 -0.35,-0.1 -0.64,-0.5 -3.94,-4.93 -9.37,-4.93 -9.97,-4.93 -3.88,0 -4.33,4.18 -4.33,5.78 0,0.6 0.05,2.14 0.8,5.18 z"
           inkscape:connector-curvature="0"
           style="fill:#000000;stroke-width:0" /></g>    </g>
    <rect
       style="opacity:1;fill:none;fill-opacity:1;fill-rule:evenodd;stroke:#666666;stroke-width:2.95305157;stroke-linecap:round;stroke-linejoin:miter;stroke-miterlimit:4;stroke-dasharray:none;stroke-dashoffset:2.4000001;stroke-opacity:1"
       id="rect5007"
       width="288.04694"
       height="272.04694"
       x="44.976524"
       y="197.83871" />
    <path
       inkscape:connector-curvature="0"
       id="path4138-3-5-1-23-5-0"
       d="m 564.09075,231.16023 43.09984,0"
       style="fill:#dc0000;fill-rule:evenodd;stroke:#dc0000;stroke-width:4;stroke-linecap:butt;stroke-linejoin:miter;stroke-miterlimit:4;stroke-dasharray:none;stroke-opacity:1" />
    <g
       transform="translate(454.35121,74.703987)"
       id="g4158-7-7-2-4">
      <path
         style="fill:none;fill-rule:evenodd;stroke:#000000;stroke-width:4;stroke-linecap:butt;stroke-linejoin:miter;stroke-miterlimit:4;stroke-dasharray:none;stroke-opacity:1"
         d="m 96.49479,160.7322 0,-43.09984"
         id="path4138-3-5-5-5-8"
         inkscape:connector-curvature="0" />
      <circle
         style="opacity:1;fill:#009100;fill-opacity:1;fill-rule:evenodd;stroke:#009100;stroke-width:1;stroke-linecap:round;stroke-linejoin:miter;stroke-miterlimit:4;stroke-dasharray:none;stroke-dashoffset:2.4000001;stroke-opacity:1"
         id="path4136-6-3-9-4-7"
         cx="-96.494789"
         cy="-156.88626"
         r="17.767496"
         transform="scale(-1,-1)" />
    </g>
    <g
       transform="translate(459.41574,-160.04866)"
       id="g4218-2-7-1">
      <path
         style="fill:none;fill-rule:evenodd;stroke:#000000;stroke-width:4;stroke-linecap:butt;stroke-linejoin:miter;stroke-miterlimit:4;stroke-dasharray:none;stroke-opacity:1"
         d="m 148.246,395.48484 0,-43.09984"
         id="path4138-3-6-28-4-7"
         inkscape:connector-curvature="0" />
      <circle
         style="opacity:1;fill:#009100;fill-opacity:1;fill-rule:evenodd;stroke:#009100;stroke-width:1;stroke-linecap:round;stroke-linejoin:miter;stroke-miterlimit:4;stroke-dasharray:none;stroke-dashoffset:2.4000001;stroke-opacity:1"
         id="path4136-6-2-9-4-2"
         cx="-148.246"
         cy="-391.63892"
         r="17.767496"
         transform="scale(-1,-1)" />
    </g>
    <path
       inkscape:connector-curvature="0"
       id="path4138-3-5-1-7-7-3-7"
       d="m 449.77858,231.69056 43.09983,0"
       style="fill:#dc0000;fill-rule:evenodd;stroke:#dc0000;stroke-width:4;stroke-linecap:butt;stroke-linejoin:miter;stroke-miterlimit:4;stroke-dasharray:none;stroke-opacity:1" />
    <path
       inkscape:connector-curvature="0"
       id="path4138-3-5-9-6-7-2"
       d="m 436.53382,235.96651 0,-43.09984"
       style="fill:none;fill-rule:evenodd;stroke:#000000;stroke-width:4;stroke-linecap:butt;stroke-linejoin:miter;stroke-miterlimit:4;stroke-dasharray:none;stroke-opacity:1" />
    <circle
       transform="scale(-1,-1)"
       r="17.767496"
       cy="-232.12057"
       cx="-436.53381"
       id="path4136-6-3-3-1-8-6"
       style="opacity:1;fill:#666666;fill-opacity:1;fill-rule:evenodd;stroke:#666666;stroke-width:1;stroke-linecap:round;stroke-linejoin:miter;stroke-miterlimit:4;stroke-dasharray:none;stroke-dashoffset:2.4000001;stroke-opacity:1" />
    <g
       transform="translate(345.10357,-159.51833)"
       id="g4218-6-2-6-1">
      <path
         style="fill:none;fill-rule:evenodd;stroke:#000000;stroke-width:4;stroke-linecap:butt;stroke-linejoin:miter;stroke-miterlimit:4;stroke-dasharray:none;stroke-opacity:1"
         d="m 148.246,395.48484 0,-43.09984"
         id="path4138-3-6-0-9-8-0"
         inkscape:connector-curvature="0" />
      <circle
         style="opacity:1;fill:#009100;fill-opacity:1;fill-rule:evenodd;stroke:#009100;stroke-width:1;stroke-linecap:round;stroke-linejoin:miter;stroke-miterlimit:4;stroke-dasharray:none;stroke-dashoffset:2.4000001;stroke-opacity:1"
         id="path4136-6-2-6-3-8-6"
         cx="-148.246"
         cy="-391.63892"
         r="17.767496"
         transform="scale(-1,-1)" />
    </g>
    <path
       inkscape:connector-curvature="0"
       id="path4138-3-5-1-2-1-4-1"
       d="m 506.65047,231.617 43.09984,0"
       style="fill:#dc0000;fill-rule:evenodd;stroke:#dc0000;stroke-width:4;stroke-linecap:butt;stroke-linejoin:miter;stroke-miterlimit:4;stroke-dasharray:none;stroke-opacity:1" />
    <path
       inkscape:connector-curvature="0"
       id="path4138-3-5-18-4-1-9"
       d="m 493.40571,235.89296 0,-43.09984"
       style="fill:none;fill-rule:evenodd;stroke:#000000;stroke-width:4;stroke-linecap:butt;stroke-linejoin:miter;stroke-miterlimit:4;stroke-dasharray:none;stroke-opacity:1" />
    <circle
       transform="scale(-1,-1)"
       r="17.767496"
       cy="-232.04703"
       cx="-493.4057"
       id="path4136-6-3-7-7-4-4"
       style="opacity:1;fill:#666666;fill-opacity:1;fill-rule:evenodd;stroke:#666666;stroke-width:1;stroke-linecap:round;stroke-linejoin:miter;stroke-miterlimit:4;stroke-dasharray:none;stroke-dashoffset:2.4000001;stroke-opacity:1" />
    <path
       inkscape:connector-curvature="0"
       id="path4138-3-6-2-4-2-0"
       d="m 550.83839,235.54949 0,-43.09984"
       style="fill:none;fill-rule:evenodd;stroke:#000000;stroke-width:4;stroke-linecap:butt;stroke-linejoin:miter;stroke-miterlimit:4;stroke-dasharray:none;stroke-opacity:1" />
    <circle
       transform="scale(-1,-1)"
       r="17.767496"
       cy="-231.70357"
       cx="-550.83838"
       id="path4136-6-2-0-5-0-9"
       style="opacity:1;fill:#666666;fill-opacity:1;fill-rule:evenodd;stroke:#666666;stroke-width:1;stroke-linecap:round;stroke-linejoin:miter;stroke-miterlimit:4;stroke-dasharray:none;stroke-dashoffset:2.4000001;stroke-opacity:1" />
    <path
       inkscape:connector-curvature="0"
       id="path4138-3-5-1-6-7"
       d="m 620.89519,231.16466 43.09984,0"
       style="fill:#dc0000;fill-rule:evenodd;stroke:#dc0000;stroke-width:4;stroke-linecap:butt;stroke-linejoin:miter;stroke-miterlimit:4;stroke-dasharray:none;stroke-opacity:1" />
    <path
       inkscape:connector-curvature="0"
       id="path4138-3-5-92-1"
       d="m 607.65043,235.44062 0,-43.09984"
       style="fill:none;fill-rule:evenodd;stroke:#000000;stroke-width:4;stroke-linecap:butt;stroke-linejoin:miter;stroke-miterlimit:4;stroke-dasharray:none;stroke-opacity:1" />
    <circle
       transform="scale(-1,-1)"
       r="17.767496"
       cy="-231.59468"
       cx="-607.65045"
       id="path4136-6-3-6-1"
       style="opacity:1;fill:#666666;fill-opacity:1;fill-rule:evenodd;stroke:#666666;stroke-width:1;stroke-linecap:round;stroke-linejoin:miter;stroke-miterlimit:4;stroke-dasharray:none;stroke-dashoffset:2.4000001;stroke-opacity:1" />
    <path
       inkscape:connector-curvature="0"
       id="path4138-3-6-9-9"
       d="m 664.46618,235.44062 0,-43.09984"
       style="fill:none;fill-rule:evenodd;stroke:#000000;stroke-width:4;stroke-linecap:butt;stroke-linejoin:miter;stroke-miterlimit:4;stroke-dasharray:none;stroke-opacity:1" />
    <circle
       transform="scale(-1,-1)"
       r="17.767496"
       cy="-231.5947"
       cx="-664.46619"
       id="path4136-6-2-5-7"
       style="opacity:1;fill:#666666;fill-opacity:1;fill-rule:evenodd;stroke:#666666;stroke-width:1;stroke-linecap:round;stroke-linejoin:miter;stroke-miterlimit:4;stroke-dasharray:none;stroke-dashoffset:2.4000001;stroke-opacity:1" />
    <path
       sodipodi:nodetypes="cc"
       inkscape:connector-curvature="0"
       id="path5725"
       d="m 334.07018,206.3691 c 18.22522,-10.49264 40.67146,-8.38273 76.78077,9.72272"
       style="fill:none;fill-rule:evenodd;stroke:#666666;stroke-width:2;stroke-linecap:butt;stroke-linejoin:miter;stroke-miterlimit:4;stroke-dasharray:none;stroke-opacity:1;marker-end:url(#marker5398)" />
    <g
       id="g6104"
       transform="matrix(0.5665974,0,0,0.5665974,313.57504,77.7625)">
      <g
         word-spacing="normal"
         letter-spacing="normal"
         font-size-adjust="none"
         font-stretch="normal"
         font-weight="normal"
         font-variant="normal"
         font-style="normal"
         stroke-miterlimit="10.433"
         xml:space="preserve"
         transform="matrix(1.0629921,0,0,-1.0629921,-186.02362,789.27165)"
         id="g6106"
         style="font-style:normal;font-variant:normal;font-weight:normal;font-stretch:normal;letter-spacing:normal;word-spacing:normal;text-anchor:start;fill:none;fill-opacity:1;fill-rule:evenodd;stroke:#000000;stroke-linecap:butt;stroke-linejoin:miter;stroke-miterlimit:10.43299961;stroke-dasharray:none;stroke-dashoffset:0;stroke-opacity:1"><path
           id="path6108"
           d="m 485.64,414.22 0.03,-0.29 0.02,-0.29 0.03,-0.28 0.03,-0.28 0.03,-0.27 0.03,-0.26 0.04,-0.26 0.03,-0.26 0.04,-0.25 0.03,-0.24 0.04,-0.24 0.04,-0.23 0.04,-0.22 0.04,-0.22 0.04,-0.21 0.04,-0.21 0.04,-0.2 0.04,-0.19 0.03,-0.19 0.04,-0.18 0.04,-0.17 0.04,-0.17 0.04,-0.16 0.03,-0.15 0.04,-0.15 0.03,-0.14 0.03,-0.13 0.04,-0.12 0.03,-0.12 0.02,-0.1 0.03,-0.1 0.02,-0.1 c 0.55,-2.24 0.8,-3.34 2.94,-3.34 2.24,0 6.08,2.25 6.08,3.24 0,0.25 -0.2,0.35 -0.45,0.35 -0.64,0 -1.69,-0.55 -1.84,-0.64 -0.35,-0.2 -0.45,-0.2 -0.55,-0.2 -1.39,0 -1.69,1.34 -2.29,4.33 -0.35,1.64 -0.8,3.63 -1.19,10.46 -0.36,5.08 -0.55,10.16 -0.55,15.24 0,1.2 0.05,2.49 0.05,3.69 0,0.8 0,0.99 -0.55,0.99 -0.7,0 -2.74,-0.84 -3.64,-2.19 l -0.35,-0.54 c -3.93,-8.42 -7.62,-14.45 -10.21,-18.48 -2.94,-4.54 -8.12,-12.66 -10.81,-12.66 -1.84,0 -3.39,1.2 -3.83,2.99 -0.05,0.1 -0.15,0.4 -0.35,0.4 -0.75,0 -1.85,-2.39 -1.85,-3.78 0,-2 2.15,-4.19 4.49,-4.19 3.44,0 9.16,8.97 10.26,10.71 l 1.34,1.94 c 3.49,5.38 6.38,10.56 6.68,11.11 2.49,4.43 3.84,7.32 4.48,8.57 l 0.05,0 0,-2.89 c 0,-2.89 0.1,-5.78 0.25,-8.67 0.05,-0.99 0.25,-4.73 0.5,-7.32 l -9.12,0 c -0.79,0 -1.54,0 -2.84,-0.8 l -1.34,-1.94 z"
           inkscape:connector-curvature="0"
           style="fill:#000000;stroke-width:0" /><path
           id="path6110"
           d="m 511.49,394.04 0,0.03 0,0.03 -0.01,0.01 0,0.02 0,0.01 -0.01,0.02 0,0.02 -0.01,0.01 -0.01,0.02 -0.01,0.02 -0.01,0.03 -0.01,0.02 -0.02,0.02 -0.02,0.03 -0.02,0.03 -0.02,0.03 -0.03,0.03 -0.03,0.04 -0.01,0.02 -0.02,0.02 -0.02,0.02 -0.02,0.02 -0.02,0.02 -0.02,0.03 -0.02,0.02 -0.02,0.02 -0.02,0.03 -0.03,0.02 -0.02,0.03 -0.03,0.03 -0.02,0.03 -0.03,0.03 -0.03,0.03 -0.03,0.03 -0.03,0.03 -0.03,0.03 -0.04,0.04 -0.03,0.03 -0.04,0.04 -0.03,0.03 -0.04,0.04 -0.04,0.04 c -6.23,6.28 -7.82,15.69 -7.82,23.31 0,8.67 1.89,17.34 8.02,23.57 0.65,0.59 0.65,0.69 0.65,0.84 0,0.35 -0.2,0.5 -0.5,0.5 -0.5,0 -4.98,-3.39 -7.92,-9.72 -2.54,-5.47 -3.14,-11 -3.14,-15.19 0,-3.88 0.55,-9.91 3.29,-15.54 2.99,-6.12 7.27,-9.36 7.77,-9.36 0.3,0 0.5,0.15 0.5,0.49 z"
           inkscape:connector-curvature="0"
           style="fill:#000000;stroke-width:0" /><path
           id="path6112"
           d="m 525.26,425.93 4.69,0 c 0.99,0 1.49,0 1.49,0.99 0,0.55 -0.5,0.55 -1.4,0.55 l -4.38,0 c 1.79,7.07 2.04,8.07 2.04,8.37 0,0.84 -0.6,1.34 -1.44,1.34 -0.15,0 -1.54,-0.05 -1.99,-1.79 l -1.95,-7.92 -4.68,0 c -0.99,0 -1.49,0 -1.49,-0.95 0,-0.59 0.39,-0.59 1.39,-0.59 l 4.39,0 c -3.59,-14.15 -3.79,-15 -3.79,-15.89 0,-2.7 1.89,-4.59 4.58,-4.59 5.08,0 7.92,7.28 7.92,7.67 0,0.5 -0.4,0.5 -0.6,0.5 -0.45,0 -0.49,-0.15 -0.74,-0.69 -2.14,-5.19 -4.78,-6.38 -6.48,-6.38 -1.05,0 -1.54,0.65 -1.54,2.29 0,1.2 0.1,1.54 0.29,2.39 z"
           inkscape:connector-curvature="0"
           style="fill:#000000;stroke-width:0" /><path
           id="path6114"
           d="m 580.22,422.29 0.14,0 0.15,0 0.15,0.01 0.07,0 0.07,0 0.07,0.01 0.08,0.01 0.07,0.01 0.07,0.01 0.06,0.02 0.07,0.01 0.07,0.02 0.06,0.02 0.06,0.03 0.06,0.03 0.05,0.03 0.06,0.03 0.05,0.04 0.04,0.04 0.05,0.05 0.03,0.05 0.02,0.03 0.02,0.02 0.02,0.03 0.01,0.03 0.02,0.03 0.01,0.04 0.01,0.03 0.01,0.04 0.01,0.03 0.01,0.04 0.01,0.04 0,0.04 0.01,0.04 0,0.04 0,0.05 0,0.05 c 0,0.99 -0.94,0.99 -1.64,0.99 l -29.84,0 c -0.7,0 -1.64,0 -1.64,-0.99 0,-1 0.94,-1 1.69,-1 z"
           inkscape:connector-curvature="0"
           style="fill:#000000;stroke-width:0" /><path
           id="path6116"
           d="m 580.27,412.62 0.13,0.01 0.14,0 0.14,0 0.07,0.01 0.07,0 0.07,0.01 0.07,0.01 0.07,0.01 0.07,0.01 0.06,0.01 0.07,0.02 0.06,0.02 0.06,0.02 0.06,0.02 0.06,0.03 0.06,0.03 0.05,0.04 0.05,0.04 0.04,0.04 0.05,0.04 0.02,0.03 0.02,0.03 0.01,0.02 0.02,0.03 0.02,0.03 0.01,0.03 0.02,0.03 0.01,0.03 0.01,0.04 0.01,0.03 0.01,0.04 0.01,0.04 0.01,0.04 0,0.04 0.01,0.04 0,0.04 0,0.05 0,0.04 c 0,1 -0.94,1 -1.69,1 l -29.74,0 c -0.75,0 -1.69,0 -1.69,-1 0,-1 0.94,-1 1.64,-1 z"
           inkscape:connector-curvature="0"
           style="fill:#000000;stroke-width:0" /><path
           id="path6118"
           d="m 621.37,416.01 -0.01,0.55 -0.04,0.55 -0.06,0.54 -0.08,0.53 -0.1,0.53 -0.13,0.51 -0.14,0.5 -0.17,0.5 -0.18,0.48 -0.2,0.47 -0.23,0.46 -0.24,0.44 -0.26,0.43 -0.28,0.41 -0.29,0.4 -0.31,0.38 -0.32,0.36 -0.34,0.35 -0.36,0.33 -0.37,0.3 -0.38,0.29 -0.4,0.27 -0.41,0.24 -0.42,0.22 -0.43,0.2 -0.45,0.17 -0.45,0.15 -0.47,0.13 -0.47,0.09 -0.49,0.07 -0.49,0.05 -0.5,0.01 c -2.39,0 -4.53,-0.8 -6.33,-2.54 l 0,9.71 c 1,-0.29 2.65,-0.64 4.24,-0.64 6.13,0 9.61,4.53 9.61,5.18 0,0.3 -0.15,0.55 -0.49,0.55 -0.05,0 -0.15,0 -0.4,-0.15 -1,-0.45 -3.44,-1.45 -6.78,-1.45 -1.99,0 -4.28,0.35 -6.62,1.4 -0.4,0.14 -0.5,0.14 -0.6,0.14 -0.5,0 -0.5,-0.39 -0.5,-1.19 l 0,-14.75 c 0,-0.89 0,-1.29 0.7,-1.29 0.35,0 0.45,0.15 0.65,0.45 0.55,0.8 2.39,3.48 6.42,3.48 2.59,0 3.84,-2.28 4.23,-3.18 0.8,-1.85 0.9,-3.79 0.9,-6.28 0,-1.74 0,-4.73 -1.19,-6.82 -1.2,-1.95 -3.04,-3.24 -5.33,-3.24 -3.64,0 -6.48,2.64 -7.32,5.58 0.14,-0.05 0.29,-0.1 0.84,-0.1 1.64,0 2.49,1.24 2.49,2.44 0,1.19 -0.85,2.44 -2.49,2.44 -0.7,0 -2.44,-0.35 -2.44,-2.64 0,-4.29 3.44,-9.12 9.02,-9.12 5.77,0 10.86,4.79 10.86,11.11 z"
           inkscape:connector-curvature="0"
           style="fill:#000000;stroke-width:0" /><path
           id="path6120"
           d="m 646.02,440.77 -0.04,0.06 -0.03,0.06 -0.03,0.05 -0.02,0.05 -0.03,0.06 -0.03,0.04 -0.03,0.05 -0.02,0.04 -0.03,0.05 -0.03,0.04 -0.02,0.03 -0.03,0.04 -0.03,0.03 -0.03,0.03 -0.03,0.03 -0.03,0.03 -0.04,0.03 -0.03,0.02 -0.04,0.02 -0.04,0.02 -0.04,0.02 -0.04,0.02 -0.05,0.02 -0.05,0.01 -0.05,0.01 -0.05,0.01 -0.06,0.01 -0.06,0.01 -0.07,0 -0.07,0.01 -0.07,0 -0.08,0 c -0.84,0 -0.94,-0.25 -1.29,-0.9 l -0.3,-4.09 13.4,-26.89 -26.85,0 13.45,26.89 0.3,4.09 L 626.59,407 c -0.25,-0.45 -0.25,-0.55 -0.25,-0.6 0,-0.4 0.3,-0.4 1.1,-0.4 l 34.57,0 c 0.79,0 1.09,0 1.09,0.4 0,0.05 0,0.15 -0.25,0.6 z"
           inkscape:connector-curvature="0"
           style="fill:#000000;stroke-width:0" /><path
           id="path6122"
           d="m 680.4,418.45 -0.01,0.37 0,0.39 -0.01,0.39 -0.01,0.41 -0.04,0.84 -0.06,0.88 -0.09,0.92 -0.1,0.94 -0.14,0.98 -0.16,1 -0.2,1.02 -0.23,1.04 -0.27,1.05 -0.3,1.06 -0.35,1.06 -0.39,1.07 -0.22,0.53 -0.22,0.54 -0.24,0.53 -0.25,0.53 c -2.99,6.12 -7.27,9.36 -7.77,9.36 -0.3,0 -0.5,-0.2 -0.5,-0.5 0,-0.15 0,-0.25 0.94,-1.15 4.89,-4.92 7.73,-12.85 7.73,-23.26 0,-8.52 -1.85,-17.28 -8.02,-23.56 -0.65,-0.6 -0.65,-0.69 -0.65,-0.85 0,-0.29 0.2,-0.49 0.5,-0.49 0.5,0 4.98,3.38 7.92,9.71 2.54,5.48 3.14,11.01 3.14,15.19 z"
           inkscape:connector-curvature="0"
           style="fill:#000000;stroke-width:0" /></g>    </g>
  </g>
</svg>
