\relax 
\citation{Engel}
\citation{Braggio}
\citation{Kaer}
\citation{TEMPO}
\bibcite{Engel}{1}
\bibcite{Braggio}{2}
\bibcite{Kaer}{3}
\bibcite{TEMPO}{4}
\@writefile{lof}{\contentsline {figure}{\numberline {1}{\ignorespaces \textit  {Illustration of physical system. A chain with hopping interaction of strength $h$ and an on-site energy of $\omega _c$. The ends are coupled to bosonic environments of different temperature.}}}{1}}
\newlabel{fig:chain}{{1}{1}}
