\relax 
\providecommand\hyper@newdestlabel[2]{}
\providecommand\HyperFirstAtBeginDocument{\AtBeginDocument}
\HyperFirstAtBeginDocument{\ifx\hyper@anchor\@undefined
\global\let\oldcontentsline\contentsline
\gdef\contentsline#1#2#3#4{\oldcontentsline{#1}{#2}{#3}}
\global\let\oldnewlabel\newlabel
\gdef\newlabel#1#2{\newlabelxx{#1}#2}
\gdef\newlabelxx#1#2#3#4#5#6{\oldnewlabel{#1}{{#2}{#3}}}
\AtEndDocument{\ifx\hyper@anchor\@undefined
\let\contentsline\oldcontentsline
\let\newlabel\oldnewlabel
\fi}
\fi}
\global\let\hyper@last\relax 
\gdef\HyperFirstAtBeginDocument#1{#1}
\providecommand\HyField@AuxAddToFields[1]{}
\providecommand\HyField@AuxAddToCoFields[2]{}
\@writefile{toc}{\beamer@endinputifotherversion {3.36pt}}
\@writefile{nav}{\beamer@endinputifotherversion {3.36pt}}
\@writefile{nav}{\headcommand {\slideentry {0}{0}{1}{1/1}{}{0}}}
\@writefile{nav}{\headcommand {\beamer@framepages {1}{1}}}
\@writefile{nav}{\headcommand {\slideentry {0}{0}{2}{2/2}{}{0}}}
\@writefile{nav}{\headcommand {\beamer@framepages {2}{2}}}
\@writefile{nav}{\headcommand {\slideentry {0}{0}{3}{3/3}{}{0}}}
\@writefile{nav}{\headcommand {\beamer@framepages {3}{3}}}
\@writefile{nav}{\headcommand {\slideentry {0}{0}{4}{4/4}{}{0}}}
\@writefile{nav}{\headcommand {\beamer@framepages {4}{4}}}
\@writefile{toc}{\beamer@sectionintoc {1}{Non-Equilibrium and Non-Markovianity}{5}{0}{1}}
\@writefile{nav}{\headcommand {\sectionentry {1}{Non-Equilibrium and Non-Markovianity}{5}{Non-Equilibrium and Non-Markovianity}{0}}}
\@writefile{nav}{\headcommand {\beamer@sectionpages {1}{4}}}
\@writefile{nav}{\headcommand {\beamer@subsectionpages {1}{4}}}
\@writefile{nav}{\headcommand {\slideentry {1}{0}{1}{5/5}{}{0}}}
\@writefile{nav}{\headcommand {\beamer@framepages {5}{5}}}
\@writefile{nav}{\headcommand {\slideentry {1}{0}{2}{6/6}{}{0}}}
\@writefile{nav}{\headcommand {\beamer@framepages {6}{6}}}
\@writefile{nav}{\headcommand {\slideentry {1}{0}{3}{7/7}{}{0}}}
\@writefile{nav}{\headcommand {\beamer@framepages {7}{7}}}
\@writefile{toc}{\beamer@sectionintoc {2}{Analytical approach: non-equilibrium field theory}{8}{0}{2}}
\@writefile{nav}{\headcommand {\sectionentry {2}{Analytical approach: non-equilibrium field theory}{8}{Analytical approach: non-equilibrium field theory}{0}}}
\@writefile{nav}{\headcommand {\beamer@sectionpages {5}{7}}}
\@writefile{nav}{\headcommand {\beamer@subsectionpages {5}{7}}}
\@writefile{nav}{\headcommand {\slideentry {2}{0}{1}{8/8}{}{0}}}
\@writefile{nav}{\headcommand {\beamer@framepages {8}{8}}}
\@writefile{nav}{\headcommand {\slideentry {2}{0}{2}{9/9}{}{0}}}
\@writefile{nav}{\headcommand {\beamer@framepages {9}{9}}}
\@writefile{nav}{\headcommand {\slideentry {2}{0}{3}{10/11}{}{0}}}
\@writefile{nav}{\headcommand {\beamer@framepages {10}{11}}}
\@writefile{nav}{\headcommand {\slideentry {2}{0}{4}{12/13}{}{0}}}
\@writefile{nav}{\headcommand {\beamer@framepages {12}{13}}}
\@writefile{nav}{\headcommand {\slideentry {2}{0}{5}{14/15}{}{0}}}
\@writefile{nav}{\headcommand {\beamer@framepages {14}{15}}}
\@writefile{nav}{\headcommand {\slideentry {2}{0}{6}{16/17}{}{0}}}
\@writefile{nav}{\headcommand {\beamer@framepages {16}{17}}}
\@writefile{nav}{\headcommand {\slideentry {2}{0}{7}{18/19}{}{0}}}
\@writefile{nav}{\headcommand {\beamer@framepages {18}{19}}}
\@writefile{toc}{\beamer@sectionintoc {3}{Numerical method}{20}{0}{3}}
\@writefile{nav}{\headcommand {\sectionentry {3}{Numerical method}{20}{Numerical method}{0}}}
\@writefile{nav}{\headcommand {\beamer@sectionpages {8}{19}}}
\@writefile{nav}{\headcommand {\beamer@subsectionpages {8}{19}}}
\@writefile{nav}{\headcommand {\slideentry {3}{0}{1}{20/20}{}{0}}}
\@writefile{nav}{\headcommand {\beamer@framepages {20}{20}}}
\@writefile{nav}{\headcommand {\slideentry {3}{0}{2}{21/23}{}{0}}}
\@writefile{nav}{\headcommand {\beamer@framepages {21}{23}}}
\@writefile{nav}{\headcommand {\slideentry {3}{0}{3}{24/24}{}{0}}}
\@writefile{nav}{\headcommand {\beamer@framepages {24}{24}}}
\@writefile{nav}{\headcommand {\slideentry {3}{0}{4}{25/25}{}{0}}}
\@writefile{nav}{\headcommand {\beamer@framepages {25}{25}}}
\@writefile{nav}{\headcommand {\slideentry {3}{0}{5}{26/28}{}{0}}}
\@writefile{nav}{\headcommand {\beamer@framepages {26}{28}}}
\@writefile{nav}{\headcommand {\slideentry {3}{0}{6}{29/29}{}{0}}}
\@writefile{nav}{\headcommand {\beamer@framepages {29}{29}}}
\@writefile{nav}{\headcommand {\slideentry {3}{0}{7}{30/30}{}{0}}}
\@writefile{nav}{\headcommand {\beamer@framepages {30}{30}}}
\@writefile{nav}{\headcommand {\slideentry {3}{0}{8}{31/34}{}{0}}}
\@writefile{nav}{\headcommand {\beamer@framepages {31}{34}}}
\@writefile{toc}{\beamer@sectionintoc {4}{Preliminary results}{35}{0}{4}}
\@writefile{nav}{\headcommand {\sectionentry {4}{Preliminary results}{35}{Preliminary results}{0}}}
\@writefile{nav}{\headcommand {\beamer@sectionpages {20}{34}}}
\@writefile{nav}{\headcommand {\beamer@subsectionpages {20}{34}}}
\@writefile{nav}{\headcommand {\slideentry {4}{0}{1}{35/35}{}{0}}}
\@writefile{nav}{\headcommand {\beamer@framepages {35}{35}}}
\@writefile{nav}{\headcommand {\slideentry {4}{0}{2}{36/36}{}{0}}}
\@writefile{nav}{\headcommand {\beamer@framepages {36}{36}}}
\@writefile{toc}{\beamer@sectionintoc {5}{Analytical results}{37}{0}{5}}
\@writefile{nav}{\headcommand {\sectionentry {5}{Analytical results}{37}{Analytical results}{0}}}
\@writefile{nav}{\headcommand {\beamer@sectionpages {35}{36}}}
\@writefile{nav}{\headcommand {\beamer@subsectionpages {35}{36}}}
\@writefile{nav}{\headcommand {\slideentry {5}{0}{1}{37/37}{}{0}}}
\@writefile{nav}{\headcommand {\beamer@framepages {37}{37}}}
\@writefile{nav}{\headcommand {\slideentry {5}{0}{2}{38/40}{}{0}}}
\@writefile{nav}{\headcommand {\beamer@framepages {38}{40}}}
\@writefile{nav}{\headcommand {\slideentry {5}{0}{3}{41/41}{}{0}}}
\@writefile{nav}{\headcommand {\beamer@framepages {41}{41}}}
\@writefile{nav}{\headcommand {\slideentry {5}{0}{4}{42/42}{}{0}}}
\@writefile{nav}{\headcommand {\beamer@framepages {42}{42}}}
\@writefile{toc}{\beamer@sectionintoc {6}{Numerical results}{43}{0}{6}}
\@writefile{nav}{\headcommand {\sectionentry {6}{Numerical results}{43}{Numerical results}{0}}}
\@writefile{nav}{\headcommand {\beamer@sectionpages {37}{42}}}
\@writefile{nav}{\headcommand {\beamer@subsectionpages {37}{42}}}
\@writefile{nav}{\headcommand {\slideentry {6}{0}{1}{43/43}{}{0}}}
\@writefile{nav}{\headcommand {\beamer@framepages {43}{43}}}
\@writefile{nav}{\headcommand {\slideentry {6}{0}{2}{44/44}{}{0}}}
\@writefile{nav}{\headcommand {\beamer@framepages {44}{44}}}
\@writefile{nav}{\headcommand {\slideentry {6}{0}{3}{45/45}{}{0}}}
\@writefile{nav}{\headcommand {\beamer@framepages {45}{45}}}
\@writefile{toc}{\beamer@sectionintoc {7}{Summary and outlook}{46}{0}{7}}
\@writefile{nav}{\headcommand {\sectionentry {7}{Summary and outlook}{46}{Summary and outlook}{0}}}
\@writefile{nav}{\headcommand {\beamer@sectionpages {43}{45}}}
\@writefile{nav}{\headcommand {\beamer@subsectionpages {43}{45}}}
\@writefile{nav}{\headcommand {\slideentry {7}{0}{1}{46/46}{}{0}}}
\@writefile{nav}{\headcommand {\beamer@framepages {46}{46}}}
\@writefile{nav}{\headcommand {\slideentry {7}{0}{2}{47/47}{}{0}}}
\@writefile{nav}{\headcommand {\beamer@framepages {47}{47}}}
\@writefile{nav}{\headcommand {\slideentry {7}{0}{3}{48/48}{}{0}}}
\@writefile{nav}{\headcommand {\beamer@framepages {48}{48}}}
\@writefile{nav}{\headcommand {\slideentry {7}{0}{4}{49/49}{}{0}}}
\@writefile{nav}{\headcommand {\beamer@framepages {49}{49}}}
\@writefile{nav}{\headcommand {\beamer@partpages {1}{49}}}
\@writefile{nav}{\headcommand {\beamer@subsectionpages {46}{49}}}
\@writefile{nav}{\headcommand {\beamer@sectionpages {46}{49}}}
\@writefile{nav}{\headcommand {\beamer@documentpages {49}}}
\@writefile{nav}{\headcommand {\def \inserttotalframenumber {26}}}
