<?xml version="1.0" encoding="UTF-8"?>
<svg xmlns="http://www.w3.org/2000/svg" xmlns:xlink="http://www.w3.org/1999/xlink" width="637pt" height="297pt" viewBox="0 0 637 297" version="1.1">
<defs>
<g>
<symbol overflow="visible" id="glyph0-0">
<path style="stroke:none;" d=""/>
</symbol>
<symbol overflow="visible" id="glyph0-1">
<path style="stroke:none;" d="M 3.625 -7.0625 L 3.625 0 L 4.859375 0 L 4.859375 -9.921875 L 4.046875 -9.921875 C 3.609375 -8.40625 3.328125 -8.1875 1.421875 -7.953125 L 1.421875 -7.0625 Z M 3.625 -7.0625 "/>
</symbol>
<symbol overflow="visible" id="glyph0-2">
<path style="stroke:none;" d="M 2.671875 -1.453125 L 1.21875 -1.453125 L 1.21875 0 L 2.671875 0 Z M 2.671875 -1.453125 "/>
</symbol>
<symbol overflow="visible" id="glyph0-3">
<path style="stroke:none;" d="M 4.578125 -2.375 L 4.578125 0 L 5.8125 0 L 5.8125 -2.375 L 7.28125 -2.375 L 7.28125 -3.484375 L 5.8125 -3.484375 L 5.8125 -9.921875 L 4.90625 -9.921875 L 0.390625 -3.6875 L 0.390625 -2.375 Z M 4.578125 -3.484375 L 1.46875 -3.484375 L 4.578125 -7.828125 Z M 4.578125 -3.484375 "/>
</symbol>
<symbol overflow="visible" id="glyph0-4">
<path style="stroke:none;" d="M 6.96875 -7.34375 C 6.734375 -8.953125 5.671875 -9.921875 4.15625 -9.921875 C 3.0625 -9.921875 2.09375 -9.390625 1.5 -8.515625 C 0.875 -7.546875 0.609375 -6.328125 0.609375 -4.515625 C 0.609375 -2.859375 0.859375 -1.796875 1.4375 -0.90625 C 1.96875 -0.109375 2.84375 0.328125 3.9375 0.328125 C 5.828125 0.328125 7.1875 -1.078125 7.1875 -3.03125 C 7.1875 -4.875 5.921875 -6.171875 4.140625 -6.171875 C 3.15625 -6.171875 2.390625 -5.796875 1.859375 -5.0625 C 1.875 -7.484375 2.65625 -8.828125 4.078125 -8.828125 C 4.9375 -8.828125 5.546875 -8.28125 5.734375 -7.34375 Z M 3.984375 -5.078125 C 5.1875 -5.078125 5.921875 -4.25 5.921875 -2.921875 C 5.921875 -1.6875 5.078125 -0.765625 3.953125 -0.765625 C 2.796875 -0.765625 1.9375 -1.71875 1.9375 -3 C 1.9375 -4.234375 2.765625 -5.078125 3.984375 -5.078125 Z M 3.984375 -5.078125 "/>
</symbol>
<symbol overflow="visible" id="glyph0-5">
<path style="stroke:none;" d="M 5.46875 -5.21875 C 6.5 -5.84375 6.828125 -6.34375 6.828125 -7.28125 C 6.828125 -8.828125 5.609375 -9.921875 3.84375 -9.921875 C 2.09375 -9.921875 0.875 -8.828125 0.875 -7.28125 C 0.875 -6.359375 1.203125 -5.859375 2.21875 -5.21875 C 1.078125 -4.671875 0.515625 -3.84375 0.515625 -2.765625 C 0.515625 -0.9375 1.890625 0.328125 3.84375 0.328125 C 5.8125 0.328125 7.1875 -0.9375 7.1875 -2.75 C 7.1875 -3.84375 6.625 -4.671875 5.46875 -5.21875 Z M 3.84375 -8.828125 C 4.90625 -8.828125 5.578125 -8.21875 5.578125 -7.25 C 5.578125 -6.328125 4.890625 -5.71875 3.84375 -5.71875 C 2.8125 -5.71875 2.125 -6.328125 2.125 -7.265625 C 2.125 -8.21875 2.8125 -8.828125 3.84375 -8.828125 Z M 3.84375 -4.671875 C 5.078125 -4.671875 5.921875 -3.890625 5.921875 -2.734375 C 5.921875 -1.546875 5.078125 -0.765625 3.828125 -0.765625 C 2.625 -0.765625 1.78125 -1.5625 1.78125 -2.734375 C 1.78125 -3.890625 2.625 -4.671875 3.84375 -4.671875 Z M 3.84375 -4.671875 "/>
</symbol>
<symbol overflow="visible" id="glyph0-6">
<path style="stroke:none;" d="M 7.078125 -1.21875 L 1.859375 -1.21875 C 1.984375 -2.03125 2.4375 -2.546875 3.65625 -3.265625 L 5.046875 -4.015625 C 6.4375 -4.78125 7.15625 -5.796875 7.15625 -7.015625 C 7.15625 -7.84375 6.8125 -8.609375 6.234375 -9.140625 C 5.640625 -9.671875 4.90625 -9.921875 3.96875 -9.921875 C 2.71875 -9.921875 1.78125 -9.484375 1.234375 -8.640625 C 0.875 -8.109375 0.734375 -7.484375 0.703125 -6.484375 L 1.9375 -6.484375 C 1.96875 -7.15625 2.0625 -7.5625 2.21875 -7.875 C 2.546875 -8.484375 3.1875 -8.84375 3.9375 -8.84375 C 5.046875 -8.84375 5.890625 -8.046875 5.890625 -6.984375 C 5.890625 -6.203125 5.4375 -5.53125 4.546875 -5.03125 L 3.265625 -4.296875 C 1.1875 -3.125 0.59375 -2.1875 0.46875 0 L 7.078125 0 Z M 7.078125 -1.21875 "/>
</symbol>
<symbol overflow="visible" id="glyph0-7">
<path style="stroke:none;" d="M 3.84375 -9.921875 C 2.921875 -9.921875 2.09375 -9.515625 1.5625 -8.828125 C 0.921875 -7.96875 0.609375 -6.640625 0.609375 -4.796875 C 0.609375 -1.453125 1.71875 0.328125 3.84375 0.328125 C 5.953125 0.328125 7.09375 -1.453125 7.09375 -4.71875 C 7.09375 -6.65625 6.796875 -7.9375 6.125 -8.828125 C 5.609375 -9.53125 4.78125 -9.921875 3.84375 -9.921875 Z M 3.84375 -8.828125 C 5.1875 -8.828125 5.84375 -7.484375 5.84375 -4.828125 C 5.84375 -2.015625 5.1875 -0.703125 3.828125 -0.703125 C 2.515625 -0.703125 1.859375 -2.078125 1.859375 -4.78125 C 1.859375 -7.5 2.515625 -8.828125 3.84375 -8.828125 Z M 3.84375 -8.828125 "/>
</symbol>
<symbol overflow="visible" id="glyph0-8">
<path style="stroke:none;" d="M 6.59375 -4.875 C 6.53125 -5.59375 6.390625 -6.046875 6.109375 -6.453125 C 5.59375 -7.140625 4.71875 -7.546875 3.703125 -7.546875 C 1.71875 -7.546875 0.4375 -5.984375 0.4375 -3.546875 C 0.4375 -1.171875 1.6875 0.328125 3.6875 0.328125 C 5.4375 0.328125 6.53125 -0.734375 6.671875 -2.515625 L 5.5 -2.515625 C 5.3125 -1.34375 4.703125 -0.75 3.703125 -0.75 C 2.421875 -0.75 1.65625 -1.8125 1.65625 -3.546875 C 1.65625 -5.375 2.40625 -6.46875 3.6875 -6.46875 C 4.65625 -6.46875 5.28125 -5.890625 5.421875 -4.875 Z M 6.59375 -4.875 "/>
</symbol>
<symbol overflow="visible" id="glyph0-9">
<path style="stroke:none;" d="M 3.09375 -4.546875 L 3.25 -4.546875 L 3.765625 -4.5625 C 5.125 -4.5625 5.828125 -3.953125 5.828125 -2.765625 C 5.828125 -1.515625 5.046875 -0.765625 3.765625 -0.765625 C 2.421875 -0.765625 1.765625 -1.4375 1.6875 -2.890625 L 0.453125 -2.890625 C 0.5 -2.09375 0.640625 -1.5625 0.875 -1.125 C 1.390625 -0.171875 2.359375 0.328125 3.71875 0.328125 C 5.765625 0.328125 7.078125 -0.890625 7.078125 -2.765625 C 7.078125 -4.03125 6.59375 -4.734375 5.40625 -5.140625 C 6.328125 -5.5 6.796875 -6.203125 6.796875 -7.203125 C 6.796875 -8.90625 5.65625 -9.921875 3.765625 -9.921875 C 1.765625 -9.921875 0.703125 -8.828125 0.65625 -6.71875 L 1.890625 -6.71875 C 1.90625 -7.328125 1.953125 -7.65625 2.109375 -7.96875 C 2.390625 -8.515625 3.015625 -8.84375 3.78125 -8.84375 C 4.875 -8.84375 5.53125 -8.203125 5.53125 -7.15625 C 5.53125 -6.453125 5.28125 -6.03125 4.734375 -5.8125 C 4.390625 -5.671875 3.96875 -5.609375 3.09375 -5.59375 Z M 3.09375 -4.546875 "/>
</symbol>
<symbol overflow="visible" id="glyph0-10">
<path style="stroke:none;" d="M 2.71875 -10.203125 L 1.40625 -10.203125 L 1.40625 0 L 2.71875 0 Z M 2.71875 -10.203125 "/>
</symbol>
<symbol overflow="visible" id="glyph1-0">
<path style="stroke:none;" d="M 0.875 0 L 0.875 -11.203125 L 6.125 -11.203125 L 6.125 0 Z M 1.75 -0.875 L 5.25 -0.875 L 5.25 -10.328125 L 1.75 -10.328125 Z M 1.75 -0.875 "/>
</symbol>
<symbol overflow="visible" id="glyph1-1">
<path style="stroke:none;" d="M 11.125 -4.84375 C 11.125 -4.5 11.09375 -4.132812 11.03125 -3.75 C 10.96875 -3.375 10.867188 -3 10.734375 -2.625 C 10.609375 -2.257812 10.445312 -1.90625 10.25 -1.5625 C 10.050781 -1.226562 9.816406 -0.929688 9.546875 -0.671875 C 9.285156 -0.410156 8.988281 -0.203125 8.65625 -0.046875 C 8.320312 0.0976562 7.953125 0.171875 7.546875 0.171875 C 7.273438 0.171875 7.035156 0.128906 6.828125 0.046875 C 6.617188 -0.0234375 6.4375 -0.128906 6.28125 -0.265625 C 6.125 -0.410156 5.992188 -0.582031 5.890625 -0.78125 C 5.796875 -0.988281 5.722656 -1.21875 5.671875 -1.46875 C 5.523438 -1.238281 5.363281 -1.023438 5.1875 -0.828125 C 5.007812 -0.628906 4.8125 -0.453125 4.59375 -0.296875 C 4.382812 -0.148438 4.15625 -0.0351562 3.90625 0.046875 C 3.664062 0.128906 3.40625 0.171875 3.125 0.171875 C 2.757812 0.171875 2.445312 0.109375 2.1875 -0.015625 C 1.9375 -0.148438 1.726562 -0.328125 1.5625 -0.546875 C 1.394531 -0.765625 1.273438 -1.019531 1.203125 -1.3125 C 1.128906 -1.601562 1.09375 -1.910156 1.09375 -2.234375 C 1.09375 -2.691406 1.144531 -3.144531 1.25 -3.59375 C 1.363281 -4.039062 1.507812 -4.472656 1.6875 -4.890625 C 1.875 -5.316406 2.085938 -5.726562 2.328125 -6.125 C 2.566406 -6.519531 2.828125 -6.894531 3.109375 -7.25 L 4.296875 -7.25 C 4.066406 -6.894531 3.832031 -6.523438 3.59375 -6.140625 C 3.363281 -5.765625 3.15625 -5.378906 2.96875 -4.984375 C 2.78125 -4.585938 2.628906 -4.175781 2.515625 -3.75 C 2.398438 -3.332031 2.34375 -2.90625 2.34375 -2.46875 C 2.34375 -2.289062 2.359375 -2.101562 2.390625 -1.90625 C 2.429688 -1.707031 2.492188 -1.523438 2.578125 -1.359375 C 2.660156 -1.203125 2.769531 -1.066406 2.90625 -0.953125 C 3.050781 -0.847656 3.234375 -0.796875 3.453125 -0.796875 C 3.734375 -0.796875 3.984375 -0.867188 4.203125 -1.015625 C 4.421875 -1.171875 4.609375 -1.359375 4.765625 -1.578125 C 4.929688 -1.804688 5.066406 -2.050781 5.171875 -2.3125 C 5.273438 -2.582031 5.351562 -2.832031 5.40625 -3.0625 L 5.90625 -5.4375 L 7.125 -5.4375 C 7.070312 -5.164062 7.007812 -4.894531 6.9375 -4.625 C 6.875 -4.351562 6.8125 -4.082031 6.75 -3.8125 C 6.6875 -3.550781 6.632812 -3.28125 6.59375 -3 C 6.550781 -2.726562 6.53125 -2.457031 6.53125 -2.1875 C 6.53125 -2.007812 6.546875 -1.835938 6.578125 -1.671875 C 6.617188 -1.503906 6.679688 -1.351562 6.765625 -1.21875 C 6.847656 -1.09375 6.957031 -0.988281 7.09375 -0.90625 C 7.226562 -0.832031 7.398438 -0.796875 7.609375 -0.796875 C 7.890625 -0.796875 8.140625 -0.863281 8.359375 -1 C 8.585938 -1.144531 8.785156 -1.332031 8.953125 -1.5625 C 9.117188 -1.800781 9.257812 -2.066406 9.375 -2.359375 C 9.488281 -2.648438 9.582031 -2.945312 9.65625 -3.25 C 9.738281 -3.5625 9.796875 -3.859375 9.828125 -4.140625 C 9.859375 -4.429688 9.875 -4.6875 9.875 -4.90625 C 9.875 -5.28125 9.835938 -5.648438 9.765625 -6.015625 C 9.703125 -6.378906 9.628906 -6.742188 9.546875 -7.109375 L 9.515625 -7.25 L 10.703125 -7.25 C 10.828125 -6.863281 10.925781 -6.46875 11 -6.0625 C 11.082031 -5.664062 11.125 -5.257812 11.125 -4.84375 Z M 11.125 -4.84375 "/>
</symbol>
<symbol overflow="visible" id="glyph1-2">
<path style="stroke:none;" d="M 3.671875 2.796875 L 0.953125 2.796875 L 0.953125 -10.015625 L 3.671875 -10.015625 L 3.671875 -9 L 2.1875 -9 L 2.1875 1.765625 L 3.671875 1.765625 Z M 3.671875 2.796875 "/>
</symbol>
<symbol overflow="visible" id="glyph1-3">
<path style="stroke:none;" d="M 7.71875 -7.609375 L 7.453125 -6.4375 L 5.03125 -6.4375 C 4.65625 -6.4375 4.328125 -6.390625 4.046875 -6.296875 C 3.765625 -6.210938 3.523438 -6.082031 3.328125 -5.90625 C 3.128906 -5.726562 2.960938 -5.503906 2.828125 -5.234375 C 2.703125 -4.960938 2.59375 -4.648438 2.5 -4.296875 L 6.1875 -4.296875 L 5.984375 -3.34375 L 2.296875 -3.34375 C 2.253906 -3.101562 2.234375 -2.863281 2.234375 -2.625 C 2.234375 -2.332031 2.269531 -2.09375 2.34375 -1.90625 C 2.425781 -1.71875 2.539062 -1.570312 2.6875 -1.46875 C 2.832031 -1.363281 3.007812 -1.289062 3.21875 -1.25 C 3.4375 -1.21875 3.675781 -1.203125 3.9375 -1.203125 L 6.34375 -1.203125 L 6.09375 -0.03125 L 3.28125 -0.03125 C 2.519531 -0.03125 1.953125 -0.234375 1.578125 -0.640625 C 1.203125 -1.046875 1.015625 -1.625 1.015625 -2.375 C 1.015625 -2.613281 1.03125 -2.851562 1.0625 -3.09375 C 1.09375 -3.332031 1.132812 -3.566406 1.1875 -3.796875 C 1.289062 -4.296875 1.4375 -4.769531 1.625 -5.21875 C 1.8125 -5.675781 2.050781 -6.082031 2.34375 -6.4375 C 2.644531 -6.789062 3.003906 -7.070312 3.421875 -7.28125 C 3.847656 -7.5 4.347656 -7.609375 4.921875 -7.609375 Z M 7.71875 -7.609375 "/>
</symbol>
<symbol overflow="visible" id="glyph1-4">
<path style="stroke:none;" d="M 2.9375 2.796875 L 0.21875 2.796875 L 0.21875 1.765625 L 1.703125 1.765625 L 1.703125 -9 L 0.21875 -9 L 0.21875 -10.015625 L 2.9375 -10.015625 Z M 2.9375 2.796875 "/>
</symbol>
<symbol overflow="visible" id="glyph2-0">
<path style="stroke:none;" d=""/>
</symbol>
<symbol overflow="visible" id="glyph2-1">
<path style="stroke:none;" d="M 2.375 -4.3125 L 7.546875 -4.3125 L 7.546875 -5.375 L 2.375 -5.375 L 2.375 -8.40625 L 7.734375 -8.40625 L 7.734375 -9.484375 L 1.171875 -9.484375 L 1.171875 0 L 7.96875 0 L 7.96875 -1.0625 L 2.375 -1.0625 Z M 2.375 -4.3125 "/>
</symbol>
<symbol overflow="visible" id="glyph2-2">
<path style="stroke:none;" d="M 3.796875 -3.515625 L 6.078125 -6.8125 L 4.859375 -6.8125 L 3.21875 -4.34375 L 1.59375 -6.8125 L 0.34375 -6.8125 L 2.625 -3.46875 L 0.21875 0 L 1.453125 0 L 3.1875 -2.609375 L 4.890625 0 L 6.15625 0 Z M 3.796875 -3.515625 "/>
</symbol>
<symbol overflow="visible" id="glyph2-3">
<path style="stroke:none;" d="M 6.953125 -0.640625 C 6.84375 -0.609375 6.78125 -0.609375 6.71875 -0.609375 C 6.34375 -0.609375 6.140625 -0.8125 6.140625 -1.140625 L 6.140625 -5.140625 C 6.140625 -6.359375 5.25 -7 3.578125 -7 C 2.59375 -7 1.765625 -6.71875 1.3125 -6.21875 C 1 -5.859375 0.875 -5.46875 0.84375 -4.796875 L 1.9375 -4.796875 C 2.03125 -5.625 2.515625 -6 3.53125 -6 C 4.515625 -6 5.0625 -5.640625 5.0625 -4.984375 L 5.0625 -4.703125 C 5.0625 -4.25 4.78125 -4.0625 3.921875 -3.953125 C 2.390625 -3.75 2.15625 -3.703125 1.734375 -3.53125 C 0.953125 -3.21875 0.546875 -2.59375 0.546875 -1.71875 C 0.546875 -0.484375 1.40625 0.296875 2.78125 0.296875 C 3.640625 0.296875 4.328125 0 5.09375 -0.703125 C 5.171875 -0.015625 5.515625 0.296875 6.21875 0.296875 C 6.4375 0.296875 6.609375 0.265625 6.953125 0.1875 Z M 5.0625 -2.140625 C 5.0625 -1.78125 4.953125 -1.5625 4.625 -1.265625 C 4.1875 -0.859375 3.65625 -0.65625 3.015625 -0.65625 C 2.171875 -0.65625 1.671875 -1.046875 1.671875 -1.734375 C 1.671875 -2.453125 2.15625 -2.828125 3.3125 -2.984375 C 4.453125 -3.140625 4.6875 -3.203125 5.0625 -3.359375 Z M 5.0625 -2.140625 "/>
</symbol>
<symbol overflow="visible" id="glyph2-4">
<path style="stroke:none;" d="M 6.125 -4.53125 C 6.078125 -5.1875 5.921875 -5.609375 5.671875 -6 C 5.203125 -6.625 4.375 -7 3.4375 -7 C 1.59375 -7 0.40625 -5.546875 0.40625 -3.28125 C 0.40625 -1.09375 1.578125 0.296875 3.421875 0.296875 C 5.046875 0.296875 6.078125 -0.671875 6.203125 -2.34375 L 5.109375 -2.34375 C 4.921875 -1.25 4.375 -0.703125 3.4375 -0.703125 C 2.25 -0.703125 1.53125 -1.671875 1.53125 -3.28125 C 1.53125 -4.984375 2.234375 -6 3.421875 -6 C 4.328125 -6 4.90625 -5.46875 5.03125 -4.53125 Z M 6.125 -4.53125 "/>
</symbol>
<symbol overflow="visible" id="glyph2-5">
<path style="stroke:none;" d="M 3.296875 -6.8125 L 2.1875 -6.8125 L 2.1875 -8.6875 L 1.109375 -8.6875 L 1.109375 -6.8125 L 0.1875 -6.8125 L 0.1875 -5.921875 L 1.109375 -5.921875 L 1.109375 -0.78125 C 1.109375 -0.09375 1.578125 0.296875 2.421875 0.296875 C 2.671875 0.296875 2.9375 0.265625 3.296875 0.203125 L 3.296875 -0.703125 C 3.15625 -0.65625 2.984375 -0.65625 2.78125 -0.65625 C 2.3125 -0.65625 2.1875 -0.78125 2.1875 -1.265625 L 2.1875 -5.921875 L 3.296875 -5.921875 Z M 3.296875 -6.8125 "/>
</symbol>
<symbol overflow="visible" id="glyph2-6">
<path style="stroke:none;" d="M 9.671875 0 L 12.078125 -9.484375 L 10.71875 -9.484375 L 8.984375 -1.78125 L 6.828125 -9.484375 L 5.53125 -9.484375 L 3.421875 -1.78125 L 1.640625 -9.484375 L 0.28125 -9.484375 L 2.71875 0 L 4.046875 0 L 6.15625 -7.78125 L 8.34375 0 Z M 9.671875 0 "/>
</symbol>
<symbol overflow="visible" id="glyph2-7">
<path style="stroke:none;" d="M 1.953125 -6.8125 L 0.875 -6.8125 L 0.875 0 L 1.953125 0 Z M 1.953125 -9.484375 L 0.859375 -9.484375 L 0.859375 -8.109375 L 1.953125 -8.109375 Z M 1.953125 -9.484375 "/>
</symbol>
<symbol overflow="visible" id="glyph2-8">
<path style="stroke:none;" d="M 6.4375 -9.484375 L 5.359375 -9.484375 L 5.359375 -5.953125 C 4.90625 -6.640625 4.171875 -7 3.265625 -7 C 1.5 -7 0.34375 -5.59375 0.34375 -3.421875 C 0.34375 -1.125 1.46875 0.296875 3.296875 0.296875 C 4.234375 0.296875 4.890625 -0.046875 5.46875 -0.890625 L 5.46875 0 L 6.4375 0 Z M 3.4375 -6 C 4.609375 -6 5.359375 -4.953125 5.359375 -3.328125 C 5.359375 -1.75 4.609375 -0.71875 3.453125 -0.71875 C 2.265625 -0.71875 1.46875 -1.765625 1.46875 -3.359375 C 1.46875 -4.9375 2.265625 -6 3.4375 -6 Z M 3.4375 -6 "/>
</symbol>
<symbol overflow="visible" id="glyph2-9">
<path style="stroke:none;" d="M 6.671875 -3.046875 C 6.671875 -4.078125 6.59375 -4.703125 6.390625 -5.21875 C 5.953125 -6.328125 4.90625 -7 3.640625 -7 C 1.734375 -7 0.515625 -5.546875 0.515625 -3.3125 C 0.515625 -1.078125 1.703125 0.296875 3.609375 0.296875 C 5.171875 0.296875 6.25 -0.578125 6.53125 -2.0625 L 5.4375 -2.0625 C 5.140625 -1.171875 4.53125 -0.703125 3.65625 -0.703125 C 2.96875 -0.703125 2.375 -1.015625 2.015625 -1.59375 C 1.75 -1.96875 1.65625 -2.359375 1.65625 -3.046875 Z M 1.671875 -3.921875 C 1.765625 -5.1875 2.53125 -6 3.625 -6 C 4.6875 -6 5.515625 -5.125 5.515625 -4 C 5.515625 -3.984375 5.515625 -3.953125 5.5 -3.921875 Z M 1.671875 -3.921875 "/>
</symbol>
<symbol overflow="visible" id="glyph2-10">
<path style="stroke:none;" d="M 1.03125 0 L 5.296875 0 C 6.203125 0 6.859375 -0.25 7.375 -0.796875 C 7.84375 -1.28125 8.09375 -1.96875 8.09375 -2.703125 C 8.09375 -3.84375 7.578125 -4.53125 6.375 -5 C 7.234375 -5.40625 7.6875 -6.109375 7.6875 -7.078125 C 7.6875 -7.765625 7.421875 -8.375 6.921875 -8.8125 C 6.4375 -9.265625 5.78125 -9.484375 4.875 -9.484375 L 1.03125 -9.484375 Z M 2.234375 -5.390625 L 2.234375 -8.40625 L 4.578125 -8.40625 C 5.25 -8.40625 5.625 -8.3125 5.953125 -8.078125 C 6.296875 -7.8125 6.46875 -7.421875 6.46875 -6.90625 C 6.46875 -6.390625 6.296875 -6 5.953125 -5.734375 C 5.625 -5.484375 5.25 -5.390625 4.578125 -5.390625 Z M 2.234375 -1.0625 L 2.234375 -4.328125 L 5.1875 -4.328125 C 5.765625 -4.328125 6.15625 -4.1875 6.453125 -3.875 C 6.734375 -3.578125 6.890625 -3.15625 6.890625 -2.6875 C 6.890625 -2.234375 6.734375 -1.8125 6.453125 -1.515625 C 6.15625 -1.203125 5.765625 -1.0625 5.1875 -1.0625 Z M 2.234375 -1.0625 "/>
</symbol>
<symbol overflow="visible" id="glyph2-11">
<path style="stroke:none;" d="M 0.90625 -6.8125 L 0.90625 0 L 2 0 L 2 -3.75 C 2 -5.140625 2.734375 -6.0625 3.84375 -6.0625 C 4.703125 -6.0625 5.25 -5.53125 5.25 -4.71875 L 5.25 0 L 6.328125 0 L 6.328125 -5.140625 C 6.328125 -6.28125 5.484375 -7 4.171875 -7 C 3.15625 -7 2.515625 -6.609375 1.90625 -5.671875 L 1.90625 -6.8125 Z M 0.90625 -6.8125 "/>
</symbol>
<symbol overflow="visible" id="glyph2-12">
<path style="stroke:none;" d="M 2.25 -9.484375 L 1.046875 -9.484375 L 1.046875 0 L 6.921875 0 L 6.921875 -1.0625 L 2.25 -1.0625 Z M 2.25 -9.484375 "/>
</symbol>
<symbol overflow="visible" id="glyph2-13">
<path style="stroke:none;" d="M 0.90625 -6.8125 L 0.90625 0 L 2 0 L 2 -4.28125 C 2 -5.265625 2.71875 -6.0625 3.59375 -6.0625 C 4.40625 -6.0625 4.859375 -5.5625 4.859375 -4.6875 L 4.859375 0 L 5.953125 0 L 5.953125 -4.28125 C 5.953125 -5.265625 6.671875 -6.0625 7.546875 -6.0625 C 8.34375 -6.0625 8.8125 -5.546875 8.8125 -4.6875 L 8.8125 0 L 9.90625 0 L 9.90625 -5.109375 C 9.90625 -6.328125 9.203125 -7 7.9375 -7 C 7.015625 -7 6.46875 -6.734375 5.84375 -5.96875 C 5.4375 -6.6875 4.890625 -7 4 -7 C 3.09375 -7 2.5 -6.671875 1.90625 -5.84375 L 1.90625 -6.8125 Z M 0.90625 -6.8125 "/>
</symbol>
</g>
<clipPath id="clip1">
  <path d="M 514 139 L 534 139 L 534 142 L 514 142 Z M 514 139 "/>
</clipPath>
<clipPath id="clip2">
  <path d="M 514 160 L 534 160 L 534 163 L 514 163 Z M 514 160 "/>
</clipPath>
</defs>
<g id="surface14">
<path style="fill:none;stroke-width:1.6;stroke-linecap:square;stroke-linejoin:miter;stroke:rgb(36.84082%,50.67749%,70.979309%);stroke-opacity:1;stroke-miterlimit:3.25;" d="M 44.332031 114.335938 L 47.449219 109.898438 L 50.566406 105.640625 L 53.683594 101.566406 L 56.800781 97.679688 L 59.917969 93.980469 L 63.035156 90.464844 L 66.152344 87.140625 L 69.269531 84 L 72.386719 81.042969 L 75.503906 78.273438 L 78.621094 75.679688 L 81.738281 73.269531 L 84.855469 71.035156 L 87.972656 68.972656 L 91.089844 67.085938 L 94.207031 65.363281 L 97.324219 63.804688 L 100.441406 62.40625 L 103.558594 61.167969 L 106.675781 60.078125 L 109.792969 59.140625 L 112.910156 58.34375 L 116.027344 57.691406 L 119.144531 57.175781 L 122.257812 56.789062 L 125.375 56.53125 L 128.492188 56.398438 L 131.609375 56.382812 L 134.726562 56.484375 L 137.84375 56.695312 L 140.960938 57.015625 L 144.078125 57.4375 L 147.195312 57.957031 L 150.3125 58.570312 L 153.429688 59.273438 L 156.546875 60.066406 L 159.664062 60.941406 L 162.78125 61.894531 L 165.898438 62.921875 L 169.015625 64.023438 L 172.132812 65.191406 L 175.25 66.425781 L 178.367188 67.722656 L 181.484375 69.074219 L 184.601562 70.484375 L 187.71875 71.945312 L 190.835938 73.457031 L 193.953125 75.011719 L 197.070312 76.613281 L 200.1875 78.253906 L 203.304688 79.933594 L 206.421875 81.648438 L 209.539062 83.398438 L 212.65625 85.179688 L 215.773438 86.984375 L 218.890625 88.820312 L 222.007812 90.679688 L 225.125 92.558594 L 228.242188 94.457031 L 231.359375 96.378906 L 234.476562 98.3125 L 237.59375 100.261719 L 240.710938 102.226562 L 243.828125 104.199219 L 246.945312 106.183594 L 250.0625 108.175781 L 253.179688 110.175781 L 256.296875 112.179688 L 259.414062 114.1875 L 265.648438 118.210938 L 268.765625 120.226562 L 278.117188 126.261719 L 281.234375 128.265625 L 284.351562 130.265625 L 287.46875 132.261719 L 290.585938 134.25 L 293.703125 136.234375 L 296.820312 138.207031 L 299.9375 140.171875 L 303.054688 142.128906 L 306.171875 144.078125 L 309.289062 146.015625 L 312.40625 147.941406 L 315.519531 149.855469 L 318.636719 151.757812 L 321.753906 153.648438 L 324.871094 155.523438 L 327.988281 157.390625 L 331.105469 159.238281 L 334.222656 161.074219 L 337.339844 162.898438 L 340.457031 164.703125 L 343.574219 166.496094 L 346.691406 168.273438 L 349.808594 170.035156 L 352.925781 171.78125 L 356.042969 173.511719 L 359.160156 175.222656 L 362.277344 176.921875 L 365.394531 178.601562 L 368.511719 180.265625 L 371.628906 181.910156 L 374.746094 183.542969 L 377.863281 185.152344 L 380.980469 186.75 L 384.097656 188.328125 L 387.214844 189.890625 L 390.332031 191.433594 L 393.449219 192.960938 L 396.566406 194.46875 L 399.683594 195.960938 L 402.800781 197.433594 L 405.917969 198.890625 L 409.035156 200.328125 L 412.152344 201.75 L 415.269531 203.152344 L 418.386719 204.539062 L 421.503906 205.910156 L 424.621094 207.261719 L 427.738281 208.597656 L 430.855469 209.914062 L 433.972656 211.210938 L 437.089844 212.496094 L 440.207031 213.761719 L 443.324219 215.011719 L 446.441406 216.242188 L 449.558594 217.457031 "/>
<path style="fill:none;stroke-width:1.6;stroke-linecap:square;stroke-linejoin:miter;stroke:rgb(88.070679%,61.103821%,14.204407%);stroke-opacity:1;stroke-miterlimit:3.25;" d="M 44.332031 138.304688 L 47.449219 133.007812 L 50.566406 127.847656 L 53.683594 122.824219 L 56.800781 117.9375 L 59.917969 113.191406 L 63.035156 108.589844 L 66.152344 104.132812 L 69.269531 99.820312 L 72.386719 95.65625 L 75.503906 91.640625 L 78.621094 87.773438 L 81.738281 84.0625 L 84.855469 80.5 L 87.972656 77.089844 L 91.089844 73.832031 L 94.207031 70.726562 L 97.324219 67.769531 L 100.441406 64.964844 L 103.558594 62.308594 L 106.675781 59.800781 L 109.792969 57.441406 L 112.910156 55.226562 L 116.027344 53.160156 L 119.144531 51.230469 L 122.257812 49.445312 L 125.375 47.800781 L 128.492188 46.289062 L 131.609375 44.914062 L 134.726562 43.671875 L 137.84375 42.5625 L 140.960938 41.578125 L 144.078125 40.722656 L 147.195312 39.988281 L 150.3125 39.378906 L 153.429688 38.882812 L 156.546875 38.507812 L 159.664062 38.242188 L 162.78125 38.089844 L 165.898438 38.042969 L 169.015625 38.105469 L 172.132812 38.269531 L 175.25 38.53125 L 178.367188 38.894531 L 181.484375 39.351562 L 184.601562 39.902344 L 187.71875 40.542969 L 190.835938 41.269531 L 193.953125 42.082031 L 197.070312 42.972656 L 200.1875 43.945312 L 203.304688 44.996094 L 206.421875 46.121094 L 209.539062 47.316406 L 212.65625 48.582031 L 215.773438 49.914062 L 218.890625 51.3125 L 222.007812 52.769531 L 225.125 54.289062 L 228.242188 55.863281 L 231.359375 57.492188 L 234.476562 59.171875 L 237.59375 60.90625 L 240.710938 62.683594 L 243.828125 64.507812 L 246.945312 66.378906 L 250.0625 68.289062 L 253.179688 70.234375 L 256.296875 72.222656 L 259.414062 74.242188 L 262.53125 76.292969 L 265.648438 78.378906 L 268.765625 80.492188 L 271.882812 82.628906 L 275 84.792969 L 278.117188 86.980469 L 281.234375 89.191406 L 284.351562 91.417969 L 287.46875 93.664062 L 290.585938 95.925781 L 293.703125 98.199219 L 296.820312 100.488281 L 299.9375 102.789062 L 303.054688 105.097656 L 306.171875 107.417969 L 309.289062 109.742188 L 312.40625 112.070312 L 315.519531 114.402344 L 327.988281 123.746094 L 331.105469 126.078125 L 334.222656 128.40625 L 337.339844 130.726562 L 340.457031 133.042969 L 343.574219 135.355469 L 346.691406 137.65625 L 349.808594 139.949219 L 352.925781 142.230469 L 356.042969 144.503906 L 359.160156 146.761719 L 362.277344 149.007812 L 365.394531 151.242188 L 368.511719 153.460938 L 371.628906 155.664062 L 374.746094 157.851562 L 377.863281 160.023438 L 380.980469 162.179688 L 384.097656 164.316406 L 387.214844 166.433594 L 390.332031 168.535156 L 393.449219 170.617188 L 396.566406 172.675781 L 399.683594 174.71875 L 402.800781 176.738281 L 405.917969 178.734375 L 409.035156 180.714844 L 412.152344 182.667969 L 415.269531 184.601562 L 418.386719 186.511719 L 421.503906 188.402344 L 424.621094 190.265625 L 427.738281 192.105469 L 430.855469 193.925781 L 433.972656 195.71875 L 437.089844 197.492188 L 440.207031 199.238281 L 443.324219 200.960938 L 446.441406 202.660156 L 449.558594 204.335938 "/>
<path style="fill:none;stroke-width:0.2;stroke-linecap:butt;stroke-linejoin:miter;stroke:rgb(0%,0%,0%);stroke-opacity:1;stroke-miterlimit:3.25;" d="M 44.332031 280.660156 L 44.332031 276.660156 "/>
<path style="fill:none;stroke-width:0.2;stroke-linecap:butt;stroke-linejoin:miter;stroke:rgb(0%,0%,0%);stroke-opacity:1;stroke-miterlimit:3.25;" d="M 59.917969 280.660156 L 59.917969 278.261719 "/>
<path style="fill:none;stroke-width:0.2;stroke-linecap:butt;stroke-linejoin:miter;stroke:rgb(0%,0%,0%);stroke-opacity:1;stroke-miterlimit:3.25;" d="M 75.503906 280.660156 L 75.503906 278.261719 "/>
<path style="fill:none;stroke-width:0.2;stroke-linecap:butt;stroke-linejoin:miter;stroke:rgb(0%,0%,0%);stroke-opacity:1;stroke-miterlimit:3.25;" d="M 91.089844 280.660156 L 91.089844 278.261719 "/>
<path style="fill:none;stroke-width:0.2;stroke-linecap:butt;stroke-linejoin:miter;stroke:rgb(0%,0%,0%);stroke-opacity:1;stroke-miterlimit:3.25;" d="M 106.675781 280.660156 L 106.675781 276.660156 "/>
<g style="fill:rgb(0%,0%,0%);fill-opacity:1;">
  <use xlink:href="#glyph0-1" x="97.17414" y="296.661095"/>
  <use xlink:href="#glyph0-2" x="105.17414" y="296.661095"/>
  <use xlink:href="#glyph0-3" x="109.17414" y="296.661095"/>
</g>
<path style="fill:none;stroke-width:0.2;stroke-linecap:butt;stroke-linejoin:miter;stroke:rgb(0%,0%,0%);stroke-opacity:1;stroke-miterlimit:3.25;" d="M 122.257812 280.660156 L 122.257812 278.261719 "/>
<path style="fill:none;stroke-width:0.2;stroke-linecap:butt;stroke-linejoin:miter;stroke:rgb(0%,0%,0%);stroke-opacity:1;stroke-miterlimit:3.25;" d="M 137.84375 280.660156 L 137.84375 278.261719 "/>
<path style="fill:none;stroke-width:0.2;stroke-linecap:butt;stroke-linejoin:miter;stroke:rgb(0%,0%,0%);stroke-opacity:1;stroke-miterlimit:3.25;" d="M 153.429688 280.660156 L 153.429688 278.261719 "/>
<path style="fill:none;stroke-width:0.2;stroke-linecap:butt;stroke-linejoin:miter;stroke:rgb(0%,0%,0%);stroke-opacity:1;stroke-miterlimit:3.25;" d="M 169.015625 280.660156 L 169.015625 276.660156 "/>
<g style="fill:rgb(0%,0%,0%);fill-opacity:1;">
  <use xlink:href="#glyph0-1" x="159.516622" y="296.661095"/>
  <use xlink:href="#glyph0-2" x="167.516622" y="296.661095"/>
  <use xlink:href="#glyph0-4" x="171.516622" y="296.661095"/>
</g>
<path style="fill:none;stroke-width:0.2;stroke-linecap:butt;stroke-linejoin:miter;stroke:rgb(0%,0%,0%);stroke-opacity:1;stroke-miterlimit:3.25;" d="M 184.601562 280.660156 L 184.601562 278.261719 "/>
<path style="fill:none;stroke-width:0.2;stroke-linecap:butt;stroke-linejoin:miter;stroke:rgb(0%,0%,0%);stroke-opacity:1;stroke-miterlimit:3.25;" d="M 200.1875 280.660156 L 200.1875 278.261719 "/>
<path style="fill:none;stroke-width:0.2;stroke-linecap:butt;stroke-linejoin:miter;stroke:rgb(0%,0%,0%);stroke-opacity:1;stroke-miterlimit:3.25;" d="M 215.773438 280.660156 L 215.773438 278.261719 "/>
<path style="fill:none;stroke-width:0.2;stroke-linecap:butt;stroke-linejoin:miter;stroke:rgb(0%,0%,0%);stroke-opacity:1;stroke-miterlimit:3.25;" d="M 231.359375 280.660156 L 231.359375 276.660156 "/>
<g style="fill:rgb(0%,0%,0%);fill-opacity:1;">
  <use xlink:href="#glyph0-1" x="221.859103" y="296.661095"/>
  <use xlink:href="#glyph0-2" x="229.859103" y="296.661095"/>
  <use xlink:href="#glyph0-5" x="233.859103" y="296.661095"/>
</g>
<path style="fill:none;stroke-width:0.2;stroke-linecap:butt;stroke-linejoin:miter;stroke:rgb(0%,0%,0%);stroke-opacity:1;stroke-miterlimit:3.25;" d="M 246.945312 280.660156 L 246.945312 278.261719 "/>
<path style="fill:none;stroke-width:0.2;stroke-linecap:butt;stroke-linejoin:miter;stroke:rgb(0%,0%,0%);stroke-opacity:1;stroke-miterlimit:3.25;" d="M 262.53125 280.660156 L 262.53125 278.261719 "/>
<path style="fill:none;stroke-width:0.2;stroke-linecap:butt;stroke-linejoin:miter;stroke:rgb(0%,0%,0%);stroke-opacity:1;stroke-miterlimit:3.25;" d="M 278.117188 280.660156 L 278.117188 278.261719 "/>
<path style="fill:none;stroke-width:0.2;stroke-linecap:butt;stroke-linejoin:miter;stroke:rgb(0%,0%,0%);stroke-opacity:1;stroke-miterlimit:3.25;" d="M 293.703125 280.660156 L 293.703125 276.660156 "/>
<g style="fill:rgb(0%,0%,0%);fill-opacity:1;">
  <use xlink:href="#glyph0-6" x="284.201585" y="296.661095"/>
  <use xlink:href="#glyph0-2" x="292.201585" y="296.661095"/>
  <use xlink:href="#glyph0-7" x="296.201585" y="296.661095"/>
</g>
<path style="fill:none;stroke-width:0.2;stroke-linecap:butt;stroke-linejoin:miter;stroke:rgb(0%,0%,0%);stroke-opacity:1;stroke-miterlimit:3.25;" d="M 309.289062 280.660156 L 309.289062 278.261719 "/>
<path style="fill:none;stroke-width:0.2;stroke-linecap:butt;stroke-linejoin:miter;stroke:rgb(0%,0%,0%);stroke-opacity:1;stroke-miterlimit:3.25;" d="M 324.871094 280.660156 L 324.871094 278.261719 "/>
<path style="fill:none;stroke-width:0.2;stroke-linecap:butt;stroke-linejoin:miter;stroke:rgb(0%,0%,0%);stroke-opacity:1;stroke-miterlimit:3.25;" d="M 340.457031 280.660156 L 340.457031 278.261719 "/>
<path style="fill:none;stroke-width:0.2;stroke-linecap:butt;stroke-linejoin:miter;stroke:rgb(0%,0%,0%);stroke-opacity:1;stroke-miterlimit:3.25;" d="M 356.042969 280.660156 L 356.042969 276.660156 "/>
<g style="fill:rgb(0%,0%,0%);fill-opacity:1;">
  <use xlink:href="#glyph0-6" x="346.544066" y="296.661095"/>
  <use xlink:href="#glyph0-2" x="354.544066" y="296.661095"/>
  <use xlink:href="#glyph0-6" x="358.544066" y="296.661095"/>
</g>
<path style="fill:none;stroke-width:0.2;stroke-linecap:butt;stroke-linejoin:miter;stroke:rgb(0%,0%,0%);stroke-opacity:1;stroke-miterlimit:3.25;" d="M 371.628906 280.660156 L 371.628906 278.261719 "/>
<path style="fill:none;stroke-width:0.2;stroke-linecap:butt;stroke-linejoin:miter;stroke:rgb(0%,0%,0%);stroke-opacity:1;stroke-miterlimit:3.25;" d="M 387.214844 280.660156 L 387.214844 278.261719 "/>
<path style="fill:none;stroke-width:0.2;stroke-linecap:butt;stroke-linejoin:miter;stroke:rgb(0%,0%,0%);stroke-opacity:1;stroke-miterlimit:3.25;" d="M 402.800781 280.660156 L 402.800781 278.261719 "/>
<path style="fill:none;stroke-width:0.2;stroke-linecap:butt;stroke-linejoin:miter;stroke:rgb(0%,0%,0%);stroke-opacity:1;stroke-miterlimit:3.25;" d="M 418.386719 280.660156 L 418.386719 276.660156 "/>
<g style="fill:rgb(0%,0%,0%);fill-opacity:1;">
  <use xlink:href="#glyph0-6" x="408.886548" y="296.661095"/>
  <use xlink:href="#glyph0-2" x="416.886548" y="296.661095"/>
  <use xlink:href="#glyph0-3" x="420.886548" y="296.661095"/>
</g>
<path style="fill:none;stroke-width:0.2;stroke-linecap:butt;stroke-linejoin:miter;stroke:rgb(0%,0%,0%);stroke-opacity:1;stroke-miterlimit:3.25;" d="M 433.972656 280.660156 L 433.972656 278.261719 "/>
<path style="fill:none;stroke-width:0.2;stroke-linecap:butt;stroke-linejoin:miter;stroke:rgb(0%,0%,0%);stroke-opacity:1;stroke-miterlimit:3.25;" d="M 449.558594 280.660156 L 449.558594 278.261719 "/>
<path style="fill:none;stroke-width:0.2;stroke-linecap:butt;stroke-linejoin:miter;stroke:rgb(39.99939%,39.99939%,39.99939%);stroke-opacity:1;stroke-miterlimit:3.25;" d="M 35.890625 280.660156 L 458 280.660156 "/>
<g style="fill:rgb(0%,0%,0%);fill-opacity:1;">
  <use xlink:href="#glyph1-1" x="466" y="284.661095"/>
</g>
<g style="fill:rgb(0%,0%,0%);fill-opacity:1;">
  <use xlink:href="#glyph0-8" x="477" y="284.661095"/>
</g>
<g style="fill:rgb(0%,0%,0%);fill-opacity:1;">
  <use xlink:href="#glyph1-2" x="484" y="284.661095"/>
</g>
<g style="fill:rgb(0%,0%,0%);fill-opacity:1;">
  <use xlink:href="#glyph1-3" x="488" y="284.661095"/>
</g>
<g style="fill:rgb(0%,0%,0%);fill-opacity:1;">
  <use xlink:href="#glyph1-4" x="495" y="284.661095"/>
</g>
<path style="fill:none;stroke-width:0.2;stroke-linecap:butt;stroke-linejoin:miter;stroke:rgb(0%,0%,0%);stroke-opacity:1;stroke-miterlimit:3.25;" d="M 38 280.660156 L 42 280.660156 "/>
<path style="fill:none;stroke-width:0.2;stroke-linecap:butt;stroke-linejoin:miter;stroke:rgb(0%,0%,0%);stroke-opacity:1;stroke-miterlimit:3.25;" d="M 38 270.25 L 40.398438 270.25 "/>
<path style="fill:none;stroke-width:0.2;stroke-linecap:butt;stroke-linejoin:miter;stroke:rgb(0%,0%,0%);stroke-opacity:1;stroke-miterlimit:3.25;" d="M 38 259.839844 L 40.398438 259.839844 "/>
<path style="fill:none;stroke-width:0.2;stroke-linecap:butt;stroke-linejoin:miter;stroke:rgb(0%,0%,0%);stroke-opacity:1;stroke-miterlimit:3.25;" d="M 38 249.433594 L 40.398438 249.433594 "/>
<path style="fill:none;stroke-width:0.2;stroke-linecap:butt;stroke-linejoin:miter;stroke:rgb(0%,0%,0%);stroke-opacity:1;stroke-miterlimit:3.25;" d="M 38 239.023438 L 40.398438 239.023438 "/>
<path style="fill:none;stroke-width:0.2;stroke-linecap:butt;stroke-linejoin:miter;stroke:rgb(0%,0%,0%);stroke-opacity:1;stroke-miterlimit:3.25;" d="M 38 228.613281 L 42 228.613281 "/>
<g style="fill:rgb(0%,0%,0%);fill-opacity:1;">
  <use xlink:href="#glyph0-7" x="-0.000000000000056843" y="232.612061"/>
  <use xlink:href="#glyph0-2" x="8" y="232.612061"/>
  <use xlink:href="#glyph0-7" x="12" y="232.612061"/>
  <use xlink:href="#glyph0-7" x="20" y="232.612061"/>
  <use xlink:href="#glyph0-1" x="28" y="232.612061"/>
</g>
<path style="fill:none;stroke-width:0.2;stroke-linecap:butt;stroke-linejoin:miter;stroke:rgb(0%,0%,0%);stroke-opacity:1;stroke-miterlimit:3.25;" d="M 38 218.203125 L 40.398438 218.203125 "/>
<path style="fill:none;stroke-width:0.2;stroke-linecap:butt;stroke-linejoin:miter;stroke:rgb(0%,0%,0%);stroke-opacity:1;stroke-miterlimit:3.25;" d="M 38 207.792969 L 40.398438 207.792969 "/>
<path style="fill:none;stroke-width:0.2;stroke-linecap:butt;stroke-linejoin:miter;stroke:rgb(0%,0%,0%);stroke-opacity:1;stroke-miterlimit:3.25;" d="M 38 197.382812 L 40.398438 197.382812 "/>
<path style="fill:none;stroke-width:0.2;stroke-linecap:butt;stroke-linejoin:miter;stroke:rgb(0%,0%,0%);stroke-opacity:1;stroke-miterlimit:3.25;" d="M 38 186.972656 L 40.398438 186.972656 "/>
<path style="fill:none;stroke-width:0.2;stroke-linecap:butt;stroke-linejoin:miter;stroke:rgb(0%,0%,0%);stroke-opacity:1;stroke-miterlimit:3.25;" d="M 38 176.5625 L 42 176.5625 "/>
<g style="fill:rgb(0%,0%,0%);fill-opacity:1;">
  <use xlink:href="#glyph0-7" x="-0.000000000000056843" y="180.563028"/>
  <use xlink:href="#glyph0-2" x="8" y="180.563028"/>
  <use xlink:href="#glyph0-7" x="12" y="180.563028"/>
  <use xlink:href="#glyph0-7" x="20" y="180.563028"/>
  <use xlink:href="#glyph0-6" x="28" y="180.563028"/>
</g>
<path style="fill:none;stroke-width:0.2;stroke-linecap:butt;stroke-linejoin:miter;stroke:rgb(0%,0%,0%);stroke-opacity:1;stroke-miterlimit:3.25;" d="M 38 166.152344 L 40.398438 166.152344 "/>
<path style="fill:none;stroke-width:0.2;stroke-linecap:butt;stroke-linejoin:miter;stroke:rgb(0%,0%,0%);stroke-opacity:1;stroke-miterlimit:3.25;" d="M 38 155.742188 L 40.398438 155.742188 "/>
<path style="fill:none;stroke-width:0.2;stroke-linecap:butt;stroke-linejoin:miter;stroke:rgb(0%,0%,0%);stroke-opacity:1;stroke-miterlimit:3.25;" d="M 38 145.332031 L 40.398438 145.332031 "/>
<path style="fill:none;stroke-width:0.2;stroke-linecap:butt;stroke-linejoin:miter;stroke:rgb(0%,0%,0%);stroke-opacity:1;stroke-miterlimit:3.25;" d="M 38 134.921875 L 40.398438 134.921875 "/>
<path style="fill:none;stroke-width:0.2;stroke-linecap:butt;stroke-linejoin:miter;stroke:rgb(0%,0%,0%);stroke-opacity:1;stroke-miterlimit:3.25;" d="M 38 124.515625 L 42 124.515625 "/>
<g style="fill:rgb(0%,0%,0%);fill-opacity:1;">
  <use xlink:href="#glyph0-7" x="-0.000000000000056843" y="128.513994"/>
  <use xlink:href="#glyph0-2" x="8" y="128.513994"/>
  <use xlink:href="#glyph0-7" x="12" y="128.513994"/>
  <use xlink:href="#glyph0-7" x="20" y="128.513994"/>
  <use xlink:href="#glyph0-9" x="28" y="128.513994"/>
</g>
<path style="fill:none;stroke-width:0.2;stroke-linecap:butt;stroke-linejoin:miter;stroke:rgb(0%,0%,0%);stroke-opacity:1;stroke-miterlimit:3.25;" d="M 38 114.105469 L 40.398438 114.105469 "/>
<path style="fill:none;stroke-width:0.2;stroke-linecap:butt;stroke-linejoin:miter;stroke:rgb(0%,0%,0%);stroke-opacity:1;stroke-miterlimit:3.25;" d="M 38 103.695312 L 40.398438 103.695312 "/>
<path style="fill:none;stroke-width:0.2;stroke-linecap:butt;stroke-linejoin:miter;stroke:rgb(0%,0%,0%);stroke-opacity:1;stroke-miterlimit:3.25;" d="M 38 93.285156 L 40.398438 93.285156 "/>
<path style="fill:none;stroke-width:0.2;stroke-linecap:butt;stroke-linejoin:miter;stroke:rgb(0%,0%,0%);stroke-opacity:1;stroke-miterlimit:3.25;" d="M 38 82.875 L 40.398438 82.875 "/>
<path style="fill:none;stroke-width:0.2;stroke-linecap:butt;stroke-linejoin:miter;stroke:rgb(0%,0%,0%);stroke-opacity:1;stroke-miterlimit:3.25;" d="M 38 72.464844 L 42 72.464844 "/>
<g style="fill:rgb(0%,0%,0%);fill-opacity:1;">
  <use xlink:href="#glyph0-7" x="-0.000000000000056843" y="76.46496"/>
  <use xlink:href="#glyph0-2" x="8" y="76.46496"/>
  <use xlink:href="#glyph0-7" x="12" y="76.46496"/>
  <use xlink:href="#glyph0-7" x="20" y="76.46496"/>
  <use xlink:href="#glyph0-3" x="28" y="76.46496"/>
</g>
<path style="fill:none;stroke-width:0.2;stroke-linecap:butt;stroke-linejoin:miter;stroke:rgb(0%,0%,0%);stroke-opacity:1;stroke-miterlimit:3.25;" d="M 38 62.054688 L 40.398438 62.054688 "/>
<path style="fill:none;stroke-width:0.2;stroke-linecap:butt;stroke-linejoin:miter;stroke:rgb(0%,0%,0%);stroke-opacity:1;stroke-miterlimit:3.25;" d="M 38 51.644531 L 40.398438 51.644531 "/>
<path style="fill:none;stroke-width:0.2;stroke-linecap:butt;stroke-linejoin:miter;stroke:rgb(0%,0%,0%);stroke-opacity:1;stroke-miterlimit:3.25;" d="M 38 41.234375 L 40.398438 41.234375 "/>
<path style="fill:none;stroke-width:0.2;stroke-linecap:butt;stroke-linejoin:miter;stroke:rgb(0%,0%,0%);stroke-opacity:1;stroke-miterlimit:3.25;" d="M 38 30.824219 L 40.398438 30.824219 "/>
<path style="fill:none;stroke-width:0.2;stroke-linecap:butt;stroke-linejoin:miter;stroke:rgb(39.99939%,39.99939%,39.99939%);stroke-opacity:1;stroke-miterlimit:3.25;" d="M 38 285.878906 L 38 25 "/>
<g style="fill:rgb(0%,0%,0%);fill-opacity:1;">
  <use xlink:href="#glyph0-10" x="36" y="14"/>
</g>
<g clip-path="url(#clip1)" clip-rule="nonzero">
<path style="fill:none;stroke-width:1.6;stroke-linecap:square;stroke-linejoin:miter;stroke:rgb(36.84082%,50.67749%,70.979309%);stroke-opacity:1;stroke-miterlimit:3.25;" d="M 514.800781 140.5 L 532.199219 140.5 "/>
</g>
<g style="fill:rgb(0%,0%,0%);fill-opacity:1;">
  <use xlink:href="#glyph2-1" x="541" y="145"/>
  <use xlink:href="#glyph2-2" x="550" y="145"/>
  <use xlink:href="#glyph2-3" x="557" y="145"/>
  <use xlink:href="#glyph2-4" x="564" y="145"/>
  <use xlink:href="#glyph2-5" x="571" y="145"/>
</g>
<g clip-path="url(#clip2)" clip-rule="nonzero">
<path style="fill:none;stroke-width:1.6;stroke-linecap:square;stroke-linejoin:miter;stroke:rgb(88.070679%,61.103821%,14.204407%);stroke-opacity:1;stroke-miterlimit:3.25;" d="M 514.800781 161.5 L 532.199219 161.5 "/>
</g>
<g style="fill:rgb(0%,0%,0%);fill-opacity:1;">
  <use xlink:href="#glyph2-6" x="541" y="166"/>
  <use xlink:href="#glyph2-7" x="553" y="166"/>
  <use xlink:href="#glyph2-8" x="556" y="166"/>
  <use xlink:href="#glyph2-9" x="563" y="166"/>
</g>
<g style="fill:rgb(0%,0%,0%);fill-opacity:1;">
  <use xlink:href="#glyph2-10" x="575" y="166"/>
  <use xlink:href="#glyph2-3" x="584" y="166"/>
  <use xlink:href="#glyph2-11" x="591" y="166"/>
  <use xlink:href="#glyph2-8" x="598" y="166"/>
</g>
<g style="fill:rgb(0%,0%,0%);fill-opacity:1;">
  <use xlink:href="#glyph2-12" x="609" y="166"/>
  <use xlink:href="#glyph2-7" x="616" y="166"/>
  <use xlink:href="#glyph2-13" x="619" y="166"/>
  <use xlink:href="#glyph2-7" x="630" y="166"/>
  <use xlink:href="#glyph2-5" x="633" y="166"/>
</g>
</g>
</svg>
