\relax 
\citation{Chakraborty}
\citation{Altland}
\bibstyle{abbrv}
\bibdata{/home/christian/repos/non_equilibrium/Notes/Bibliography.bib}
\bibcite{Altland}{1}
\bibcite{Chakraborty}{2}
\@writefile{toc}{\contentsline {section}{\numberline {1}Keldysh}{1}}
\@writefile{toc}{\contentsline {subsection}{\numberline {1.1}The distribution function}{1}}
\@writefile{toc}{\contentsline {subsection}{\numberline {1.2}Semi-finite time range consequences}{1}}
\@writefile{toc}{\contentsline {subsection}{\numberline {1.3}Adaibatic turning on of interaction}{1}}
\@writefile{toc}{\contentsline {subsection}{\numberline {1.4}Equivalence between time dependence and proper initial state considerations}{1}}
\@writefile{toc}{\contentsline {subsection}{\numberline {1.5}Keldysh Field Theory and small systems}{1}}
\@writefile{toc}{\contentsline {subsection}{\numberline {1.6}Forcing equilibrium constraints in Keldysh formalism}{1}}
