\relax 
\citation{PhononThermalConductanceLandauer}
\@writefile{toc}{\contentsline {section}{\numberline {1}January}{1}}
\@writefile{toc}{\contentsline {subsection}{\numberline {1.1}Physical System}{1}}
\@writefile{toc}{\contentsline {subsection}{\numberline {1.2}Interesting Features}{2}}
\@writefile{toc}{\contentsline {subsection}{\numberline {1.3}Solving The System}{2}}
\newlabel{eq:phase1}{{5}{2}}
\citation{XX_circle}
\citation{XX_circle}
\citation{SemiFermionic}
\@writefile{toc}{\contentsline {section}{\numberline {A}Jordan-Wigner Transformation}{4}}
\newlabel{app:JW}{{A}{4}}
\@writefile{toc}{\contentsline {section}{\numberline {B}Fermionization of Hamiltonian}{7}}
\newlabel{app:FermionHam}{{B}{7}}
\@writefile{toc}{\contentsline {section}{\numberline {C}Hamiltonian in the $\sigma ^x$ Basis}{9}}
\newlabel{app:HamSigx}{{C}{9}}
\bibstyle{abbrv}
\bibdata{/home/christian/repos/non_equilibrium/Notes/Bibliography.bib}
\bibcite{SemiFermionic}{1}
\bibcite{XX_circle}{2}
\bibcite{PhononThermalConductanceLandauer}{3}
