<?xml version="1.0" encoding="UTF-8" standalone="no"?>
<!-- Created with Inkscape (http://www.inkscape.org/) -->

<svg
   xmlns:dc="http://purl.org/dc/elements/1.1/"
   xmlns:cc="http://creativecommons.org/ns#"
   xmlns:rdf="http://www.w3.org/1999/02/22-rdf-syntax-ns#"
   xmlns:svg="http://www.w3.org/2000/svg"
   xmlns="http://www.w3.org/2000/svg"
   xmlns:sodipodi="http://sodipodi.sourceforge.net/DTD/sodipodi-0.dtd"
   xmlns:inkscape="http://www.inkscape.org/namespaces/inkscape"
   width="135.69205mm"
   height="135.69205mm"
   viewBox="0 0 480.79859 480.79859"
   id="svg4208"
   version="1.1"
   inkscape:version="0.91 r13725"
   sodipodi:docname="Open2.svg"
   inkscape:export-filename="/home/christian/repos/non_equilibrium/viva/fig/Open2.png"
   inkscape:export-xdpi="300"
   inkscape:export-ydpi="300">
  <sodipodi:namedview
     id="base"
     pagecolor="#ffffff"
     bordercolor="#666666"
     borderopacity="1.0"
     inkscape:pageopacity="0.0"
     inkscape:pageshadow="2"
     inkscape:zoom="1.4300781"
     inkscape:cx="219.78571"
     inkscape:cy="285.80177"
     inkscape:document-units="px"
     inkscape:current-layer="layer1"
     showgrid="false"
     inkscape:window-width="2560"
     inkscape:window-height="1371"
     inkscape:window-x="3200"
     inkscape:window-y="24"
     inkscape:window-maximized="1"
     fit-margin-top="0"
     fit-margin-left="0"
     fit-margin-right="0"
     fit-margin-bottom="0" />
  <defs
     id="defs4210" />
  <metadata
     id="metadata4213">
    <rdf:RDF>
      <cc:Work
         rdf:about="">
        <dc:format>image/svg+xml</dc:format>
        <dc:type
           rdf:resource="http://purl.org/dc/dcmitype/StillImage" />
        <dc:title></dc:title>
      </cc:Work>
    </rdf:RDF>
  </metadata>
  <g
     transform="translate(-147.87624,-193.06117)"
     style="opacity:1"
     id="layer1"
     inkscape:groupmode="layer"
     inkscape:label="Layer 1">
    <circle
       r="76.480415"
       cy="431.69217"
       cx="396.49823"
       id="path4756"
       style="opacity:1;fill:#009100;fill-opacity:1;fill-rule:evenodd;stroke:none;stroke-width:1.70492077;stroke-linecap:round;stroke-linejoin:miter;stroke-miterlimit:3.25;stroke-dasharray:none;stroke-dashoffset:0;stroke-opacity:1" />
    <text
       sodipodi:linespacing="100%"
       id="text4796"
       y="424.21591"
       x="395.99185"
       style="font-style:normal;font-weight:normal;font-size:27.5px;line-height:100%;font-family:sans-serif;letter-spacing:0px;word-spacing:0px;fill:#0e232e;fill-opacity:1;stroke:#ffffff;stroke-width:0.5;stroke-linecap:butt;stroke-linejoin:miter;stroke-miterlimit:4;stroke-dasharray:none;stroke-opacity:1"
       xml:space="preserve"><tspan
         style="font-style:normal;font-variant:normal;font-weight:normal;font-stretch:normal;font-size:35px;line-height:100%;font-family:'Fira Sans';-inkscape-font-specification:'Fira Sans, Normal';text-align:center;writing-mode:lr-tb;text-anchor:middle;fill:#0e232e;stroke:#ffffff;stroke-width:0.5;stroke-miterlimit:4;stroke-dasharray:none"
         y="424.21591"
         x="395.99185"
         sodipodi:role="line"
         id="tspan4243">Reduced</tspan><tspan
         style="font-style:normal;font-variant:normal;font-weight:normal;font-stretch:normal;font-size:35px;line-height:100%;font-family:'Fira Sans';-inkscape-font-specification:'Fira Sans, Normal';text-align:center;writing-mode:lr-tb;text-anchor:middle;fill:#0e232e;stroke:#ffffff;stroke-width:0.5;stroke-miterlimit:4;stroke-dasharray:none"
         y="459.21591"
         x="395.99185"
         sodipodi:role="line"
         id="tspan4247">system</tspan></text>
    <rect
       y="102.80377"
       x="12.263913"
       height="723.94482"
       width="720.99249"
       id="rect4804"
       style="opacity:0;fill:#0e232e;fill-opacity:0.04358975;fill-rule:evenodd;stroke:#0e232e;stroke-width:0.54507273;stroke-linecap:round;stroke-linejoin:miter;stroke-miterlimit:4;stroke-dasharray:none;stroke-dashoffset:0;stroke-opacity:1" />
    <rect
       style="opacity:0;fill:#0e232e;fill-opacity:0.04358975;fill-rule:evenodd;stroke:#0e232e;stroke-width:2.10029173;stroke-linecap:round;stroke-linejoin:miter;stroke-miterlimit:4;stroke-dasharray:none;stroke-dashoffset:0;stroke-opacity:1"
       id="rect4205"
       width="431.94247"
       height="449.42401"
       x="167.55647"
       y="216.64299" />
    <ellipse
       style="opacity:0;fill:#0e232e;fill-opacity:0.04358975;fill-rule:evenodd;stroke:#0e232e;stroke-width:0.5;stroke-linecap:round;stroke-linejoin:miter;stroke-miterlimit:4;stroke-dasharray:none;stroke-dashoffset:0;stroke-opacity:1"
       id="path4207"
       cx="593.30646"
       cy="587.85046"
       rx="2.79705"
       ry="0.6992625" />
    <rect
       style="opacity:0;fill:#009100;fill-opacity:0.04358975;fill-rule:evenodd;stroke:#0e232e;stroke-width:0.5;stroke-linecap:round;stroke-linejoin:miter;stroke-miterlimit:4;stroke-dasharray:none;stroke-dashoffset:0;stroke-opacity:1"
       id="rect4209"
       width="257.32861"
       height="525.8454"
       x="-68.895134"
       y="78.787369" />
  </g>
  <g
     inkscape:groupmode="layer"
     id="layer2"
     inkscape:label="Layer 2">
    <rect
       style="opacity:0;fill:#009100;fill-opacity:1;fill-rule:evenodd;stroke:#0e232e;stroke-width:0.5;stroke-linecap:round;stroke-linejoin:miter;stroke-miterlimit:4;stroke-dasharray:none;stroke-dashoffset:0;stroke-opacity:1"
       id="rect4212"
       width="360.81946"
       height="444.73096"
       x="350.33051"
       y="31.172798" />
    <rect
       style="opacity:0;fill:#009100;fill-opacity:1;fill-rule:evenodd;stroke:#0e232e;stroke-width:1.29699254;stroke-linecap:round;stroke-linejoin:miter;stroke-miterlimit:4;stroke-dasharray:none;stroke-dashoffset:0;stroke-opacity:1"
       id="rect4214"
       width="764.89545"
       height="443.93393"
       x="18.579332"
       y="24.578672" />
    <rect
       style="opacity:0;fill:#009100;fill-opacity:1;fill-rule:evenodd;stroke:#0e232e;stroke-width:0.5;stroke-linecap:round;stroke-linejoin:miter;stroke-miterlimit:4;stroke-dasharray:none;stroke-dashoffset:0;stroke-opacity:1"
       id="rect4216"
       width="448.22723"
       height="442.63315"
       x="15.383775"
       y="27.676485" />
  </g>
</svg>
