<?xml version="1.0" encoding="UTF-8" standalone="no"?>
<!-- Created with Inkscape (http://www.inkscape.org/) -->

<svg
   xmlns:dc="http://purl.org/dc/elements/1.1/"
   xmlns:cc="http://creativecommons.org/ns#"
   xmlns:rdf="http://www.w3.org/1999/02/22-rdf-syntax-ns#"
   xmlns:svg="http://www.w3.org/2000/svg"
   xmlns="http://www.w3.org/2000/svg"
   xmlns:sodipodi="http://sodipodi.sourceforge.net/DTD/sodipodi-0.dtd"
   xmlns:inkscape="http://www.inkscape.org/namespaces/inkscape"
   width="106.67128mm"
   height="48.841248mm"
   viewBox="0 0 377.9691 173.05954"
   id="svg2"
   version="1.1"
   inkscape:version="0.91 r13725"
   sodipodi:docname="ParIS_system.svg"
   inkscape:export-filename="/home/christian/repos/non_equilibrium/Notes/Project_Presentation/MPI_PKS_Presentation/fig/ParIS_system.png"
   inkscape:export-xdpi="300"
   inkscape:export-ydpi="300">
  <sodipodi:namedview
     id="base"
     pagecolor="#ffffff"
     bordercolor="#666666"
     borderopacity="1.0"
     inkscape:pageopacity="0.0"
     inkscape:pageshadow="2"
     inkscape:zoom="2.8654397"
     inkscape:cx="243.59229"
     inkscape:cy="114.22681"
     inkscape:document-units="px"
     inkscape:current-layer="layer1"
     showgrid="false"
     inkscape:window-width="3200"
     inkscape:window-height="1670"
     inkscape:window-x="0"
     inkscape:window-y="45"
     inkscape:window-maximized="1"
     fit-margin-top="0"
     fit-margin-left="0"
     fit-margin-right="0"
     fit-margin-bottom="0" />
  <defs
     id="defs4">
    <marker
       inkscape:stockid="Arrow1Mend"
       orient="auto"
       refY="0"
       refX="0"
       id="marker4602"
       style="overflow:visible"
       inkscape:isstock="true">
      <path
         id="path4604"
         d="M 0,0 5,-5 -12.5,0 5,5 0,0 Z"
         style="fill:#000000;fill-opacity:1;fill-rule:evenodd;stroke:#000000;stroke-width:1pt;stroke-opacity:1"
         transform="matrix(-0.4,0,0,-0.4,-4,0)"
         inkscape:connector-curvature="0" />
    </marker>
    <marker
       inkscape:stockid="Arrow1Mend"
       orient="auto"
       refY="0"
       refX="0"
       id="Arrow1Mend"
       style="overflow:visible"
       inkscape:isstock="true">
      <path
         id="path4335"
         d="M 0,0 5,-5 -12.5,0 5,5 0,0 Z"
         style="fill:#000000;fill-opacity:1;fill-rule:evenodd;stroke:#000000;stroke-width:1pt;stroke-opacity:1"
         transform="matrix(-0.4,0,0,-0.4,-4,0)"
         inkscape:connector-curvature="0" />
    </marker>
  </defs>
  <metadata
     id="metadata7">
    <rdf:RDF>
      <cc:Work
         rdf:about="">
        <dc:format>image/svg+xml</dc:format>
        <dc:type
           rdf:resource="http://purl.org/dc/dcmitype/StillImage" />
        <dc:title></dc:title>
      </cc:Work>
    </rdf:RDF>
  </metadata>
  <g
     id="layer1"
     inkscape:groupmode="layer"
     inkscape:label="Layer 1"
     transform="translate(-28.121919,-59.277696)">
    <g
       id="g4834">
      <rect
         style="opacity:1;fill:#005c94;fill-opacity:0.37692309;fill-rule:evenodd;stroke:#0e232e;stroke-width:3;stroke-linecap:round;stroke-linejoin:miter;stroke-miterlimit:4;stroke-dasharray:none;stroke-dashoffset:2.4000001;stroke-opacity:1"
         id="rect4136"
         width="129.80142"
         height="134.2433"
         x="32.550526"
         y="93.410957" />
      <g
         transform="matrix(0.80267964,0,0,0.80267964,-173.19475,-115.05607)"
         id="g4165">
        <g
           style="font-style:normal;font-variant:normal;font-weight:normal;font-stretch:normal;letter-spacing:normal;word-spacing:normal;text-anchor:start;fill:none;fill-opacity:1;fill-rule:evenodd;stroke:#000000;stroke-linecap:butt;stroke-linejoin:miter;stroke-miterlimit:10.43299961;stroke-dasharray:none;stroke-dashoffset:0;stroke-opacity:1"
           word-spacing="normal"
           letter-spacing="normal"
           font-size-adjust="none"
           font-stretch="normal"
           font-weight="normal"
           font-variant="normal"
           font-style="normal"
           stroke-miterlimit="10.433"
           xml:space="preserve"
           transform="matrix(1.0629921,0,0,-1.0629921,-186.02362,789.27165)"
           id="g4167"><path
             style="fill:#000000;stroke-width:0"
             inkscape:connector-curvature="0"
             id="path4169"
             d="m 472.49,422.69 0.24,0.88 0.24,0.9 0.24,0.92 0.23,0.92 0.23,0.92 0.21,0.91 0.21,0.92 0.19,0.9 c 0.6,3.34 0.95,6.68 0.95,7.27 0,2.79 -2.74,2.79 -3.34,2.79 -3.78,0 -7.17,-1.39 -9.51,-2.98 -4.04,-2.75 -5.33,-6.08 -5.33,-6.33 0,-0.35 0.34,-0.35 0.49,-0.35 0.4,0 2.75,0.6 3.79,2.49 1.35,2.54 2.79,4.43 7.27,4.43 2.04,0 2.39,-1.39 2.39,-2.19 0,-0.05 -0.15,-2.39 -0.74,-5.83 -0.25,-1.39 -0.4,-2.29 -1.45,-6.57 l -1.79,0 c -1.4,-0.05 -3.69,-1.65 -3.69,-2.39 0,-0.3 0.05,-0.35 1.15,-0.35 l 3.58,0 c -1.04,-3.49 -2.44,-8.27 -4.73,-14.35 -0.44,-1.14 -0.44,-1.24 -0.44,-1.3 0,-0.34 0.39,-0.34 0.49,-0.34 0.7,0 2.24,0.65 3.24,1.64 0.25,0.3 0.35,0.4 0.55,0.9 1.74,4.38 3.23,8.86 4.53,13.45 l 11.21,0 c 0.55,0 1.49,0 2.29,0.5 -0.55,-2.09 -2.59,-10.22 -2.59,-14.15 0,-1.44 0.85,-2.74 2.99,-2.74 6.62,0 10.31,4.14 10.31,5.73 0,0.3 -0.25,0.4 -0.5,0.4 -0.4,0 -3.04,-0.7 -3.78,-2.64 -0.2,-0.4 -0.25,-0.45 -1.2,-0.6 -0.55,-0.1 -1.49,-0.15 -1.54,-0.15 -0.9,0 -2.04,0.6 -2.04,2.14 0,0.6 0.34,3.34 0.49,4.44 0.85,5.52 3.29,14.89 7.57,26.24 0.15,0.35 0.15,0.45 0.15,0.55 0,0.35 -0.3,0.35 -0.5,0.35 -0.74,0 -2.19,-0.7 -3.13,-1.54 -0.05,-0.1 -0.35,-0.35 -0.55,-0.8 -1.99,-4.88 -3.54,-9.91 -5.03,-14.99 z" /><path
             style="fill:#000000;stroke-width:0"
             inkscape:connector-curvature="0"
             id="path4171"
             d="m 525.62,407.05 0.01,0.03 0.01,0.02 0,0.02 0.01,0.02 0.01,0.02 0.01,0.01 0.01,0.02 0.01,0.02 0,0.02 0.01,0.02 0.01,0.03 0.02,0.03 0.01,0.03 0.01,0.03 0.01,0.02 0.01,0.03 0,0.02 0.01,0.03 0.01,0.02 0,0.02 0.01,0.02 0,0.01 0.01,0.02 0,0.01 0,0.02 0.01,0.01 0,0.01 0,0.01 0,0.01 0,0.01 0,0.01 0,0.01 0,0.01 0,0 0,0.01 0,0 0,0 c 0,0.21 -0.13,0.49 -0.59,0.49 -0.07,0 -0.24,0 -0.38,-0.14 -0.07,-0.07 -0.1,-0.1 -0.52,-1.01 -2.27,-5.02 -4.05,-6.77 -9.73,-6.77 l -5.93,0 c -1.08,0 -1.12,0.04 -1.12,0.36 0,0.03 0,0.2 0.15,0.73 l 2.33,9.34 3.9,0 c 2.76,0 3.18,-0.45 3.18,-1.6 0,-0.38 -0.11,-0.98 -0.25,-1.57 -0.1,-0.31 -0.1,-0.35 -0.1,-0.42 0,-0.07 0.03,-0.49 0.59,-0.49 0.49,0 0.53,0.18 0.67,0.77 l 1.91,7.63 c 0.11,0.42 0.11,0.49 0.11,0.53 0,0.35 -0.28,0.49 -0.59,0.49 -0.46,0 -0.49,-0.18 -0.7,-0.91 -0.73,-2.72 -1.78,-3.17 -4.75,-3.17 l -3.66,0 2.1,8.29 c 0.28,1.09 0.31,1.19 1.78,1.19 l 5.68,0 c 4.57,0 5.72,-0.94 5.72,-4.04 0,-0.91 -0.14,-1.96 -0.14,-2.13 0,-0.28 0.1,-0.59 0.59,-0.59 0.52,0 0.56,0.31 0.63,0.9 l 0.62,6.07 c 0.11,1.05 -0.14,1.05 -1.01,1.05 l -19.17,0 c -0.7,0 -1.12,0 -1.12,-0.77 0,-0.49 0.38,-0.49 1.15,-0.49 0.56,0 0.7,0 1.33,-0.07 0.69,-0.07 0.76,-0.14 0.76,-0.49 0,-0.24 -0.1,-0.59 -0.14,-0.76 l -4.57,-18.24 c -0.34,-1.36 -0.38,-1.61 -3.1,-1.61 -0.63,0 -1.04,0 -1.04,-0.76 0,-0.49 0.41,-0.49 1.04,-0.49 l 19.7,0 c 0.87,0 0.91,0 1.19,0.63 z" /></g>      </g>
    </g>
    <g
       id="g4820"
       transform="translate(-2,-2.2946625)">
      <circle
         r="42.815727"
         cy="162.55974"
         cx="360.79559"
         id="path4318"
         style="opacity:1;fill:#b50000;fill-opacity:0.37692309;fill-rule:evenodd;stroke:#0e232e;stroke-width:3;stroke-linecap:round;stroke-linejoin:miter;stroke-miterlimit:4;stroke-dasharray:none;stroke-dashoffset:2.4000001;stroke-opacity:1" />
      <g
         transform="matrix(0.80267964,0,0,0.80267964,94.69498,-113.02895)"
         id="g4237">
        <g
           style="font-style:normal;font-variant:normal;font-weight:normal;font-stretch:normal;letter-spacing:normal;word-spacing:normal;text-anchor:start;fill:none;fill-opacity:1;fill-rule:evenodd;stroke:#000000;stroke-linecap:butt;stroke-linejoin:miter;stroke-miterlimit:10.43299961;stroke-dasharray:none;stroke-dashoffset:0;stroke-opacity:1"
           word-spacing="normal"
           letter-spacing="normal"
           font-size-adjust="none"
           font-stretch="normal"
           font-weight="normal"
           font-variant="normal"
           font-style="normal"
           stroke-miterlimit="10.433"
           xml:space="preserve"
           transform="matrix(1.0629921,0,0,-1.0629921,-186.02362,789.27165)"
           id="g4239"><path
             style="fill:#000000;stroke-width:0"
             inkscape:connector-curvature="0"
             id="path4241"
             d="m 472.49,422.69 0.24,0.88 0.24,0.9 0.24,0.92 0.23,0.92 0.23,0.92 0.21,0.91 0.21,0.92 0.19,0.9 c 0.6,3.34 0.95,6.68 0.95,7.27 0,2.79 -2.74,2.79 -3.34,2.79 -3.78,0 -7.17,-1.39 -9.51,-2.98 -4.04,-2.75 -5.33,-6.08 -5.33,-6.33 0,-0.35 0.34,-0.35 0.49,-0.35 0.4,0 2.75,0.6 3.79,2.49 1.35,2.54 2.79,4.43 7.27,4.43 2.04,0 2.39,-1.39 2.39,-2.19 0,-0.05 -0.15,-2.39 -0.74,-5.83 -0.25,-1.39 -0.4,-2.29 -1.45,-6.57 l -1.79,0 c -1.4,-0.05 -3.69,-1.65 -3.69,-2.39 0,-0.3 0.05,-0.35 1.15,-0.35 l 3.58,0 c -1.04,-3.49 -2.44,-8.27 -4.73,-14.35 -0.44,-1.14 -0.44,-1.24 -0.44,-1.3 0,-0.34 0.39,-0.34 0.49,-0.34 0.7,0 2.24,0.65 3.24,1.64 0.25,0.3 0.35,0.4 0.55,0.9 1.74,4.38 3.23,8.86 4.53,13.45 l 11.21,0 c 0.55,0 1.49,0 2.29,0.5 -0.55,-2.09 -2.59,-10.22 -2.59,-14.15 0,-1.44 0.85,-2.74 2.99,-2.74 6.62,0 10.31,4.14 10.31,5.73 0,0.3 -0.25,0.4 -0.5,0.4 -0.4,0 -3.04,-0.7 -3.78,-2.64 -0.2,-0.4 -0.25,-0.45 -1.2,-0.6 -0.55,-0.1 -1.49,-0.15 -1.54,-0.15 -0.9,0 -2.04,0.6 -2.04,2.14 0,0.6 0.34,3.34 0.49,4.44 0.85,5.52 3.29,14.89 7.57,26.24 0.15,0.35 0.15,0.45 0.15,0.55 0,0.35 -0.3,0.35 -0.5,0.35 -0.74,0 -2.19,-0.7 -3.13,-1.54 -0.05,-0.1 -0.35,-0.35 -0.55,-0.8 -1.99,-4.88 -3.54,-9.91 -5.03,-14.99 z" /><path
             style="fill:#000000;stroke-width:0"
             inkscape:connector-curvature="0"
             id="path4243"
             d="m 512.4,420.06 0.03,0.11 0.03,0.1 0.03,0.1 0.02,0.1 0.03,0.09 0.03,0.08 0.03,0.08 0.03,0.08 0.04,0.07 0.04,0.06 0.04,0.07 0.05,0.06 0.05,0.05 0.06,0.05 0.06,0.05 0.07,0.04 0.07,0.05 0.09,0.03 0.09,0.04 0.09,0.03 0.11,0.03 0.06,0.01 0.06,0.01 0.06,0.01 0.06,0.01 0.07,0.01 0.07,0.01 0.07,0.01 0.08,0.01 0.08,0.01 0.08,0 0.08,0.01 0.09,0 0.09,0.01 0.09,0 0.1,0.01 0.1,0 0.1,0 0.11,0.01 0.11,0 0.11,0 0.12,0 0.12,0 c 0.87,0 1.29,0 1.29,0.73 0,0.32 -0.24,0.53 -0.56,0.53 -0.73,0 -1.6,-0.11 -2.33,-0.11 l -4.78,0 c -0.77,0 -1.64,0.11 -2.41,0.11 -0.21,0 -0.73,0 -0.73,-0.77 0,-0.49 0.39,-0.49 1.15,-0.49 0.04,0 0.73,0 1.33,-0.07 0.69,-0.07 0.94,-0.1 0.94,-0.49 0,-0.21 -0.07,-0.45 -0.14,-0.73 l -4.64,-18.52 c -0.28,-1.14 -0.38,-1.5 -3,-1.5 -0.94,0 -1.29,0 -1.29,-0.76 0,-0.04 0,-0.49 0.56,-0.49 1.05,0 3.66,0.14 4.71,0.14 l 2.4,-0.03 c 0.77,0 1.64,-0.11 2.41,-0.11 0.21,0 0.73,0 0.73,0.77 0,0.48 -0.42,0.48 -1.11,0.48 -0.07,0 -0.81,0 -1.5,0.07 -0.81,0.07 -0.81,0.22 -0.81,0.53 0,0.03 0,0.24 0.14,0.76 z" /></g>      </g>
    </g>
    <path
       style="fill:none;fill-rule:evenodd;stroke:#000000;stroke-width:6;stroke-linecap:butt;stroke-linejoin:miter;stroke-miterlimit:4;stroke-dasharray:none;stroke-opacity:1"
       d="m 162.34933,160.07782 41.95104,0"
       id="path4316"
       inkscape:connector-curvature="0" />
    <path
       style="fill:none;fill-rule:evenodd;stroke:#000000;stroke-width:3;stroke-linecap:butt;stroke-linejoin:miter;stroke-miterlimit:4;stroke-dasharray:none;stroke-opacity:1;marker-end:url(#Arrow1Mend)"
       d="M 227.52265,88.475543 186.06516,149.67469"
       id="path4320"
       inkscape:connector-curvature="0" />
    <text
       xml:space="preserve"
       style="font-style:normal;font-weight:normal;font-size:35px;line-height:100%;font-family:sans-serif;letter-spacing:0px;word-spacing:0px;fill:#000000;fill-opacity:1;stroke:none;stroke-width:1px;stroke-linecap:butt;stroke-linejoin:miter;stroke-opacity:1"
       x="171.25891"
       y="81.565964"
       id="text4596"
       sodipodi:linespacing="100%"><tspan
         sodipodi:role="line"
         id="tspan4598"
         x="171.25891"
         y="81.565964"
         style="font-style:normal;font-variant:normal;font-weight:normal;font-stretch:normal;font-size:25px;line-height:100%;font-family:'Fira Sans';-inkscape-font-specification:'Fira Sans, Normal';text-align:start;writing-mode:lr-tb;text-anchor:start">Linear coupling</tspan></text>
    <text
       xml:space="preserve"
       style="font-style:normal;font-weight:normal;font-size:35px;line-height:100%;font-family:sans-serif;letter-spacing:0px;word-spacing:0px;fill:#000000;fill-opacity:1;stroke:none;stroke-width:1px;stroke-linecap:butt;stroke-linejoin:miter;stroke-opacity:1"
       x="74.524773"
       y="280.95676"
       id="text4754"
       sodipodi:linespacing="100%"><tspan
         sodipodi:role="line"
         id="tspan4756"
         x="74.524773"
         y="280.95676" /></text>
    <g
       id="g4827"
       transform="translate(-2,-6)">
      <circle
         r="33.094685"
         cy="166.26508"
         cx="240.48866"
         id="path4806"
         style="opacity:1;fill:#009100;fill-opacity:0.37692309;fill-rule:evenodd;stroke:#0e232e;stroke-width:3.43874431;stroke-linecap:round;stroke-linejoin:miter;stroke-miterlimit:4;stroke-dasharray:none;stroke-dashoffset:2.4000001;stroke-opacity:1" />
      <g
         transform="matrix(0.78921186,0,0,0.78921186,-25.639628,-104.99326)"
         id="g4285">
        <g
           style="font-style:normal;font-variant:normal;font-weight:normal;font-stretch:normal;letter-spacing:normal;word-spacing:normal;text-anchor:start;fill:none;fill-opacity:1;fill-rule:evenodd;stroke:#000000;stroke-linecap:butt;stroke-linejoin:miter;stroke-miterlimit:10.43299961;stroke-dasharray:none;stroke-dashoffset:0;stroke-opacity:1"
           id="g4287"
           transform="matrix(1.0629921,0,0,-1.0629921,-186.02362,789.27165)"
           xml:space="preserve"
           stroke-miterlimit="10.433"
           font-style="normal"
           font-variant="normal"
           font-weight="normal"
           font-stretch="normal"
           font-size-adjust="none"
           letter-spacing="normal"
           word-spacing="normal"><path
             style="fill:#000000;stroke-width:0"
             inkscape:connector-curvature="0"
             d="m 472.49,422.69 0.24,0.88 0.24,0.9 0.24,0.92 0.23,0.92 0.23,0.92 0.21,0.91 0.21,0.92 0.19,0.9 c 0.6,3.34 0.95,6.68 0.95,7.27 0,2.79 -2.74,2.79 -3.34,2.79 -3.78,0 -7.17,-1.39 -9.51,-2.98 -4.04,-2.75 -5.33,-6.08 -5.33,-6.33 0,-0.35 0.34,-0.35 0.49,-0.35 0.4,0 2.75,0.6 3.79,2.49 1.35,2.54 2.79,4.43 7.27,4.43 2.04,0 2.39,-1.39 2.39,-2.19 0,-0.05 -0.15,-2.39 -0.74,-5.83 -0.25,-1.39 -0.4,-2.29 -1.45,-6.57 l -1.79,0 c -1.4,-0.05 -3.69,-1.65 -3.69,-2.39 0,-0.3 0.05,-0.35 1.15,-0.35 l 3.58,0 c -1.04,-3.49 -2.44,-8.27 -4.73,-14.35 -0.44,-1.14 -0.44,-1.24 -0.44,-1.3 0,-0.34 0.39,-0.34 0.49,-0.34 0.7,0 2.24,0.65 3.24,1.64 0.25,0.3 0.35,0.4 0.55,0.9 1.74,4.38 3.23,8.86 4.53,13.45 l 11.21,0 c 0.55,0 1.49,0 2.29,0.5 -0.55,-2.09 -2.59,-10.22 -2.59,-14.15 0,-1.44 0.85,-2.74 2.99,-2.74 6.62,0 10.31,4.14 10.31,5.73 0,0.3 -0.25,0.4 -0.5,0.4 -0.4,0 -3.04,-0.7 -3.78,-2.64 -0.2,-0.4 -0.25,-0.45 -1.2,-0.6 -0.55,-0.1 -1.49,-0.15 -1.54,-0.15 -0.9,0 -2.04,0.6 -2.04,2.14 0,0.6 0.34,3.34 0.49,4.44 0.85,5.52 3.29,14.89 7.57,26.24 0.15,0.35 0.15,0.45 0.15,0.55 0,0.35 -0.3,0.35 -0.5,0.35 -0.74,0 -2.19,-0.7 -3.13,-1.54 -0.05,-0.1 -0.35,-0.35 -0.55,-0.8 -1.99,-4.88 -3.54,-9.91 -5.03,-14.99 z"
             id="path4289" /><path
             style="fill:#000000;stroke-width:0"
             inkscape:connector-curvature="0"
             d="m 527.4,423.06 -0.01,0.02 0,0.01 0,0.02 0,0.02 0,0.02 -0.01,0.02 0,0.01 -0.01,0.02 0,0.02 -0.01,0.02 -0.01,0.02 -0.01,0.02 -0.01,0.02 -0.01,0.02 -0.01,0.01 -0.01,0.02 -0.02,0.02 -0.01,0.01 -0.02,0.02 -0.01,0.01 -0.02,0.02 -0.02,0.01 -0.02,0.01 -0.02,0.02 -0.02,0.01 -0.03,0.01 -0.02,0 -0.03,0.01 -0.01,0 -0.02,0 -0.01,0.01 -0.02,0 -0.01,0 -0.02,0 -0.01,0 -0.02,0 c -0.24,0 -0.31,-0.07 -0.63,-0.42 l -2.54,-2.68 c -0.32,0.42 -2.27,3.1 -6.55,3.1 -8.48,0 -16.78,-7.49 -16.78,-15.37 0,-5.69 4.46,-9.84 10.7,-9.84 1.89,0 5.24,0.39 8.83,3.42 2.75,2.33 3.52,5.37 3.52,5.65 0,0.45 -0.42,0.45 -0.59,0.45 -0.46,0 -0.52,-0.17 -0.63,-0.55 -1.43,-4.78 -6.31,-7.71 -10.53,-7.71 -3.7,0 -7.81,1.99 -7.81,7.49 0,1.02 0.24,6.52 4.25,10.92 2.41,2.68 6.07,4.29 9.38,4.29 4.04,0 6.42,-2.93 6.42,-6.84 0,-0.97 -0.11,-1.22 -0.11,-1.43 0,-0.45 0.46,-0.45 0.63,-0.45 0.56,0 0.56,0.1 0.73,0.77 z"
             id="path4291" /></g>      </g>
    </g>
    <path
       style="fill:none;fill-rule:evenodd;stroke:#000000;stroke-width:10;stroke-linecap:butt;stroke-linejoin:miter;stroke-miterlimit:4;stroke-dasharray:none;stroke-opacity:1"
       d="m 272.92883,160.07782 41.95104,0"
       id="path4316-2"
       inkscape:connector-curvature="0" />
  </g>
</svg>
