<?xml version="1.0" encoding="UTF-8" standalone="no"?>
<!-- Created with Inkscape (http://www.inkscape.org/) -->

<svg
   xmlns:dc="http://purl.org/dc/elements/1.1/"
   xmlns:cc="http://creativecommons.org/ns#"
   xmlns:rdf="http://www.w3.org/1999/02/22-rdf-syntax-ns#"
   xmlns:svg="http://www.w3.org/2000/svg"
   xmlns="http://www.w3.org/2000/svg"
   xmlns:sodipodi="http://sodipodi.sourceforge.net/DTD/sodipodi-0.dtd"
   xmlns:inkscape="http://www.inkscape.org/namespaces/inkscape"
   width="149.55925mm"
   height="32.315411mm"
   viewBox="0 0 529.93435 114.50342"
   id="svg2"
   version="1.1"
   inkscape:version="0.91 r13725"
   sodipodi:docname="TimeContour1.svg"
   inkscape:export-filename="/home/christian/repos/non_equilibrium/Notes/Project_Presentation/MPI_PKS_Presentation/fig/TimeContour3.png"
   inkscape:export-xdpi="300"
   inkscape:export-ydpi="300">
  <sodipodi:namedview
     id="base"
     pagecolor="#ffffff"
     bordercolor="#666666"
     borderopacity="1.0"
     inkscape:pageopacity="0.0"
     inkscape:pageshadow="2"
     inkscape:zoom="2.2843751"
     inkscape:cx="475.43086"
     inkscape:cy="-62.726502"
     inkscape:document-units="px"
     inkscape:current-layer="layer3"
     showgrid="false"
     inkscape:window-width="3200"
     inkscape:window-height="1670"
     inkscape:window-x="0"
     inkscape:window-y="45"
     inkscape:window-maximized="1"
     fit-margin-top="0"
     fit-margin-left="0"
     fit-margin-right="0"
     fit-margin-bottom="0" />
  <defs
     id="defs4">
    <marker
       inkscape:isstock="true"
       style="overflow:visible"
       id="marker4304"
       refX="0"
       refY="0"
       orient="auto"
       inkscape:stockid="Arrow2Mend">
      <path
         transform="scale(-0.6,-0.6)"
         d="M 8.7185878,4.0337352 -2.2072895,0.01601326 8.7185884,-4.0017078 c -1.7454984,2.3720609 -1.7354408,5.6174519 -6e-7,8.035443 z"
         style="fill:#000000;fill-opacity:1;fill-rule:evenodd;stroke:#000000;stroke-width:0.625;stroke-linejoin:round;stroke-opacity:1"
         id="path4306"
         inkscape:connector-curvature="0" />
    </marker>
    <marker
       inkscape:isstock="true"
       style="overflow:visible"
       id="marker5387"
       refX="0"
       refY="0"
       orient="auto"
       inkscape:stockid="Arrow1Lstart">
      <path
         inkscape:connector-curvature="0"
         transform="matrix(0.8,0,0,0.8,10,0)"
         style="fill:#009100;fill-opacity:1;fill-rule:evenodd;stroke:#000000;stroke-width:1pt;stroke-opacity:1"
         d="M 0,0 5,-5 -12.5,0 5,5 0,0 Z"
         id="path5389" />
    </marker>
    <marker
       inkscape:isstock="true"
       style="overflow:visible"
       id="Arrow1Mstart"
       refX="0"
       refY="0"
       orient="auto"
       inkscape:stockid="Arrow1Mstart">
      <path
         inkscape:connector-curvature="0"
         transform="matrix(0.4,0,0,0.4,4,0)"
         style="fill:#009100;fill-opacity:1;fill-rule:evenodd;stroke:#009100;stroke-width:1pt;stroke-opacity:1"
         d="M 0,0 5,-5 -12.5,0 5,5 0,0 Z"
         id="path4148" />
    </marker>
    <marker
       inkscape:collect="always"
       inkscape:stockid="Arrow2Mend"
       orient="auto"
       refY="0"
       refX="0"
       id="Arrow2Mend"
       style="overflow:visible"
       inkscape:isstock="true">
      <path
         inkscape:connector-curvature="0"
         id="path4169"
         style="fill:#000000;fill-opacity:1;fill-rule:evenodd;stroke:#000000;stroke-width:0.625;stroke-linejoin:round;stroke-opacity:1"
         d="M 8.7185878,4.0337352 -2.2072895,0.01601326 8.7185884,-4.0017078 c -1.7454984,2.3720609 -1.7354408,5.6174519 -6e-7,8.035443 z"
         transform="scale(-0.6,-0.6)" />
    </marker>
    <marker
       inkscape:stockid="Arrow2Lend"
       orient="auto"
       refY="0"
       refX="0"
       id="Arrow2Lend"
       style="overflow:visible"
       inkscape:isstock="true">
      <path
         inkscape:connector-curvature="0"
         id="path4163"
         style="fill:#000000;fill-opacity:1;fill-rule:evenodd;stroke:#000000;stroke-width:0.625;stroke-linejoin:round;stroke-opacity:1"
         d="M 8.7185878,4.0337352 -2.2072895,0.01601326 8.7185884,-4.0017078 c -1.7454984,2.3720609 -1.7354408,5.6174519 -6e-7,8.035443 z"
         transform="matrix(-1.1,0,0,-1.1,-1.1,0)" />
    </marker>
    <marker
       inkscape:stockid="Arrow1Lend"
       orient="auto"
       refY="0"
       refX="0"
       id="Arrow1Lend"
       style="overflow:visible"
       inkscape:isstock="true">
      <path
         inkscape:connector-curvature="0"
         id="path4145"
         d="M 0,0 5,-5 -12.5,0 5,5 0,0 Z"
         style="fill:#009100;fill-opacity:1;fill-rule:evenodd;stroke:#000000;stroke-width:1pt;stroke-opacity:1"
         transform="matrix(-0.8,0,0,-0.8,-10,0)" />
    </marker>
    <marker
       inkscape:stockid="Arrow1Lstart"
       orient="auto"
       refY="0"
       refX="0"
       id="Arrow1Lstart"
       style="overflow:visible"
       inkscape:isstock="true">
      <path
         inkscape:connector-curvature="0"
         id="path4142"
         d="M 0,0 5,-5 -12.5,0 5,5 0,0 Z"
         style="fill:#009100;fill-opacity:1;fill-rule:evenodd;stroke:#009100;stroke-width:1pt;stroke-opacity:1"
         transform="matrix(0.8,0,0,0.8,10,0)" />
    </marker>
    <marker
       inkscape:stockid="Arrow1Lstart"
       orient="auto"
       refY="0"
       refX="0"
       id="Arrow1Lstart-3"
       style="overflow:visible"
       inkscape:isstock="true">
      <path
         id="path4142-6"
         d="M 0,0 5,-5 -12.5,0 5,5 0,0 Z"
         style="fill:#009100;fill-opacity:1;fill-rule:evenodd;stroke:#009100;stroke-width:1pt;stroke-opacity:1"
         transform="matrix(0.8,0,0,0.8,10,0)"
         inkscape:connector-curvature="0" />
    </marker>
    <marker
       inkscape:stockid="Arrow1Lend"
       orient="auto"
       refY="0"
       refX="0"
       id="Arrow1Lend-5"
       style="overflow:visible"
       inkscape:isstock="true">
      <path
         id="path4145-3"
         d="M 0,0 5,-5 -12.5,0 5,5 0,0 Z"
         style="fill:#009100;fill-opacity:1;fill-rule:evenodd;stroke:#000000;stroke-width:1pt;stroke-opacity:1"
         transform="matrix(-0.8,0,0,-0.8,-10,0)"
         inkscape:connector-curvature="0" />
    </marker>
  </defs>
  <metadata
     id="metadata7">
    <rdf:RDF>
      <cc:Work
         rdf:about="">
        <dc:format>image/svg+xml</dc:format>
        <dc:type
           rdf:resource="http://purl.org/dc/dcmitype/StillImage" />
        <dc:title></dc:title>
      </cc:Work>
    </rdf:RDF>
  </metadata>
  <g
     transform="translate(-124.58315,-104.64317)"
     inkscape:label="Layer 1"
     inkscape:groupmode="layer"
     id="layer1">
    <path
       style="fill:none;fill-rule:evenodd;stroke:#000000;stroke-width:2;stroke-linecap:butt;stroke-linejoin:miter;stroke-miterlimit:4;stroke-dasharray:none;stroke-opacity:1;marker-end:url(#Arrow2Mend)"
       d="m 145.53233,164.9745 497.48987,0"
       id="path4136"
       inkscape:connector-curvature="0" />
    <path
       sodipodi:nodetypes="ccscc"
       inkscape:connector-curvature="0"
       id="path5000"
       d="m 185.50919,134.37491 384.2221,0 c 0,0 12.15346,7.28573 12.15346,29.36571 0,19.81561 -11.89128,29.85927 -11.89128,29.85927 l -383.99074,0"
       style="fill:none;fill-rule:evenodd;stroke:#009100;stroke-width:2.5;stroke-linecap:round;stroke-linejoin:round;stroke-miterlimit:4;stroke-dasharray:none;stroke-opacity:1" />
    <path
       inkscape:connector-curvature="0"
       id="path5491"
       d="m 376.18943,193.63611 -9.87083,0"
       style="fill:#009100;fill-rule:evenodd;stroke:#000000;stroke-width:1.5;stroke-linecap:butt;stroke-linejoin:miter;stroke-miterlimit:4;stroke-dasharray:none;stroke-opacity:1;marker-end:url(#Arrow1Lend)" />
    <path
       inkscape:connector-curvature="0"
       id="path5491-5"
       d="m 380.76635,134.46759 9.87083,0"
       style="fill:#009100;fill-rule:evenodd;stroke:#000000;stroke-width:1.5;stroke-linecap:butt;stroke-linejoin:miter;stroke-miterlimit:4;stroke-dasharray:none;stroke-opacity:1;marker-end:url(#Arrow1Lend-5)" />
    <circle
       transform="scale(-1,1)"
       r="1.6830813"
       cy="134.37787"
       cx="-186.0408"
       id="path8230"
       style="opacity:1;fill:#0e232e;fill-opacity:1;fill-rule:evenodd;stroke:#0e232e;stroke-width:0.28418434;stroke-linecap:round;stroke-linejoin:round;stroke-miterlimit:4;stroke-dasharray:none;stroke-dashoffset:0;stroke-opacity:1" />
    <circle
       transform="scale(-1,1)"
       r="1.6830813"
       cy="193.61256"
       cx="-186.47885"
       id="path8230-5"
       style="opacity:1;fill:#0e232e;fill-opacity:1;fill-rule:evenodd;stroke:#0e232e;stroke-width:0.28418434;stroke-linecap:round;stroke-linejoin:round;stroke-miterlimit:4;stroke-dasharray:none;stroke-dashoffset:0;stroke-opacity:1" />
    <g
       id="g4352"
       transform="matrix(2.342869,0,0,2.342869,71.004189,-637.18436)">
      <g
         word-spacing="normal"
         letter-spacing="normal"
         font-size-adjust="none"
         font-stretch="normal"
         font-weight="normal"
         font-variant="normal"
         font-style="normal"
         stroke-miterlimit="10.433"
         xml:space="preserve"
         transform="matrix(0.16467091,0,0,-0.16467091,-28.81741,405.07893)"
         id="content"
         style="font-style:normal;font-variant:normal;font-weight:normal;font-stretch:normal;letter-spacing:normal;word-spacing:normal;text-anchor:start;fill:none;fill-opacity:1;fill-rule:evenodd;stroke:#000000;stroke-linecap:butt;stroke-linejoin:miter;stroke-miterlimit:10.43299961;stroke-dasharray:none;stroke-dashoffset:0;stroke-opacity:1"><path
           id="path4355"
           d="m 466.26,425.93 4.69,0 c 0.99,0 1.49,0 1.49,0.99 0,0.55 -0.5,0.55 -1.4,0.55 l -4.38,0 c 1.79,7.07 2.04,8.07 2.04,8.37 0,0.84 -0.59,1.34 -1.44,1.34 -0.15,0 -1.55,-0.05 -1.99,-1.79 l -1.95,-7.92 -4.68,0 c -1,0 -1.5,0 -1.5,-0.95 0,-0.59 0.4,-0.59 1.4,-0.59 l 4.39,0 c -3.59,-14.15 -3.79,-15 -3.79,-15.89 0,-2.7 1.89,-4.59 4.58,-4.59 5.08,0 7.92,7.28 7.92,7.67 0,0.5 -0.4,0.5 -0.6,0.5 -0.45,0 -0.49,-0.15 -0.74,-0.69 -2.14,-5.19 -4.78,-6.38 -6.48,-6.38 -1.05,0 -1.54,0.65 -1.54,2.29 0,1.2 0.1,1.54 0.29,2.39 z"
           inkscape:connector-curvature="0"
           style="fill:#000000;stroke-width:0" /><path
           id="path4357"
           d="m 491.99,410.12 0,0.71 -0.02,0.68 -0.03,0.66 -0.04,0.64 -0.06,0.62 -0.08,0.59 -0.09,0.58 -0.11,0.56 -0.12,0.55 -0.15,0.53 -0.17,0.51 -0.19,0.5 -0.21,0.49 -0.24,0.48 -0.26,0.47 -0.14,0.24 -0.15,0.23 c -1.07,1.6 -3.24,2.99 -6.03,2.99 l 0,-0.97 c 1.89,0 3.7,-1.15 4.33,-3.18 0.56,-1.88 0.59,-4.39 0.59,-7.42 0,-2.58 0,-5.17 -0.45,-7.36 -0.7,-3.17 -3.07,-3.94 -4.47,-3.94 l 0,0 c -1.6,0 -3.73,0.94 -4.43,3.8 -0.49,2.06 -0.49,4.92 -0.49,7.5 0,2.54 0,5.19 0.53,7.11 0.73,2.76 2.96,3.49 4.39,3.49 l 0,0.97 c -8.09,0 -8.09,-9.52 -8.09,-12.03 0,-2.51 0,-11.82 8.09,-11.82 8.09,0 8.09,9.31 8.09,11.82 z"
           inkscape:connector-curvature="0"
           style="fill:#000000;stroke-width:0" /></g>    </g>
    <g
       transform="matrix(2.7013862,0,0,2.7013862,434.36071,-756.12284)"
       id="g4491">
      <g
         style="font-style:normal;font-variant:normal;font-weight:normal;font-stretch:normal;letter-spacing:normal;word-spacing:normal;text-anchor:start;fill:none;fill-opacity:1;fill-rule:evenodd;stroke:#000000;stroke-linecap:butt;stroke-linejoin:miter;stroke-miterlimit:10.43299961;stroke-dasharray:none;stroke-dashoffset:0;stroke-opacity:1"
         id="g4493"
         transform="matrix(0.16467091,0,0,-0.16467091,-28.81741,405.07893)"
         xml:space="preserve"
         stroke-miterlimit="10.433"
         font-style="normal"
         font-variant="normal"
         font-weight="normal"
         font-stretch="normal"
         font-size-adjust="none"
         letter-spacing="normal"
         word-spacing="normal"><path
           style="fill:#000000;stroke-width:0"
           inkscape:connector-curvature="0"
           d="m 477.27,436.24 0.03,0.13 0.03,0.12 0.03,0.11 0.03,0.11 0.03,0.11 0.03,0.09 0.03,0.1 0.03,0.08 0.03,0.09 0.03,0.07 0.03,0.08 0.03,0.06 0.03,0.07 0.03,0.06 0.03,0.05 0.03,0.06 0.03,0.04 0.03,0.05 0.04,0.04 0.03,0.04 0.04,0.03 0.03,0.04 0.04,0.03 0.04,0.02 0.04,0.03 0.05,0.02 0.04,0.02 0.05,0.02 0.05,0.02 0.05,0.02 0.05,0.01 0.05,0.02 c 0.45,0.1 2.1,0.1 3.14,0.1 5.04,0 7.28,-0.2 7.28,-4.09 0,-0.74 -0.2,-2.68 -0.4,-3.98 -0.05,-0.2 -0.15,-0.8 -0.15,-0.95 0,-0.3 0.15,-0.64 0.6,-0.64 0.55,0 0.64,0.39 0.74,1.14 l 1.35,8.67 c 0.05,0.2 0.1,0.7 0.1,0.85 0,0.54 -0.5,0.54 -1.35,0.54 l -27.64,0 c -1.2,0 -1.25,-0.05 -1.6,-0.99 l -2.98,-8.77 c -0.05,-0.1 -0.3,-0.8 -0.3,-0.9 0,-0.29 0.25,-0.54 0.59,-0.54 0.5,0 0.55,0.25 0.85,1.04 2.69,7.72 3.98,8.62 11.36,8.62 l 1.94,0 c 1.4,0 1.4,-0.2 1.4,-0.6 0,-0.3 -0.16,-0.9 -0.2,-1.04 l -6.68,-26.61 c -0.45,-1.84 -0.6,-2.39 -5.93,-2.39 -1.79,0 -2.09,0 -2.09,-0.94 0,-0.6 0.55,-0.6 0.85,-0.6 1.34,0 2.74,0.1 4.08,0.1 l 8.37,0 c 1.44,0 2.94,-0.1 4.33,-0.1 0.5,0 1.1,0 1.1,1 0,0.54 -0.4,0.54 -1.69,0.54 -1.25,0 -1.89,0 -3.19,0.1 -1.45,0.15 -1.84,0.3 -1.84,1.1 0,0.05 0,0.3 0.19,1.05 z"
           id="path4495" /></g>    </g>
    <path
       inkscape:connector-curvature="0"
       id="path4601"
       d="m 566.0957,159.55252 0,10.77999"
       style="fill:none;fill-rule:evenodd;stroke:#000000;stroke-width:1px;stroke-linecap:butt;stroke-linejoin:miter;stroke-opacity:1" />
    <path
       inkscape:connector-curvature="0"
       id="path4601-3"
       d="m 185.47188,159.50583 0,10.77999"
       style="fill:none;fill-rule:evenodd;stroke:#000000;stroke-width:1px;stroke-linecap:butt;stroke-linejoin:miter;stroke-opacity:1" />
  </g>
  <g
     transform="translate(1,2.6113409)"
     style="display:inline"
     inkscape:label="Dots"
     id="layer2"
     inkscape:groupmode="layer">
    <circle
       transform="matrix(-1,0,0,1,-125.58315,-107.25451)"
       r="1.6830813"
       cy="134.37787"
       cx="-224.38779"
       id="path8230-2"
       style="opacity:1;fill:#0e232e;fill-opacity:1;fill-rule:evenodd;stroke:#0e232e;stroke-width:0.28418434;stroke-linecap:round;stroke-linejoin:round;stroke-miterlimit:4;stroke-dasharray:none;stroke-dashoffset:0;stroke-opacity:1" />
    <circle
       transform="matrix(-1,0,0,1,-125.58315,-107.25451)"
       r="0.76093256"
       cy="134.35303"
       cx="-224.40854"
       id="path8230-9"
       style="opacity:1;fill:#0e232e;fill-opacity:1;fill-rule:evenodd;stroke:#0e232e;stroke-width:0.12848169;stroke-linecap:round;stroke-linejoin:round;stroke-miterlimit:4;stroke-dasharray:none;stroke-dashoffset:0;stroke-opacity:1" />
    <circle
       transform="matrix(-1,0,0,1,-125.58315,-107.25451)"
       r="1.6830813"
       cy="134.35303"
       cx="-262.75552"
       id="path8230-2-1"
       style="opacity:1;fill:#0e232e;fill-opacity:1;fill-rule:evenodd;stroke:#0e232e;stroke-width:0.28418434;stroke-linecap:round;stroke-linejoin:round;stroke-miterlimit:4;stroke-dasharray:none;stroke-dashoffset:0;stroke-opacity:1" />
    <circle
       transform="matrix(-1,0,0,1,-125.58315,-107.25451)"
       r="0.76093256"
       cy="134.31343"
       cx="-262.75198"
       id="path8230-27"
       style="opacity:1;fill:#0e232e;fill-opacity:1;fill-rule:evenodd;stroke:#0e232e;stroke-width:0.12848169;stroke-linecap:round;stroke-linejoin:round;stroke-miterlimit:4;stroke-dasharray:none;stroke-dashoffset:0;stroke-opacity:1" />
    <circle
       transform="matrix(-1,0,0,1,-125.58315,-107.25451)"
       r="1.6830813"
       cy="134.31343"
       cx="-301.09894"
       id="path8230-2-0"
       style="opacity:1;fill:#0e232e;fill-opacity:1;fill-rule:evenodd;stroke:#0e232e;stroke-width:0.28418434;stroke-linecap:round;stroke-linejoin:round;stroke-miterlimit:4;stroke-dasharray:none;stroke-dashoffset:0;stroke-opacity:1" />
    <circle
       transform="matrix(-1,0,0,1,-125.58315,-107.25451)"
       r="1.6830813"
       cy="134.28859"
       cx="-301.11969"
       id="path8230-9-9"
       style="opacity:1;fill:#0e232e;fill-opacity:1;fill-rule:evenodd;stroke:#0e232e;stroke-width:0.28418434;stroke-linecap:round;stroke-linejoin:round;stroke-miterlimit:4;stroke-dasharray:none;stroke-dashoffset:0;stroke-opacity:1" />
    <circle
       transform="matrix(-1,0,0,1,-125.58315,-107.25451)"
       r="1.6830813"
       cy="134.28859"
       cx="-339.46671"
       id="path8230-2-1-3"
       style="opacity:1;fill:#0e232e;fill-opacity:1;fill-rule:evenodd;stroke:#0e232e;stroke-width:0.28418434;stroke-linecap:round;stroke-linejoin:round;stroke-miterlimit:4;stroke-dasharray:none;stroke-dashoffset:0;stroke-opacity:1" />
    <circle
       transform="matrix(-1,0,0,1,-125.58315,-107.25451)"
       r="1.6830813"
       cy="134.27756"
       cx="-339.46609"
       id="path8230-6"
       style="opacity:1;fill:#0e232e;fill-opacity:1;fill-rule:evenodd;stroke:#0e232e;stroke-width:0.28418434;stroke-linecap:round;stroke-linejoin:round;stroke-miterlimit:4;stroke-dasharray:none;stroke-dashoffset:0;stroke-opacity:1" />
    <circle
       transform="matrix(-1,0,0,1,-125.58315,-107.25451)"
       r="1.6830813"
       cy="134.25273"
       cx="-416.18082"
       id="path8230-2-1-6"
       style="opacity:1;fill:#0e232e;fill-opacity:1;fill-rule:evenodd;stroke:#0e232e;stroke-width:0.28418434;stroke-linecap:round;stroke-linejoin:round;stroke-miterlimit:4;stroke-dasharray:none;stroke-dashoffset:0;stroke-opacity:1" />
    <circle
       transform="matrix(-1,0,0,1,-125.58315,-107.25451)"
       r="1.6830813"
       cy="134.21312"
       cx="-416.17728"
       id="path8230-27-1"
       style="opacity:1;fill:#0e232e;fill-opacity:1;fill-rule:evenodd;stroke:#0e232e;stroke-width:0.28418434;stroke-linecap:round;stroke-linejoin:round;stroke-miterlimit:4;stroke-dasharray:none;stroke-dashoffset:0;stroke-opacity:1" />
    <circle
       transform="matrix(-1,0,0,1,-125.58315,-107.25451)"
       r="1.6830813"
       cy="134.21312"
       cx="-454.52423"
       id="path8230-2-0-8"
       style="opacity:1;fill:#0e232e;fill-opacity:1;fill-rule:evenodd;stroke:#0e232e;stroke-width:0.28418434;stroke-linecap:round;stroke-linejoin:round;stroke-miterlimit:4;stroke-dasharray:none;stroke-dashoffset:0;stroke-opacity:1" />
    <circle
       transform="matrix(-1,0,0,1,-125.58315,-107.25451)"
       r="1.6830813"
       cy="134.18828"
       cx="-454.54498"
       id="path8230-9-9-7"
       style="opacity:1;fill:#0e232e;fill-opacity:1;fill-rule:evenodd;stroke:#0e232e;stroke-width:0.28418434;stroke-linecap:round;stroke-linejoin:round;stroke-miterlimit:4;stroke-dasharray:none;stroke-dashoffset:0;stroke-opacity:1" />
    <circle
       transform="matrix(-1,0,0,1,-125.58315,-107.25451)"
       r="1.6830813"
       cy="134.18828"
       cx="-492.892"
       id="path8230-2-1-3-9"
       style="opacity:1;fill:#0e232e;fill-opacity:1;fill-rule:evenodd;stroke:#0e232e;stroke-width:0.28418434;stroke-linecap:round;stroke-linejoin:round;stroke-miterlimit:4;stroke-dasharray:none;stroke-dashoffset:0;stroke-opacity:1" />
    <circle
       transform="matrix(-1,0,0,1,-125.58315,-107.25451)"
       r="1.6830813"
       cy="134.28377"
       cx="-493.00464"
       id="path8230-2-1-6-2"
       style="opacity:1;fill:#0e232e;fill-opacity:1;fill-rule:evenodd;stroke:#0e232e;stroke-width:0.28418434;stroke-linecap:round;stroke-linejoin:round;stroke-miterlimit:4;stroke-dasharray:none;stroke-dashoffset:0;stroke-opacity:1" />
    <circle
       transform="matrix(-1,0,0,1,-125.58315,-107.25451)"
       r="1.6830813"
       cy="134.24416"
       cx="-493.0011"
       id="path8230-27-1-0"
       style="opacity:1;fill:#0e232e;fill-opacity:1;fill-rule:evenodd;stroke:#0e232e;stroke-width:0.28418434;stroke-linecap:round;stroke-linejoin:round;stroke-miterlimit:4;stroke-dasharray:none;stroke-dashoffset:0;stroke-opacity:1" />
    <circle
       transform="matrix(-1,0,0,1,-125.58315,-107.25451)"
       r="1.6830813"
       cy="134.24416"
       cx="-531.34802"
       id="path8230-2-0-8-2"
       style="opacity:1;fill:#0e232e;fill-opacity:1;fill-rule:evenodd;stroke:#0e232e;stroke-width:0.28418434;stroke-linecap:round;stroke-linejoin:round;stroke-miterlimit:4;stroke-dasharray:none;stroke-dashoffset:0;stroke-opacity:1" />
    <circle
       transform="matrix(-1,0,0,1,-125.58315,-107.25451)"
       r="1.6830813"
       cy="134.21931"
       cx="-531.36877"
       id="path8230-9-9-7-3"
       style="opacity:1;fill:#0e232e;fill-opacity:1;fill-rule:evenodd;stroke:#0e232e;stroke-width:0.28418434;stroke-linecap:round;stroke-linejoin:round;stroke-miterlimit:4;stroke-dasharray:none;stroke-dashoffset:0;stroke-opacity:1" />
    <circle
       transform="matrix(-1,0,0,1,-125.58315,-107.25451)"
       r="1.6830813"
       cy="134.21931"
       cx="-569.71576"
       id="path8230-2-1-3-9-7"
       style="opacity:1;fill:#0e232e;fill-opacity:1;fill-rule:evenodd;stroke:#0e232e;stroke-width:0.28418434;stroke-linecap:round;stroke-linejoin:round;stroke-miterlimit:4;stroke-dasharray:none;stroke-dashoffset:0;stroke-opacity:1" />
    <circle
       transform="matrix(-1,0,0,1,-125.58315,-107.25451)"
       r="1.6830813"
       cy="193.61256"
       cx="-224.82584"
       id="path8230-2-9"
       style="opacity:1;fill:#0e232e;fill-opacity:1;fill-rule:evenodd;stroke:#0e232e;stroke-width:0.28418434;stroke-linecap:round;stroke-linejoin:round;stroke-miterlimit:4;stroke-dasharray:none;stroke-dashoffset:0;stroke-opacity:1" />
    <circle
       transform="matrix(-1,0,0,1,-125.58315,-107.25451)"
       r="1.6830813"
       cy="193.58772"
       cx="-263.19357"
       id="path8230-2-1-8"
       style="opacity:1;fill:#0e232e;fill-opacity:1;fill-rule:evenodd;stroke:#0e232e;stroke-width:0.28418434;stroke-linecap:round;stroke-linejoin:round;stroke-miterlimit:4;stroke-dasharray:none;stroke-dashoffset:0;stroke-opacity:1" />
    <circle
       transform="matrix(-1,0,0,1,-125.58315,-107.25451)"
       r="1.6830813"
       cy="193.54813"
       cx="-263.19003"
       id="path8230-27-9"
       style="opacity:1;fill:#0e232e;fill-opacity:1;fill-rule:evenodd;stroke:#0e232e;stroke-width:0.28418434;stroke-linecap:round;stroke-linejoin:round;stroke-miterlimit:4;stroke-dasharray:none;stroke-dashoffset:0;stroke-opacity:1" />
    <circle
       transform="matrix(-1,0,0,1,-125.58315,-107.25451)"
       r="1.6830813"
       cy="193.54813"
       cx="-301.53696"
       id="path8230-2-0-7"
       style="opacity:1;fill:#0e232e;fill-opacity:1;fill-rule:evenodd;stroke:#0e232e;stroke-width:0.28418434;stroke-linecap:round;stroke-linejoin:round;stroke-miterlimit:4;stroke-dasharray:none;stroke-dashoffset:0;stroke-opacity:1" />
    <circle
       transform="matrix(-1,0,0,1,-125.58315,-107.25451)"
       r="1.6830813"
       cy="193.52328"
       cx="-301.55771"
       id="path8230-9-9-3"
       style="opacity:1;fill:#0e232e;fill-opacity:1;fill-rule:evenodd;stroke:#0e232e;stroke-width:0.28418434;stroke-linecap:round;stroke-linejoin:round;stroke-miterlimit:4;stroke-dasharray:none;stroke-dashoffset:0;stroke-opacity:1" />
    <circle
       transform="matrix(-1,0,0,1,-125.58315,-107.25451)"
       r="1.6830813"
       cy="193.52328"
       cx="-339.90472"
       id="path8230-2-1-3-6"
       style="opacity:1;fill:#0e232e;fill-opacity:1;fill-rule:evenodd;stroke:#0e232e;stroke-width:0.28418434;stroke-linecap:round;stroke-linejoin:round;stroke-miterlimit:4;stroke-dasharray:none;stroke-dashoffset:0;stroke-opacity:1" />
    <circle
       transform="matrix(-1,0,0,1,-125.58315,-107.25451)"
       r="1.6830813"
       cy="193.51225"
       cx="-339.90411"
       id="path8230-6-1"
       style="opacity:1;fill:#0e232e;fill-opacity:1;fill-rule:evenodd;stroke:#0e232e;stroke-width:0.28418434;stroke-linecap:round;stroke-linejoin:round;stroke-miterlimit:4;stroke-dasharray:none;stroke-dashoffset:0;stroke-opacity:1" />
    <circle
       transform="matrix(-1,0,0,1,-125.58315,-107.25451)"
       r="1.6830813"
       cy="193.48743"
       cx="-416.61884"
       id="path8230-2-1-6-3"
       style="opacity:1;fill:#0e232e;fill-opacity:1;fill-rule:evenodd;stroke:#0e232e;stroke-width:0.28418434;stroke-linecap:round;stroke-linejoin:round;stroke-miterlimit:4;stroke-dasharray:none;stroke-dashoffset:0;stroke-opacity:1" />
    <circle
       transform="matrix(-1,0,0,1,-125.58315,-107.25451)"
       r="1.6830813"
       cy="193.44781"
       cx="-416.6153"
       id="path8230-27-1-1"
       style="opacity:1;fill:#0e232e;fill-opacity:1;fill-rule:evenodd;stroke:#0e232e;stroke-width:0.28418434;stroke-linecap:round;stroke-linejoin:round;stroke-miterlimit:4;stroke-dasharray:none;stroke-dashoffset:0;stroke-opacity:1" />
    <circle
       transform="matrix(-1,0,0,1,-125.58315,-107.25451)"
       r="1.6830813"
       cy="193.44781"
       cx="-454.96228"
       id="path8230-2-0-8-9"
       style="opacity:1;fill:#0e232e;fill-opacity:1;fill-rule:evenodd;stroke:#0e232e;stroke-width:0.28418434;stroke-linecap:round;stroke-linejoin:round;stroke-miterlimit:4;stroke-dasharray:none;stroke-dashoffset:0;stroke-opacity:1" />
    <circle
       transform="matrix(-1,0,0,1,-125.58315,-107.25451)"
       r="1.6830813"
       cy="193.42297"
       cx="-454.98303"
       id="path8230-9-9-7-4"
       style="opacity:1;fill:#0e232e;fill-opacity:1;fill-rule:evenodd;stroke:#0e232e;stroke-width:0.28418434;stroke-linecap:round;stroke-linejoin:round;stroke-miterlimit:4;stroke-dasharray:none;stroke-dashoffset:0;stroke-opacity:1" />
    <circle
       transform="matrix(-1,0,0,1,-125.58315,-107.25451)"
       r="1.6830813"
       cy="193.42297"
       cx="-493.33005"
       id="path8230-2-1-3-9-78"
       style="opacity:1;fill:#0e232e;fill-opacity:1;fill-rule:evenodd;stroke:#0e232e;stroke-width:0.28418434;stroke-linecap:round;stroke-linejoin:round;stroke-miterlimit:4;stroke-dasharray:none;stroke-dashoffset:0;stroke-opacity:1" />
    <circle
       transform="matrix(-1,0,0,1,-125.58315,-107.25451)"
       r="1.6830813"
       cy="193.51846"
       cx="-493.44269"
       id="path8230-2-1-6-2-4"
       style="opacity:1;fill:#0e232e;fill-opacity:1;fill-rule:evenodd;stroke:#0e232e;stroke-width:0.28418434;stroke-linecap:round;stroke-linejoin:round;stroke-miterlimit:4;stroke-dasharray:none;stroke-dashoffset:0;stroke-opacity:1" />
    <circle
       transform="matrix(-1,0,0,1,-125.58315,-107.25451)"
       r="1.6830813"
       cy="193.47885"
       cx="-493.43915"
       id="path8230-27-1-0-5"
       style="opacity:1;fill:#0e232e;fill-opacity:1;fill-rule:evenodd;stroke:#0e232e;stroke-width:0.28418434;stroke-linecap:round;stroke-linejoin:round;stroke-miterlimit:4;stroke-dasharray:none;stroke-dashoffset:0;stroke-opacity:1" />
    <circle
       transform="matrix(-1,0,0,1,-125.58315,-107.25451)"
       r="1.6830813"
       cy="193.47885"
       cx="-531.78607"
       id="path8230-2-0-8-2-0"
       style="opacity:1;fill:#0e232e;fill-opacity:1;fill-rule:evenodd;stroke:#0e232e;stroke-width:0.28418434;stroke-linecap:round;stroke-linejoin:round;stroke-miterlimit:4;stroke-dasharray:none;stroke-dashoffset:0;stroke-opacity:1" />
    <circle
       transform="matrix(-1,0,0,1,-125.58315,-107.25451)"
       r="1.6830813"
       cy="193.45401"
       cx="-531.80682"
       id="path8230-9-9-7-3-3"
       style="opacity:1;fill:#0e232e;fill-opacity:1;fill-rule:evenodd;stroke:#0e232e;stroke-width:0.28418434;stroke-linecap:round;stroke-linejoin:round;stroke-miterlimit:4;stroke-dasharray:none;stroke-dashoffset:0;stroke-opacity:1" />
    <circle
       transform="matrix(-1,0,0,1,-125.58315,-107.25451)"
       r="1.6830813"
       cy="193.45401"
       cx="-570.15387"
       id="path8230-2-1-3-9-7-6"
       style="opacity:1;fill:#0e232e;fill-opacity:1;fill-rule:evenodd;stroke:#0e232e;stroke-width:0.28418434;stroke-linecap:round;stroke-linejoin:round;stroke-miterlimit:4;stroke-dasharray:none;stroke-dashoffset:0;stroke-opacity:1" />
  </g>
  <g
     inkscape:groupmode="layer"
     id="layer3"
     inkscape:label="identities"
     style="display:inline">
    <g
       style="display:inline"
       transform="matrix(1.1744056,0,0,1.1744056,-49.980644,-311.17679)"
       id="g5499">
      <g
         style="font-style:normal;font-variant:normal;font-weight:normal;font-stretch:normal;letter-spacing:normal;word-spacing:normal;text-anchor:start;fill:none;fill-opacity:1;fill-rule:evenodd;stroke:#000000;stroke-linecap:butt;stroke-linejoin:miter;stroke-miterlimit:10.43299961;stroke-dasharray:none;stroke-dashoffset:0;stroke-opacity:1"
         id="g5501"
         transform="matrix(0.30640318,0,0,-0.30640318,-53.620557,405.07893)"
         xml:space="preserve"
         stroke-miterlimit="10.433"
         font-style="normal"
         font-variant="normal"
         font-weight="normal"
         font-stretch="normal"
         font-size-adjust="none"
         letter-spacing="normal"
         word-spacing="normal"><path
           style="fill:#000000;stroke-width:0"
           inkscape:connector-curvature="0"
           d="m 458.74,434.39 0,-1.54 c 2.59,0.05 5.23,0.6 7.47,1.89 l 0,-19.38 0,-4.88 c 0,-0.75 0.1,-1.59 -0.4,-2.19 -0.4,-0.45 -1.04,-0.55 -1.59,-0.59 -1.2,-0.11 -2.34,-0.11 -3.54,-0.11 l 0,-1.54 21.02,0 0,1.54 c -1.19,0 -2.34,0 -3.53,0.11 -0.55,0.04 -1.2,0.14 -1.6,0.59 -0.5,0.6 -0.39,1.35 -0.39,2.04 l 0,4.34 0,17.33 0,5.18 c 0,0.4 0,0.8 0,1.2 0,0.25 0,0.5 -0.2,0.65 -0.25,0.29 -0.9,0.2 -1.25,0.2 l -0.1,-1.55 0,-30.09 -3.99,0 0,30.09 3.99,0 0.1,1.55 -3.34,0 -1.19,0 c -0.2,0 -0.45,0.04 -0.65,-0.05 -0.2,-0.11 -0.3,-0.3 -0.45,-0.45 -0.2,-0.25 -0.4,-0.5 -0.65,-0.7 -0.69,-0.7 -1.44,-1.24 -2.29,-1.74 -2.24,-1.3 -4.83,-1.85 -7.42,-1.9 z"
           id="path5503" /><path
           style="fill:#000000;stroke-width:0"
           inkscape:connector-curvature="0"
           d="m 502.14,434.88 10.67,0 c 0.46,0 1.29,0 1.29,0.84 0,0.87 -0.8,0.87 -1.29,0.87 l -10.67,0 0,10.7 c 0,0.46 0,1.29 -0.83,1.29 -0.87,0 -0.87,-0.8 -0.87,-1.29 l 0,-10.7 -10.71,0 c -0.45,0 -1.29,0 -1.29,-0.84 0,-0.87 0.8,-0.87 1.29,-0.87 l 10.71,0 0,-10.7 c 0,-0.46 0,-1.29 0.83,-1.29 0.87,0 0.87,0.8 0.87,1.29 z"
           id="path5505" /><path
           style="fill:#000000;stroke-width:0"
           inkscape:connector-curvature="0"
           d="m 497.68,415.18 0,0.04 0,0.04 0,0.04 0,0.04 0,0.04 0,0.04 0,0.03 0,0.04 -0.01,0.03 0,0.03 0,0.04 0,0.03 -0.01,0.02 0,0.03 0,0.03 -0.01,0.03 0,0.02 0,0.02 -0.02,0.05 -0.01,0.04 -0.01,0.04 -0.02,0.03 -0.02,0.03 -0.02,0.03 -0.03,0.03 -0.02,0.02 -0.03,0.02 -0.04,0.02 -0.03,0.01 -0.04,0.01 -0.05,0.02 -0.05,0 -0.02,0.01 -0.03,0 -0.03,0.01 -0.02,0 -0.03,0 -0.03,0 -0.04,0 -0.03,0.01 -0.03,0 -0.04,0 -0.03,0 -0.04,0 -0.04,0 -0.04,0 -0.04,0 -0.04,0 -0.05,0 -0.04,0 c -2.24,-2.19 -5.41,-2.23 -6.84,-2.23 l 0,-1.25 c 0.84,0 3.14,0 5.06,0.97 l 0,-17.78 c 0,-1.15 0,-1.61 -3.49,-1.61 l -1.33,0 0,-1.25 12.45,0 0,1.25 -1.32,0 c -3.49,0 -3.49,0.46 -3.49,1.61 z"
           id="path5507" /></g>    </g>
    <g
       style="display:inline"
       id="g5667"
       transform="matrix(1.153649,0,0,1.153649,335.96106,-305.62164)">
      <g
         word-spacing="normal"
         letter-spacing="normal"
         font-size-adjust="none"
         font-stretch="normal"
         font-weight="normal"
         font-variant="normal"
         font-style="normal"
         stroke-miterlimit="10.433"
         xml:space="preserve"
         transform="matrix(0.30640318,0,0,-0.30640318,-53.620557,405.07893)"
         id="g5669"
         style="font-style:normal;font-variant:normal;font-weight:normal;font-stretch:normal;letter-spacing:normal;word-spacing:normal;text-anchor:start;fill:none;fill-opacity:1;fill-rule:evenodd;stroke:#000000;stroke-linecap:butt;stroke-linejoin:miter;stroke-miterlimit:10.43299961;stroke-dasharray:none;stroke-dashoffset:0;stroke-opacity:1"><path
           id="path5671"
           d="m 458.74,434.39 0,-1.54 c 2.59,0.05 5.23,0.6 7.47,1.89 l 0,-19.38 0,-4.88 c 0,-0.75 0.1,-1.59 -0.4,-2.19 -0.4,-0.45 -1.04,-0.55 -1.59,-0.59 -1.2,-0.11 -2.34,-0.11 -3.54,-0.11 l 0,-1.54 21.02,0 0,1.54 c -1.19,0 -2.34,0 -3.53,0.11 -0.55,0.04 -1.2,0.14 -1.6,0.59 -0.5,0.6 -0.39,1.35 -0.39,2.04 l 0,4.34 0,17.33 0,5.18 c 0,0.4 0,0.8 0,1.2 0,0.25 0,0.5 -0.2,0.65 -0.25,0.29 -0.9,0.2 -1.25,0.2 l -0.1,-1.55 0,-30.09 -3.99,0 0,30.09 3.99,0 0.1,1.55 -3.34,0 -1.19,0 c -0.2,0 -0.45,0.04 -0.65,-0.05 -0.2,-0.11 -0.3,-0.3 -0.45,-0.45 -0.2,-0.25 -0.4,-0.5 -0.65,-0.7 -0.69,-0.7 -1.44,-1.24 -2.29,-1.74 -2.24,-1.3 -4.83,-1.85 -7.42,-1.9 z"
           inkscape:connector-curvature="0"
           style="fill:#000000;stroke-width:0" /><path
           id="path5673"
           d="m 502.14,434.88 10.67,0 c 0.46,0 1.29,0 1.29,0.84 0,0.87 -0.8,0.87 -1.29,0.87 l -10.67,0 0,10.7 c 0,0.46 0,1.29 -0.83,1.29 -0.87,0 -0.87,-0.8 -0.87,-1.29 l 0,-10.7 -10.71,0 c -0.45,0 -1.29,0 -1.29,-0.84 0,-0.87 0.8,-0.87 1.29,-0.87 l 10.71,0 0,-10.7 c 0,-0.46 0,-1.29 0.83,-1.29 0.87,0 0.87,0.8 0.87,1.29 z"
           inkscape:connector-curvature="0"
           style="fill:#000000;stroke-width:0" /><path
           id="path5675"
           d="m 515.08,412.02 0.07,0.24 0.08,0.24 0.04,0.12 0.04,0.12 0.05,0.11 0.05,0.11 0.06,0.11 0.06,0.11 0.07,0.1 0.07,0.1 0.08,0.1 0.08,0.1 0.09,0.09 0.09,0.09 0.11,0.08 0.11,0.08 0.12,0.08 0.12,0.07 0.14,0.07 0.14,0.07 0.16,0.06 0.16,0.05 0.18,0.05 0.18,0.04 0.2,0.04 0.2,0.03 0.22,0.03 0.11,0.01 0.12,0.01 0.12,0.01 0.12,0.01 0.13,0.01 0.13,0 c 0.17,0 0.69,0.03 0.69,0.77 0,0.21 -0.17,0.49 -0.52,0.49 l -7.32,0 c -0.18,0 -0.7,0 -0.7,-0.77 0,-0.46 0.46,-0.49 0.77,-0.49 1.64,-0.03 2.23,-0.56 2.23,-1.43 0,-0.28 -0.03,-0.45 -0.14,-0.84 l -3.8,-15.2 -8.86,18.13 c -0.27,0.6 -0.34,0.6 -1.18,0.6 l -4.78,0 c -0.66,0 -1.12,0 -1.12,-0.77 0,-0.49 0.42,-0.49 1.16,-0.49 0.73,0 1.49,-0.03 2.23,-0.17 l -4.67,-18.66 c -0.32,-1.32 -0.91,-2.37 -3.63,-2.48 -0.25,0 -0.73,-0.03 -0.73,-0.73 0,-0.38 0.27,-0.52 0.52,-0.52 l 7.32,0 c 0.35,0 0.7,0.18 0.7,0.73 0,0.49 -0.42,0.52 -0.8,0.52 -2.2,0.07 -2.2,0.98 -2.2,1.47 0,0.14 0,0.32 0.14,0.87 l 4.46,17.86 10.18,-20.86 c 0.28,-0.55 0.42,-0.59 0.77,-0.59 0.56,0 0.56,0.11 0.73,0.73 z"
           inkscape:connector-curvature="0"
           style="fill:#000000;stroke-width:0" /></g>    </g>
    <g
       style="display:inline"
       id="g6231"
       transform="matrix(1.1744056,0,0,1.1744056,-10.860145,-311.17679)">
      <g
         id="g6233"
         transform="matrix(0.30640318,0,0,-0.30640318,-53.620557,405.07893)"
         xml:space="preserve"
         stroke-miterlimit="10.433"
         font-style="normal"
         font-variant="normal"
         font-weight="normal"
         font-stretch="normal"
         font-size-adjust="none"
         letter-spacing="normal"
         word-spacing="normal"
         style="font-style:normal;font-variant:normal;font-weight:normal;font-stretch:normal;letter-spacing:normal;word-spacing:normal;text-anchor:start;fill:none;fill-opacity:1;fill-rule:evenodd;stroke:#000000;stroke-linecap:butt;stroke-linejoin:miter;stroke-miterlimit:10.43299961;stroke-dasharray:none;stroke-dashoffset:0;stroke-opacity:1"><path
           d="m 458.74,434.39 0,-1.54 c 2.59,0.05 5.23,0.6 7.47,1.89 l 0,-19.38 0,-4.88 c 0,-0.75 0.1,-1.59 -0.4,-2.19 -0.4,-0.45 -1.04,-0.55 -1.59,-0.59 -1.2,-0.11 -2.34,-0.11 -3.54,-0.11 l 0,-1.54 21.02,0 0,1.54 c -1.19,0 -2.34,0 -3.53,0.11 -0.55,0.04 -1.2,0.14 -1.6,0.59 -0.5,0.6 -0.39,1.35 -0.39,2.04 l 0,4.34 0,17.33 0,5.18 c 0,0.4 0,0.8 0,1.2 0,0.25 0,0.5 -0.2,0.65 -0.25,0.29 -0.9,0.2 -1.25,0.2 l -0.1,-1.55 0,-30.09 -3.99,0 0,30.09 3.99,0 0.1,1.55 -3.34,0 -1.19,0 c -0.2,0 -0.45,0.04 -0.65,-0.05 -0.2,-0.11 -0.3,-0.3 -0.45,-0.45 -0.2,-0.25 -0.4,-0.5 -0.65,-0.7 -0.69,-0.7 -1.44,-1.24 -2.29,-1.74 -2.24,-1.3 -4.83,-1.85 -7.42,-1.9 z"
           id="path6235"
           inkscape:connector-curvature="0"
           style="fill:#000000;stroke-width:0" /><path
           d="m 502.14,434.88 10.67,0 c 0.46,0 1.29,0 1.29,0.84 0,0.87 -0.8,0.87 -1.29,0.87 l -10.67,0 0,10.7 c 0,0.46 0,1.29 -0.83,1.29 -0.87,0 -0.87,-0.8 -0.87,-1.29 l 0,-10.7 -10.71,0 c -0.45,0 -1.29,0 -1.29,-0.84 0,-0.87 0.8,-0.87 1.29,-0.87 l 10.71,0 0,-10.7 c 0,-0.46 0,-1.29 0.83,-1.29 0.87,0 0.87,0.8 0.87,1.29 z"
           id="path6237"
           inkscape:connector-curvature="0"
           style="fill:#000000;stroke-width:0" /><path
           d="m 503.61,399.35 -1.19,0 c -0.1,-0.77 -0.45,-2.83 -0.9,-3.18 -0.28,-0.21 -2.97,-0.21 -3.45,-0.21 l -6.42,0 c 3.66,3.25 4.88,4.22 6.97,5.86 2.58,2.06 4.99,4.22 4.99,7.54 0,4.21 -3.7,6.79 -8.16,6.79 -4.33,0 -7.25,-3.03 -7.25,-6.24 0,-1.78 1.5,-1.95 1.84,-1.95 0.84,0 1.85,0.59 1.85,1.85 0,0.62 -0.24,1.85 -2.05,1.85 1.08,2.47 3.45,3.24 5.09,3.24 3.48,0 5.3,-2.72 5.3,-5.54 0,-3.04 -2.16,-5.45 -3.28,-6.7 l -8.4,-8.3 c -0.35,-0.31 -0.35,-0.38 -0.35,-1.36 l 14.36,0 z"
           id="path6239"
           inkscape:connector-curvature="0"
           style="fill:#000000;stroke-width:0" /></g>    </g>
    <g
       style="display:inline"
       id="g6888"
       transform="matrix(1.1597985,0,0,1.1597985,28.786457,-307.26745)">
      <g
         word-spacing="normal"
         letter-spacing="normal"
         font-size-adjust="none"
         font-stretch="normal"
         font-weight="normal"
         font-variant="normal"
         font-style="normal"
         stroke-miterlimit="10.433"
         xml:space="preserve"
         transform="matrix(0.30640318,0,0,-0.30640318,-53.620557,405.07893)"
         id="g6890"
         style="font-style:normal;font-variant:normal;font-weight:normal;font-stretch:normal;letter-spacing:normal;word-spacing:normal;text-anchor:start;fill:none;fill-opacity:1;fill-rule:evenodd;stroke:#000000;stroke-linecap:butt;stroke-linejoin:miter;stroke-miterlimit:10.43299961;stroke-dasharray:none;stroke-dashoffset:0;stroke-opacity:1"><path
           id="path6892"
           d="m 458.74,434.39 0,-1.54 c 2.59,0.05 5.23,0.6 7.47,1.89 l 0,-19.38 0,-4.88 c 0,-0.75 0.1,-1.59 -0.4,-2.19 -0.4,-0.45 -1.04,-0.55 -1.59,-0.59 -1.2,-0.11 -2.34,-0.11 -3.54,-0.11 l 0,-1.54 21.02,0 0,1.54 c -1.19,0 -2.34,0 -3.53,0.11 -0.55,0.04 -1.2,0.14 -1.6,0.59 -0.5,0.6 -0.39,1.35 -0.39,2.04 l 0,4.34 0,17.33 0,5.18 c 0,0.4 0,0.8 0,1.2 0,0.25 0,0.5 -0.2,0.65 -0.25,0.29 -0.9,0.2 -1.25,0.2 l -0.1,-1.55 0,-30.09 -3.99,0 0,30.09 3.99,0 0.1,1.55 -3.34,0 -1.19,0 c -0.2,0 -0.45,0.04 -0.65,-0.05 -0.2,-0.11 -0.3,-0.3 -0.45,-0.45 -0.2,-0.25 -0.4,-0.5 -0.65,-0.7 -0.69,-0.7 -1.44,-1.24 -2.29,-1.74 -2.24,-1.3 -4.83,-1.85 -7.42,-1.9 z"
           inkscape:connector-curvature="0"
           style="fill:#000000;stroke-width:0" /><path
           id="path6894"
           d="m 502.14,434.88 10.67,0 c 0.46,0 1.29,0 1.29,0.84 0,0.87 -0.8,0.87 -1.29,0.87 l -10.67,0 0,10.7 c 0,0.46 0,1.29 -0.83,1.29 -0.87,0 -0.87,-0.8 -0.87,-1.29 l 0,-10.7 -10.71,0 c -0.45,0 -1.29,0 -1.29,-0.84 0,-0.87 0.8,-0.87 1.29,-0.87 l 10.71,0 0,-10.7 c 0,-0.46 0,-1.29 0.83,-1.29 0.87,0 0.87,0.8 0.87,1.29 z"
           inkscape:connector-curvature="0"
           style="fill:#000000;stroke-width:0" /><path
           id="path6896"
           d="m 495.52,404.64 0.25,0 0.25,-0.02 0.24,-0.02 0.24,-0.04 0.23,-0.05 0.23,-0.06 0.22,-0.07 0.22,-0.09 0.21,-0.09 0.2,-0.11 0.19,-0.11 0.19,-0.13 0.18,-0.13 0.18,-0.15 0.17,-0.16 0.15,-0.17 0.16,-0.18 0.14,-0.2 0.13,-0.2 0.13,-0.21 0.12,-0.23 0.11,-0.23 0.09,-0.25 0.09,-0.26 0.08,-0.27 0.07,-0.28 0.06,-0.29 0.05,-0.3 0.04,-0.31 0.03,-0.32 0.02,-0.33 0,-0.35 c 0,-4.32 -2.51,-5.61 -4.53,-5.61 -1.39,0 -4.46,0.38 -5.93,2.44 1.64,0.07 2.02,1.22 2.02,1.95 0,1.12 -0.83,1.92 -1.91,1.92 -0.98,0 -1.96,-0.59 -1.96,-2.02 0,-3.28 3.63,-5.41 7.85,-5.41 4.84,0 8.19,3.25 8.19,6.73 0,2.72 -2.23,5.44 -6.06,6.24 3.66,1.33 4.98,3.94 4.98,6.07 0,2.76 -3.17,4.81 -7.04,4.81 -3.87,0 -6.84,-1.88 -6.84,-4.67 0,-1.18 0.77,-1.85 1.82,-1.85 1.08,0 1.77,0.8 1.77,1.78 0,1.01 -0.69,1.75 -1.77,1.81 1.22,1.54 3.62,1.92 4.92,1.92 1.56,0 3.76,-0.76 3.76,-3.8 0,-1.46 -0.49,-3.07 -1.39,-4.15 -1.16,-1.32 -2.13,-1.39 -3.87,-1.5 -0.88,-0.07 -0.95,-0.07 -1.12,-0.1 -0.07,0 -0.35,-0.07 -0.35,-0.46 0,-0.49 0.31,-0.49 0.91,-0.49 z"
           inkscape:connector-curvature="0"
           style="fill:#000000;stroke-width:0" /></g>    </g>
    <g
       style="display:inline"
       transform="matrix(1.1744006,0,0,1.1744006,333.41313,-221.05955)"
       id="g5845">
      <g
         style="font-style:normal;font-variant:normal;font-weight:normal;font-stretch:normal;letter-spacing:normal;word-spacing:normal;text-anchor:start;fill:none;fill-opacity:1;fill-rule:evenodd;stroke:#000000;stroke-linecap:butt;stroke-linejoin:miter;stroke-miterlimit:10.43299961;stroke-dasharray:none;stroke-dashoffset:0;stroke-opacity:1"
         id="g5847"
         transform="matrix(0.30640318,0,0,-0.30640318,-53.620557,405.07893)"
         xml:space="preserve"
         stroke-miterlimit="10.433"
         font-style="normal"
         font-variant="normal"
         font-weight="normal"
         font-stretch="normal"
         font-size-adjust="none"
         letter-spacing="normal"
         word-spacing="normal"><path
           style="fill:#000000;stroke-width:0"
           inkscape:connector-curvature="0"
           d="m 458.74,434.39 0,-1.54 c 2.59,0.05 5.23,0.6 7.47,1.89 l 0,-19.38 0,-4.88 c 0,-0.75 0.1,-1.59 -0.4,-2.19 -0.4,-0.45 -1.04,-0.55 -1.59,-0.59 -1.2,-0.11 -2.34,-0.11 -3.54,-0.11 l 0,-1.54 21.02,0 0,1.54 c -1.19,0 -2.34,0 -3.53,0.11 -0.55,0.04 -1.2,0.14 -1.6,0.59 -0.5,0.6 -0.39,1.35 -0.39,2.04 l 0,4.34 0,17.33 0,5.18 c 0,0.4 0,0.8 0,1.2 0,0.25 0,0.5 -0.2,0.65 -0.25,0.29 -0.9,0.2 -1.25,0.2 l -0.1,-1.55 0,-30.09 -3.99,0 0,30.09 3.99,0 0.1,1.55 -3.34,0 -1.19,0 c -0.2,0 -0.45,0.04 -0.65,-0.05 -0.2,-0.11 -0.3,-0.3 -0.45,-0.45 -0.2,-0.25 -0.4,-0.5 -0.65,-0.7 -0.69,-0.7 -1.44,-1.24 -2.29,-1.74 -2.24,-1.3 -4.83,-1.85 -7.42,-1.9 z"
           id="path5849" /><path
           style="fill:#000000;stroke-width:0"
           inkscape:connector-curvature="0"
           d="m 511.94,434.88 0.05,0 0.06,0 0.05,0 0.06,0 0.12,0 0.06,0.01 0.05,0 0.06,0.01 0.06,0 0.06,0.01 0.06,0.01 0.05,0.02 0.06,0.01 0.06,0.02 0.05,0.01 0.05,0.02 0.05,0.03 0.05,0.02 0.04,0.03 0.04,0.04 0.05,0.03 0.03,0.04 0.02,0.02 0.02,0.02 0.01,0.03 0.02,0.02 0.01,0.02 0.02,0.03 0.01,0.03 0.01,0.02 0.01,0.03 0.01,0.03 0.01,0.03 0,0.03 0.01,0.04 0.01,0.03 0,0.04 0,0.03 0.01,0.04 0,0.04 c 0,0.87 -0.81,0.87 -1.4,0.87 l -20.78,0 c -0.56,0 -1.39,0 -1.39,-0.84 0,-0.87 0.8,-0.87 1.39,-0.87 z"
           id="path5851" /><path
           style="fill:#000000;stroke-width:0"
           inkscape:connector-curvature="0"
           d="m 515.08,412.02 0.07,0.24 0.08,0.24 0.04,0.12 0.04,0.12 0.05,0.11 0.05,0.11 0.06,0.11 0.06,0.11 0.07,0.1 0.07,0.1 0.08,0.1 0.08,0.1 0.09,0.09 0.09,0.09 0.11,0.08 0.11,0.08 0.12,0.08 0.12,0.07 0.14,0.07 0.14,0.07 0.16,0.06 0.16,0.05 0.18,0.05 0.18,0.04 0.2,0.04 0.2,0.03 0.22,0.03 0.11,0.01 0.12,0.01 0.12,0.01 0.12,0.01 0.13,0.01 0.13,0 c 0.17,0 0.69,0.03 0.69,0.77 0,0.21 -0.17,0.49 -0.52,0.49 l -7.32,0 c -0.18,0 -0.7,0 -0.7,-0.77 0,-0.46 0.46,-0.49 0.77,-0.49 1.64,-0.03 2.23,-0.56 2.23,-1.43 0,-0.28 -0.03,-0.45 -0.14,-0.84 l -3.8,-15.2 -8.86,18.13 c -0.27,0.6 -0.34,0.6 -1.18,0.6 l -4.78,0 c -0.66,0 -1.12,0 -1.12,-0.77 0,-0.49 0.42,-0.49 1.16,-0.49 0.73,0 1.49,-0.03 2.23,-0.17 l -4.67,-18.66 c -0.32,-1.32 -0.91,-2.37 -3.63,-2.48 -0.25,0 -0.73,-0.03 -0.73,-0.73 0,-0.38 0.27,-0.52 0.52,-0.52 l 7.32,0 c 0.35,0 0.7,0.18 0.7,0.73 0,0.49 -0.42,0.52 -0.8,0.52 -2.2,0.07 -2.2,0.98 -2.2,1.47 0,0.14 0,0.32 0.14,0.87 l 4.46,17.86 10.18,-20.86 c 0.28,-0.55 0.42,-0.59 0.77,-0.59 0.56,0 0.56,0.11 0.73,0.73 z"
           id="path5853" /></g>    </g>
    <g
       style="display:inline"
       id="g6033"
       transform="matrix(1.2117241,0,0,1.2117241,-52.620128,-231.23981)">
      <g
         word-spacing="normal"
         letter-spacing="normal"
         font-size-adjust="none"
         font-stretch="normal"
         font-weight="normal"
         font-variant="normal"
         font-style="normal"
         stroke-miterlimit="10.433"
         xml:space="preserve"
         transform="matrix(0.30640318,0,0,-0.30640318,-53.620557,405.07893)"
         id="g6035"
         style="font-style:normal;font-variant:normal;font-weight:normal;font-stretch:normal;letter-spacing:normal;word-spacing:normal;text-anchor:start;fill:none;fill-opacity:1;fill-rule:evenodd;stroke:#000000;stroke-linecap:butt;stroke-linejoin:miter;stroke-miterlimit:10.43299961;stroke-dasharray:none;stroke-dashoffset:0;stroke-opacity:1"><path
           id="path6037"
           d="m 458.74,434.39 0,-1.54 c 2.59,0.05 5.23,0.6 7.47,1.89 l 0,-19.38 0,-4.88 c 0,-0.75 0.1,-1.59 -0.4,-2.19 -0.4,-0.45 -1.04,-0.55 -1.59,-0.59 -1.2,-0.11 -2.34,-0.11 -3.54,-0.11 l 0,-1.54 21.02,0 0,1.54 c -1.19,0 -2.34,0 -3.53,0.11 -0.55,0.04 -1.2,0.14 -1.6,0.59 -0.5,0.6 -0.39,1.35 -0.39,2.04 l 0,4.34 0,17.33 0,5.18 c 0,0.4 0,0.8 0,1.2 0,0.25 0,0.5 -0.2,0.65 -0.25,0.29 -0.9,0.2 -1.25,0.2 l -0.1,-1.55 0,-30.09 -3.99,0 0,30.09 3.99,0 0.1,1.55 -3.34,0 -1.19,0 c -0.2,0 -0.45,0.04 -0.65,-0.05 -0.2,-0.11 -0.3,-0.3 -0.45,-0.45 -0.2,-0.25 -0.4,-0.5 -0.65,-0.7 -0.69,-0.7 -1.44,-1.24 -2.29,-1.74 -2.24,-1.3 -4.83,-1.85 -7.42,-1.9 z"
           inkscape:connector-curvature="0"
           style="fill:#000000;stroke-width:0" /><path
           id="path6039"
           d="m 511.94,434.88 0.05,0 0.06,0 0.05,0 0.06,0 0.12,0 0.06,0.01 0.05,0 0.06,0.01 0.06,0 0.06,0.01 0.06,0.01 0.05,0.02 0.06,0.01 0.06,0.02 0.05,0.01 0.05,0.02 0.05,0.03 0.05,0.02 0.04,0.03 0.04,0.04 0.05,0.03 0.03,0.04 0.02,0.02 0.02,0.02 0.01,0.03 0.02,0.02 0.01,0.02 0.02,0.03 0.01,0.03 0.01,0.02 0.01,0.03 0.01,0.03 0.01,0.03 0,0.03 0.01,0.04 0.01,0.03 0,0.04 0,0.03 0.01,0.04 0,0.04 c 0,0.87 -0.81,0.87 -1.4,0.87 l -20.78,0 c -0.56,0 -1.39,0 -1.39,-0.84 0,-0.87 0.8,-0.87 1.39,-0.87 z"
           inkscape:connector-curvature="0"
           style="fill:#000000;stroke-width:0" /><path
           id="path6041"
           d="m 497.68,415.18 0,0.04 0,0.04 0,0.04 0,0.04 0,0.04 0,0.04 0,0.03 0,0.04 -0.01,0.03 0,0.03 0,0.04 0,0.03 -0.01,0.02 0,0.03 0,0.03 -0.01,0.03 0,0.02 0,0.02 -0.02,0.05 -0.01,0.04 -0.01,0.04 -0.02,0.03 -0.02,0.03 -0.02,0.03 -0.03,0.03 -0.02,0.02 -0.03,0.02 -0.04,0.02 -0.03,0.01 -0.04,0.01 -0.05,0.02 -0.05,0 -0.02,0.01 -0.03,0 -0.03,0.01 -0.02,0 -0.03,0 -0.03,0 -0.04,0 -0.03,0.01 -0.03,0 -0.04,0 -0.03,0 -0.04,0 -0.04,0 -0.04,0 -0.04,0 -0.04,0 -0.05,0 -0.04,0 c -2.24,-2.19 -5.41,-2.23 -6.84,-2.23 l 0,-1.25 c 0.84,0 3.14,0 5.06,0.97 l 0,-17.78 c 0,-1.15 0,-1.61 -3.49,-1.61 l -1.33,0 0,-1.25 12.45,0 0,1.25 -1.32,0 c -3.49,0 -3.49,0.46 -3.49,1.61 z"
           inkscape:connector-curvature="0"
           style="fill:#000000;stroke-width:0" /></g>    </g>
    <g
       style="display:inline"
       id="g6439"
       transform="matrix(1.1997967,0,0,1.1997967,-13.20649,-227.92903)">
      <g
         word-spacing="normal"
         letter-spacing="normal"
         font-size-adjust="none"
         font-stretch="normal"
         font-weight="normal"
         font-variant="normal"
         font-style="normal"
         stroke-miterlimit="10.433"
         xml:space="preserve"
         transform="matrix(0.30640318,0,0,-0.30640318,-53.620557,405.07893)"
         id="g6441"
         style="font-style:normal;font-variant:normal;font-weight:normal;font-stretch:normal;letter-spacing:normal;word-spacing:normal;text-anchor:start;fill:none;fill-opacity:1;fill-rule:evenodd;stroke:#000000;stroke-linecap:butt;stroke-linejoin:miter;stroke-miterlimit:10.43299961;stroke-dasharray:none;stroke-dashoffset:0;stroke-opacity:1"><path
           id="path6443"
           d="m 458.74,434.39 0,-1.54 c 2.59,0.05 5.23,0.6 7.47,1.89 l 0,-19.38 0,-4.88 c 0,-0.75 0.1,-1.59 -0.4,-2.19 -0.4,-0.45 -1.04,-0.55 -1.59,-0.59 -1.2,-0.11 -2.34,-0.11 -3.54,-0.11 l 0,-1.54 21.02,0 0,1.54 c -1.19,0 -2.34,0 -3.53,0.11 -0.55,0.04 -1.2,0.14 -1.6,0.59 -0.5,0.6 -0.39,1.35 -0.39,2.04 l 0,4.34 0,17.33 0,5.18 c 0,0.4 0,0.8 0,1.2 0,0.25 0,0.5 -0.2,0.65 -0.25,0.29 -0.9,0.2 -1.25,0.2 l -0.1,-1.55 0,-30.09 -3.99,0 0,30.09 3.99,0 0.1,1.55 -3.34,0 -1.19,0 c -0.2,0 -0.45,0.04 -0.65,-0.05 -0.2,-0.11 -0.3,-0.3 -0.45,-0.45 -0.2,-0.25 -0.4,-0.5 -0.65,-0.7 -0.69,-0.7 -1.44,-1.24 -2.29,-1.74 -2.24,-1.3 -4.83,-1.85 -7.42,-1.9 z"
           inkscape:connector-curvature="0"
           style="fill:#000000;stroke-width:0" /><path
           id="path6445"
           d="m 511.94,434.88 0.05,0 0.06,0 0.05,0 0.06,0 0.12,0 0.06,0.01 0.05,0 0.06,0.01 0.06,0 0.06,0.01 0.06,0.01 0.05,0.02 0.06,0.01 0.06,0.02 0.05,0.01 0.05,0.02 0.05,0.03 0.05,0.02 0.04,0.03 0.04,0.04 0.05,0.03 0.03,0.04 0.02,0.02 0.02,0.02 0.01,0.03 0.02,0.02 0.01,0.02 0.02,0.03 0.01,0.03 0.01,0.02 0.01,0.03 0.01,0.03 0.01,0.03 0,0.03 0.01,0.04 0.01,0.03 0,0.04 0,0.03 0.01,0.04 0,0.04 c 0,0.87 -0.81,0.87 -1.4,0.87 l -20.78,0 c -0.56,0 -1.39,0 -1.39,-0.84 0,-0.87 0.8,-0.87 1.39,-0.87 z"
           inkscape:connector-curvature="0"
           style="fill:#000000;stroke-width:0" /><path
           id="path6447"
           d="m 503.61,399.35 -1.19,0 c -0.1,-0.77 -0.45,-2.83 -0.9,-3.18 -0.28,-0.21 -2.97,-0.21 -3.45,-0.21 l -6.42,0 c 3.66,3.25 4.88,4.22 6.97,5.86 2.58,2.06 4.99,4.22 4.99,7.54 0,4.21 -3.7,6.79 -8.16,6.79 -4.33,0 -7.25,-3.03 -7.25,-6.24 0,-1.78 1.5,-1.95 1.84,-1.95 0.84,0 1.85,0.59 1.85,1.85 0,0.62 -0.24,1.85 -2.05,1.85 1.08,2.47 3.45,3.24 5.09,3.24 3.48,0 5.3,-2.72 5.3,-5.54 0,-3.04 -2.16,-5.45 -3.28,-6.7 l -8.4,-8.3 c -0.35,-0.31 -0.35,-0.38 -0.35,-1.36 l 14.36,0 z"
           inkscape:connector-curvature="0"
           style="fill:#000000;stroke-width:0" /></g>    </g>
    <g
       style="display:inline"
       id="g6662"
       transform="matrix(1.1819058,0,0,1.1819058,27.469426,-223.08966)">
      <g
         id="g6664"
         transform="matrix(0.30640318,0,0,-0.30640318,-53.620557,405.07893)"
         xml:space="preserve"
         stroke-miterlimit="10.433"
         font-style="normal"
         font-variant="normal"
         font-weight="normal"
         font-stretch="normal"
         font-size-adjust="none"
         letter-spacing="normal"
         word-spacing="normal"
         style="font-style:normal;font-variant:normal;font-weight:normal;font-stretch:normal;letter-spacing:normal;word-spacing:normal;text-anchor:start;fill:none;fill-opacity:1;fill-rule:evenodd;stroke:#000000;stroke-linecap:butt;stroke-linejoin:miter;stroke-miterlimit:10.43299961;stroke-dasharray:none;stroke-dashoffset:0;stroke-opacity:1"><path
           d="m 458.74,434.39 0,-1.54 c 2.59,0.05 5.23,0.6 7.47,1.89 l 0,-19.38 0,-4.88 c 0,-0.75 0.1,-1.59 -0.4,-2.19 -0.4,-0.45 -1.04,-0.55 -1.59,-0.59 -1.2,-0.11 -2.34,-0.11 -3.54,-0.11 l 0,-1.54 21.02,0 0,1.54 c -1.19,0 -2.34,0 -3.53,0.11 -0.55,0.04 -1.2,0.14 -1.6,0.59 -0.5,0.6 -0.39,1.35 -0.39,2.04 l 0,4.34 0,17.33 0,5.18 c 0,0.4 0,0.8 0,1.2 0,0.25 0,0.5 -0.2,0.65 -0.25,0.29 -0.9,0.2 -1.25,0.2 l -0.1,-1.55 0,-30.09 -3.99,0 0,30.09 3.99,0 0.1,1.55 -3.34,0 -1.19,0 c -0.2,0 -0.45,0.04 -0.65,-0.05 -0.2,-0.11 -0.3,-0.3 -0.45,-0.45 -0.2,-0.25 -0.4,-0.5 -0.65,-0.7 -0.69,-0.7 -1.44,-1.24 -2.29,-1.74 -2.24,-1.3 -4.83,-1.85 -7.42,-1.9 z"
           id="path6666"
           inkscape:connector-curvature="0"
           style="fill:#000000;stroke-width:0" /><path
           d="m 511.94,434.88 0.05,0 0.06,0 0.05,0 0.06,0 0.12,0 0.06,0.01 0.05,0 0.06,0.01 0.06,0 0.06,0.01 0.06,0.01 0.05,0.02 0.06,0.01 0.06,0.02 0.05,0.01 0.05,0.02 0.05,0.03 0.05,0.02 0.04,0.03 0.04,0.04 0.05,0.03 0.03,0.04 0.02,0.02 0.02,0.02 0.01,0.03 0.02,0.02 0.01,0.02 0.02,0.03 0.01,0.03 0.01,0.02 0.01,0.03 0.01,0.03 0.01,0.03 0,0.03 0.01,0.04 0.01,0.03 0,0.04 0,0.03 0.01,0.04 0,0.04 c 0,0.87 -0.81,0.87 -1.4,0.87 l -20.78,0 c -0.56,0 -1.39,0 -1.39,-0.84 0,-0.87 0.8,-0.87 1.39,-0.87 z"
           id="path6668"
           inkscape:connector-curvature="0"
           style="fill:#000000;stroke-width:0" /><path
           d="m 495.52,404.64 0.25,0 0.25,-0.02 0.24,-0.02 0.24,-0.04 0.23,-0.05 0.23,-0.06 0.22,-0.07 0.22,-0.09 0.21,-0.09 0.2,-0.11 0.19,-0.11 0.19,-0.13 0.18,-0.13 0.18,-0.15 0.17,-0.16 0.15,-0.17 0.16,-0.18 0.14,-0.2 0.13,-0.2 0.13,-0.21 0.12,-0.23 0.11,-0.23 0.09,-0.25 0.09,-0.26 0.08,-0.27 0.07,-0.28 0.06,-0.29 0.05,-0.3 0.04,-0.31 0.03,-0.32 0.02,-0.33 0,-0.35 c 0,-4.32 -2.51,-5.61 -4.53,-5.61 -1.39,0 -4.46,0.38 -5.93,2.44 1.64,0.07 2.02,1.22 2.02,1.95 0,1.12 -0.83,1.92 -1.91,1.92 -0.98,0 -1.96,-0.59 -1.96,-2.02 0,-3.28 3.63,-5.41 7.85,-5.41 4.84,0 8.19,3.25 8.19,6.73 0,2.72 -2.23,5.44 -6.06,6.24 3.66,1.33 4.98,3.94 4.98,6.07 0,2.76 -3.17,4.81 -7.04,4.81 -3.87,0 -6.84,-1.88 -6.84,-4.67 0,-1.18 0.77,-1.85 1.82,-1.85 1.08,0 1.77,0.8 1.77,1.78 0,1.01 -0.69,1.75 -1.77,1.81 1.22,1.54 3.62,1.92 4.92,1.92 1.56,0 3.76,-0.76 3.76,-3.8 0,-1.46 -0.49,-3.07 -1.39,-4.15 -1.16,-1.32 -2.13,-1.39 -3.87,-1.5 -0.88,-0.07 -0.95,-0.07 -1.12,-0.1 -0.07,0 -0.35,-0.07 -0.35,-0.46 0,-0.49 0.31,-0.49 0.91,-0.49 z"
           id="path6670"
           inkscape:connector-curvature="0"
           style="fill:#000000;stroke-width:0" /></g>    </g>
  </g>
</svg>
